[
	{ "amount": 426, "value": "Eddy"},
	{ "amount": 263, "value": "Lord Wraith SOL3"},
	{ "amount": 254, "value": "PrimoSuperT"},
	{ "amount": 215, "value": "CA-[23rdVA]Cpt.Tiger"},
	{ "amount": 206, "value": "WisdomTooth8"},
	{ "amount": 194, "value": "dvlwsere"},
	{ "amount": 190, "value": "Lystent"},
	{ "amount": 189, "value": "Drakiシ"},
	{ "amount": 189, "value": "Spite"},
	{ "amount": 189, "value": "volgraza"},
	{ "amount": 182, "value": "Alien 480"},
	{ "amount": 180, "value": "McTec Ind."},
	{ "amount": 171, "value": "Dar Kovalord"},
	{ "amount": 171, "value": "MrEvan312"},
	{ "amount": 170, "value": "Luvstruckmango"},
	{ "amount": 169, "value": "LeapedSiren97"},
	{ "amount": 166, "value": "[WTFH] ragnar_greymane"},
	{ "amount": 163, "value": "Bruce LeedleLeedleLeedleLee"},
	{ "amount": 160, "value": "High Ground"},
	{ "amount": 158, "value": "[HavannaRP] [TF] Lord Mexium"},
	{ "amount": 157, "value": "SpetS"},
	{ "amount": 154, "value": "Ekuah"},
	{ "amount": 154, "value": "jk"},
	{ "amount": 152, "value": "AlonE"},
	{ "amount": 145, "value": "Flatulent_Moth"},
	{ "amount": 145, "value": "Spaceman Spiff"},
	{ "amount": 144, "value": "Saladin"},
	{ "amount": 143, "value": "dhartvault"},
	{ "amount": 134, "value": "Malacanth"},
	{ "amount": 133, "value": "321_puleknow"},
	{ "amount": 130, "value": "DragoF1sh"},
	{ "amount": 129, "value": "Purrfect-Blinky"},
	{ "amount": 127, "value": "TellerTactGaming"},
	{ "amount": 126, "value": "Hull Breach"},
	{ "amount": 123, "value": "Whiplash141"},
	{ "amount": 122, "value": "Sauna"},
	{ "amount": 121, "value": "KawaiLogic"},
	{ "amount": 121, "value": "Nexar"},
	{ "amount": 121, "value": "NordicBeast"},
	{ "amount": 120, "value": "Dr. Skeeter"},
	{ "amount": 119, "value": "JukaBALA"},
	{ "amount": 117, "value": "JD.Horx"},
	{ "amount": 116, "value": "Keq"},
	{ "amount": 114, "value": "k_medlock"},
	{ "amount": 113, "value": "Enduar"},
	{ "amount": 113, "value": "Samerrie"},
	{ "amount": 112, "value": "Marcelo ACFM"},
	{ "amount": 110, "value": "The Shadow"},
	{ "amount": 108, "value": "CGT-CREATIVE"},
	{ "amount": 108, "value": "Helratz"},
	{ "amount": 107, "value": "Elfi Wolfe"},
	{ "amount": 107, "value": "Major Jon"},
	{ "amount": 105, "value": "BlackArmor"},
	{ "amount": 105, "value": "☣▬ᗰᗩ᙭Iᗰᕮ7080▬☣"},
	{ "amount": 104, "value": "PyreStarite"},
	{ "amount": 103, "value": "JETNET"},
	{ "amount": 103, "value": "Yuna"},
	{ "amount": 100, "value": "[Civil]"},
	{ "amount": 100, "value": "mahtrok"},
	{ "amount": 99, "value": "Mad-Catcher"},
	{ "amount": 98, "value": "MoonAppleSeed"},
	{ "amount": 98, "value": "sauron2012"},
	{ "amount": 96, "value": "(STRM)TheIronWolf45"},
	{ "amount": 96, "value": "FireStorm"},
	{ "amount": 96, "value": "Mattacon"},
	{ "amount": 95, "value": "Tachyon particles"},
	{ "amount": 95, "value": "mhwyoshi"},
	{ "amount": 94, "value": "OctoMoose"},
	{ "amount": 93, "value": "Bad Dain Bramage"},
	{ "amount": 93, "value": "Silvro"},
	{ "amount": 91, "value": "5URG3"},
	{ "amount": 90, "value": "Beesoldier"},
	{ "amount": 89, "value": "..."},
	{ "amount": 89, "value": "GopeScope"},
	{ "amount": 89, "value": "Lord Damp Nut"},
	{ "amount": 88, "value": "Oisin"},
	{ "amount": 87, "value": "Blue Moon"},
	{ "amount": 87, "value": "Kiyashi"},
	{ "amount": 86, "value": "Const"},
	{ "amount": 86, "value": "PeterHammerman"},
	{ "amount": 86, "value": "StreamBG"},
	{ "amount": 84, "value": "Brubaker"},
	{ "amount": 84, "value": "Regnion"},
	{ "amount": 83, "value": "神崎峯政"},
	{ "amount": 81, "value": "LeonserGT"},
	{ "amount": 81, "value": "Lord Commissar"},
	{ "amount": 81, "value": "nelnia"},
	{ "amount": 80, "value": "JoeTheAntiPro"},
	{ "amount": 80, "value": "[FP]Anthony7094"},
	{ "amount": 79, "value": "FlocK"},
	{ "amount": 79, "value": "micpez93"},
	{ "amount": 79, "value": "polaarbunnygirl"},
	{ "amount": 78, "value": "boanerges929"},
	{ "amount": 77, "value": "Alpha-5"},
	{ "amount": 76, "value": "SuicideNeil"},
	{ "amount": 76, "value": "jura7"},
	{ "amount": 76, "value": "meiler.berlin1"},
	{ "amount": 75, "value": "Clockwork168"},
	{ "amount": 75, "value": "Duke of Lorraine"},
	{ "amount": 75, "value": "FN-2197"},
	{ "amount": 74, "value": "UNOWHO"},
	{ "amount": 74, "value": "boostercc2000"},
	{ "amount": 73, "value": "kevd42"},
	{ "amount": 72, "value": "AfgooeyKeef"},
	{ "amount": 72, "value": "JP_2793"},
	{ "amount": 71, "value": "Cypress"},
	{ "amount": 71, "value": "gundam2jimmy"},
	{ "amount": 71, "value": "mastodont"},
	{ "amount": 70, "value": "Holford411"},
	{ "amount": 70, "value": "SS Obersturmsw@gfuhrer"},
	{ "amount": 70, "value": "Whaddageek"},
	{ "amount": 69, "value": "Deceti"},
	{ "amount": 69, "value": "Doctor Budgie"},
	{ "amount": 69, "value": "DonCoyote"},
	{ "amount": 69, "value": "Faely"},
	{ "amount": 69, "value": "Space Kitten"},
	{ "amount": 69, "value": "Ventus Pri"},
	{ "amount": 69, "value": "the lone_archer"},
	{ "amount": 68, "value": "Ashley Cinders"},
	{ "amount": 68, "value": "ChocoCrispi"},
	{ "amount": 68, "value": "Nuclear Pyromaniac"},
	{ "amount": 68, "value": "Wolf"},
	{ "amount": 68, "value": "creeper king 82"},
	{ "amount": 68, "value": "warrior1609"},
	{ "amount": 67, "value": "SkekSel the Engineer"},
	{ "amount": 66, "value": "LeeTheFlea"},
	{ "amount": 66, "value": "Rakshasa"},
	{ "amount": 65, "value": "remethep"},
	{ "amount": 65, "value": "w4stedspace"},
	{ "amount": 64, "value": "Dan2D3D"},
	{ "amount": 63, "value": "Deathlok-L17"},
	{ "amount": 63, "value": "FIDA"},
	{ "amount": 63, "value": "朝倉 hara/nagi"},
	{ "amount": 62, "value": "Commander Rotal"},
	{ "amount": 62, "value": "Malmhrid"},
	{ "amount": 62, "value": "Mighty Brankor"},
	{ "amount": 62, "value": "Pathagarus"},
	{ "amount": 62, "value": "bennettboat"},
	{ "amount": 61, "value": "Code_Alpha"},
	{ "amount": 61, "value": "dawntemplers"},
	{ "amount": 61, "value": "huiyao117"},
	{ "amount": 61, "value": "jimlore78"},
	{ "amount": 61, "value": "ronidude"},
	{ "amount": 60, "value": "EctoSage"},
	{ "amount": 60, "value": "Rick Marten"},
	{ "amount": 60, "value": "Venom415"},
	{ "amount": 60, "value": "jinneyeh"},
	{ "amount": 59, "value": "AutoMcDonough"},
	{ "amount": 59, "value": "Bandana Dee 25"},
	{ "amount": 59, "value": "IvanZPG"},
	{ "amount": 59, "value": "Meridius_IX / Lucas"},
	{ "amount": 59, "value": "xenolego"},
	{ "amount": 58, "value": "Captain Jack"},
	{ "amount": 58, "value": "DarkDragon"},
	{ "amount": 58, "value": "Jeffrey Epstein"},
	{ "amount": 58, "value": "Keeper"},
	{ "amount": 58, "value": "Kerian Halcyon"},
	{ "amount": 57, "value": "Eternal Dolphin"},
	{ "amount": 57, "value": "Sergeant Kelly"},
	{ "amount": 57, "value": "Tom-Babz"},
	{ "amount": 56, "value": "Mork"},
	{ "amount": 56, "value": "Spirit Warden"},
	{ "amount": 56, "value": "zalex 🎄"},
	{ "amount": 56, "value": "永恒帝国工程师"},
	{ "amount": 55, "value": "Prellentor"},
	{ "amount": 54, "value": "Brisingr Drake"},
	{ "amount": 54, "value": "Shipmaster_Crook"},
	{ "amount": 54, "value": "Sjelherre"},
	{ "amount": 54, "value": "TRAV."},
	{ "amount": 54, "value": "Torgenator"},
	{ "amount": 54, "value": "X3:WMZ"},
	{ "amount": 54, "value": "akaalexandermax"},
	{ "amount": 53, "value": "Nyran"},
	{ "amount": 53, "value": "Superman"},
	{ "amount": 53, "value": "Zhiila"},
	{ "amount": 53, "value": "abordoli"},
	{ "amount": 53, "value": "cptsavarus"},
	{ "amount": 53, "value": "frogboy1320"},
	{ "amount": 53, "value": "syphersox"},
	{ "amount": 52, "value": "Caballo Loco"},
	{ "amount": 52, "value": "PV2 J.Wilde[173rd]"},
	{ "amount": 52, "value": "big doggy 2"},
	{ "amount": 52, "value": "lolomanx"},
	{ "amount": 52, "value": "xxkillerlordxx"},
	{ "amount": 51, "value": "DerMakrat"},
	{ "amount": 51, "value": "Enigmus"},
	{ "amount": 51, "value": "Flygtur"},
	{ "amount": 51, "value": "Mikeangel"},
	{ "amount": 51, "value": "Ninjaxtreme04"},
	{ "amount": 51, "value": "Papple2"},
	{ "amount": 51, "value": "Solus454"},
	{ "amount": 51, "value": "parkasever"},
	{ "amount": 50, "value": "Aragath"},
	{ "amount": 50, "value": "IsEstredundant"},
	{ "amount": 50, "value": "Naz27"},
	{ "amount": 49, "value": "1095058782"},
	{ "amount": 49, "value": "ExoticMango17"},
	{ "amount": 49, "value": "Gandur"},
	{ "amount": 49, "value": "Mr_fireman"},
	{ "amount": 49, "value": "Nekron910"},
	{ "amount": 49, "value": "War Wolf"},
	{ "amount": 49, "value": "[WN] xPhantom GenesisX"},
	{ "amount": 48, "value": "Dragon_Gornamer"},
	{ "amount": 48, "value": "Dwarf-Lord Pangolin"},
	{ "amount": 48, "value": "FSEK_Raver94194 GER"},
	{ "amount": 48, "value": "kris220b"},
	{ "amount": 47, "value": "Arara"},
	{ "amount": 47, "value": "Citizen_Soldier"},
	{ "amount": 47, "value": "Defiance053"},
	{ "amount": 47, "value": "Embrace Space"},
	{ "amount": 47, "value": "Mentor_N7"},
	{ "amount": 47, "value": "Mr B."},
	{ "amount": 47, "value": "Quartofel"},
	{ "amount": 47, "value": "_unauthorised_"},
	{ "amount": 47, "value": "j0n0nym0us"},
	{ "amount": 46, "value": "Admiral_Redz"},
	{ "amount": 46, "value": "Dentistman"},
	{ "amount": 46, "value": "Jeager-Gon"},
	{ "amount": 46, "value": "Matthew"},
	{ "amount": 46, "value": "The Star Core"},
	{ "amount": 46, "value": "Tiberius"},
	{ "amount": 46, "value": "Uranius Crack"},
	{ "amount": 46, "value": "rickw_sec"},
	{ "amount": 45, "value": "Dumbbell Dan"},
	{ "amount": 45, "value": "Pablo Escobar"},
	{ "amount": 45, "value": "Tiger"},
	{ "amount": 45, "value": "fabricator77"},
	{ "amount": 45, "value": "fillopygeesi"},
	{ "amount": 45, "value": "mr.e.r.edwards"},
	{ "amount": 45, "value": "wolfen7lada"},
	{ "amount": 44, "value": "Alysius"},
	{ "amount": 44, "value": "C.DEF"},
	{ "amount": 44, "value": "Endar949"},
	{ "amount": 44, "value": "Extevious"},
	{ "amount": 44, "value": "General Mega"},
	{ "amount": 44, "value": "Imperito"},
	{ "amount": 44, "value": "Killerjoe-Cowboy"},
	{ "amount": 44, "value": "MadBillyBlack"},
	{ "amount": 44, "value": "Splitsie"},
	{ "amount": 44, "value": "Taidyr"},
	{ "amount": 44, "value": "Tatz"},
	{ "amount": 44, "value": "[Dolt] Nuri"},
	{ "amount": 43, "value": "DoctorGroot"},
	{ "amount": 43, "value": "DtDrag"},
	{ "amount": 43, "value": "Foxtecy"},
	{ "amount": 43, "value": "Herlock"},
	{ "amount": 43, "value": "Jonnyhawkeye"},
	{ "amount": 43, "value": "RogueDelta"},
	{ "amount": 43, "value": "SGT_MAJOR_FISH"},
	{ "amount": 43, "value": "Scarlett"},
	{ "amount": 43, "value": "Struppey"},
	{ "amount": 43, "value": "TheTreeman"},
	{ "amount": 43, "value": "Wraithcutter"},
	{ "amount": 43, "value": "YoYo_Pa"},
	{ "amount": 43, "value": "celgb"},
	{ "amount": 43, "value": "jino"},
	{ "amount": 43, "value": "🌹 Ruby Rose 🌹"},
	{ "amount": 42, "value": "Eisdialer"},
	{ "amount": 42, "value": "Eliseu do Brasil"},
	{ "amount": 42, "value": "FILIN"},
	{ "amount": 42, "value": "Ripps"},
	{ "amount": 42, "value": "Sunoko"},
	{ "amount": 42, "value": "Vomsay"},
	{ "amount": 41, "value": "Caféine"},
	{ "amount": 41, "value": "CanisDirus"},
	{ "amount": 41, "value": "Cartwheel800"},
	{ "amount": 41, "value": "Dastex"},
	{ "amount": 41, "value": "Fade Sevar"},
	{ "amount": 41, "value": "High Lord Baron"},
	{ "amount": 41, "value": "Skie Silversnow"},
	{ "amount": 41, "value": "Wildcard"},
	{ "amount": 41, "value": "| n f a m o u s"},
	{ "amount": 40, "value": "Artika"},
	{ "amount": 40, "value": "BOBspiritus"},
	{ "amount": 40, "value": "Captain X (PhoenixX)"},
	{ "amount": 40, "value": "CrimsonJupiter"},
	{ "amount": 40, "value": "Drunken British Chap"},
	{ "amount": 40, "value": "GrumpyJedi3"},
	{ "amount": 40, "value": "Johnathan"},
	{ "amount": 40, "value": "MurlocJoe"},
	{ "amount": 40, "value": "ÆnꞀ -2onio"},
	{ "amount": 39, "value": "Bilgeworth"},
	{ "amount": 39, "value": "BlueTron301"},
	{ "amount": 39, "value": "Korvatus Klok"},
	{ "amount": 39, "value": "LEOSAURE"},
	{ "amount": 39, "value": "Loptyeir"},
	{ "amount": 39, "value": "Masterchief A10™"},
	{ "amount": 39, "value": "Mialll_"},
	{ "amount": 39, "value": "Nostrian 99"},
	{ "amount": 39, "value": "Tharatan"},
	{ "amount": 39, "value": "Valkyrie Ice"},
	{ "amount": 38, "value": "Ciel-PMM"},
	{ "amount": 38, "value": "DarkHoodness"},
	{ "amount": 38, "value": "Elachi Dance Party"},
	{ "amount": 38, "value": "Jatemputz"},
	{ "amount": 38, "value": "Lord_Anubis"},
	{ "amount": 38, "value": "Not Scared"},
	{ "amount": 38, "value": "Sovice"},
	{ "amount": 38, "value": "Thasrion"},
	{ "amount": 38, "value": "terran29"},
	{ "amount": 37, "value": "AWG"},
	{ "amount": 37, "value": "Demize74"},
	{ "amount": 37, "value": "EnjoyCoke"},
	{ "amount": 37, "value": "PopPyZaa555"},
	{ "amount": 37, "value": "RobskuWitteWel"},
	{ "amount": 37, "value": "Skeloton"},
	{ "amount": 37, "value": "W0lf3y"},
	{ "amount": 37, "value": "ZJE123"},
	{ "amount": 37, "value": "[SDL] Winfield"},
	{ "amount": 37, "value": "retech"},
	{ "amount": 37, "value": "theJacenOne"},
	{ "amount": 36, "value": "AcheKALo"},
	{ "amount": 36, "value": "Alex \"Blade\" Prower"},
	{ "amount": 36, "value": "Auren"},
	{ "amount": 36, "value": "Endington"},
	{ "amount": 36, "value": "FlingWolf"},
	{ "amount": 36, "value": "FoxtrotDelta"},
	{ "amount": 36, "value": "Kelevra"},
	{ "amount": 36, "value": "Killerbee77"},
	{ "amount": 36, "value": "Parabellum"},
	{ "amount": 36, "value": "Venixer"},
	{ "amount": 36, "value": "Vic Viper"},
	{ "amount": 36, "value": "btaylor00744"},
	{ "amount": 36, "value": "crazysteve887"},
	{ "amount": 36, "value": "phoenixtalon"},
	{ "amount": 36, "value": "the_educater"},
	{ "amount": 35, "value": "Boz"},
	{ "amount": 35, "value": "Fuhrer Legitglenn™"},
	{ "amount": 35, "value": "GEK Vengeful"},
	{ "amount": 35, "value": "H (UwU)"},
	{ "amount": 35, "value": "Lengueni"},
	{ "amount": 35, "value": "Piss Cakehole"},
	{ "amount": 35, "value": "RangeRunner"},
	{ "amount": 35, "value": "Ruby"},
	{ "amount": 35, "value": "Sir Valentine"},
	{ "amount": 35, "value": "Taiko"},
	{ "amount": 35, "value": "[BKNE] UrbanMech"},
	{ "amount": 34, "value": "Alec KDY"},
	{ "amount": 34, "value": "Awesome Opossum"},
	{ "amount": 34, "value": "HybridZero"},
	{ "amount": 34, "value": "Lazarus"},
	{ "amount": 34, "value": "Riz"},
	{ "amount": 34, "value": "Rocketeer115"},
	{ "amount": 34, "value": "Schwarzengel"},
	{ "amount": 34, "value": "[FR]HunterHawks(Wolf)"},
	{ "amount": 34, "value": "budisourdog"},
	{ "amount": 34, "value": "gorinich_044"},
	{ "amount": 34, "value": "sg-1homeworld"},
	{ "amount": 34, "value": "vanga the tinny"},
	{ "amount": 33, "value": "$ Volfoni"},
	{ "amount": 33, "value": "=(e)= -=BR=- death reaper"},
	{ "amount": 33, "value": "Adaline"},
	{ "amount": 33, "value": "Baalrog"},
	{ "amount": 33, "value": "Beastmoder247"},
	{ "amount": 33, "value": "Dolan"},
	{ "amount": 33, "value": "EnIgMaTiCoRaNgE"},
	{ "amount": 33, "value": "KhydroDjent"},
	{ "amount": 33, "value": "Lavamoon"},
	{ "amount": 33, "value": "Literally God"},
	{ "amount": 33, "value": "Neraph"},
	{ "amount": 33, "value": "Pariah Devalis"},
	{ "amount": 33, "value": "RelicSage"},
	{ "amount": 33, "value": "Scifi"},
	{ "amount": 33, "value": "SziCine"},
	{ "amount": 33, "value": "TITAN PRIME"},
	{ "amount": 33, "value": "geeklund"},
	{ "amount": 33, "value": "noLieBowtie"},
	{ "amount": 33, "value": "scorpnoire"},
	{ "amount": 33, "value": "tommy_forman"},
	{ "amount": 32, "value": "Captein"},
	{ "amount": 32, "value": "CrimsonAdder"},
	{ "amount": 32, "value": "Digital Soul"},
	{ "amount": 32, "value": "Elon"},
	{ "amount": 32, "value": "FLIPPY"},
	{ "amount": 32, "value": "Furry_Fox"},
	{ "amount": 32, "value": "Genesis_ryzz"},
	{ "amount": 32, "value": "Hemza"},
	{ "amount": 32, "value": "KindaPhunny"},
	{ "amount": 32, "value": "MACH Velocity"},
	{ "amount": 32, "value": "Marek Moowi"},
	{ "amount": 32, "value": "Matt The Lost Spaceman"},
	{ "amount": 32, "value": "Memlapse"},
	{ "amount": 32, "value": "Qman1230"},
	{ "amount": 32, "value": "Spartacus"},
	{ "amount": 32, "value": "Vagrant | John"},
	{ "amount": 32, "value": "Wedgehog"},
	{ "amount": 32, "value": "White Mist"},
	{ "amount": 32, "value": "agrimes"},
	{ "amount": 32, "value": "bIrD_oF_pReY"},
	{ "amount": 32, "value": "generaalsab"},
	{ "amount": 32, "value": "shadenquest"},
	{ "amount": 32, "value": "william_moryguard"},
	{ "amount": 32, "value": "终不渝"},
	{ "amount": 31, "value": "Angel"},
	{ "amount": 31, "value": "BinaryDuck"},
	{ "amount": 31, "value": "Bragondorn"},
	{ "amount": 31, "value": "Commander Kwiec"},
	{ "amount": 31, "value": "Falnore"},
	{ "amount": 31, "value": "Goldshell"},
	{ "amount": 31, "value": "Kimyoone"},
	{ "amount": 31, "value": "Kreeg"},
	{ "amount": 31, "value": "Paul Drive"},
	{ "amount": 31, "value": "Professor Brian Cock"},
	{ "amount": 31, "value": "Randaped"},
	{ "amount": 31, "value": "Seff"},
	{ "amount": 31, "value": "Tibrochief"},
	{ "amount": 31, "value": "WardenWolf"},
	{ "amount": 31, "value": "XxGoingGamerXx"},
	{ "amount": 31, "value": "halipatsui"},
	{ "amount": 31, "value": "iker IR4_YT"},
	{ "amount": 31, "value": "luvs"},
	{ "amount": 31, "value": "maxmad"},
	{ "amount": 31, "value": "werner"},
	{ "amount": 30, "value": "ALUCARD7729"},
	{ "amount": 30, "value": "AlliedArmor32107-[DGI]-"},
	{ "amount": 30, "value": "Ayphion"},
	{ "amount": 30, "value": "Dj_Guimarães"},
	{ "amount": 30, "value": "Fabicity"},
	{ "amount": 30, "value": "Fleischdesigner"},
	{ "amount": 30, "value": "Hesterry"},
	{ "amount": 30, "value": "Johnathan123YT"},
	{ "amount": 30, "value": "Namdoolb=FILTH="},
	{ "amount": 30, "value": "OperationAngel"},
	{ "amount": 30, "value": "STARK MAMETO"},
	{ "amount": 30, "value": "Sarekh"},
	{ "amount": 30, "value": "SheildyMcgee"},
	{ "amount": 30, "value": "Shidy"},
	{ "amount": 30, "value": "Skitto493"},
	{ "amount": 30, "value": "Spacebar"},
	{ "amount": 30, "value": "The Sir Rolfe"},
	{ "amount": 30, "value": "[IV]_Nomat"},
	{ "amount": 30, "value": "azrul"},
	{ "amount": 30, "value": "hav0kk"},
	{ "amount": 30, "value": "sandosan83"},
	{ "amount": 30, "value": "soup"},
	{ "amount": 30, "value": "☭ NorthyPark "},
	{ "amount": 29, "value": "Aluburuier"},
	{ "amount": 29, "value": "Bidahochi"},
	{ "amount": 29, "value": "DesertStorm"},
	{ "amount": 29, "value": "Gompasta"},
	{ "amount": 29, "value": "KiwiBear"},
	{ "amount": 29, "value": "Lander1"},
	{ "amount": 29, "value": "Licensed2kill"},
	{ "amount": 29, "value": "Major Cuddles"},
	{ "amount": 29, "value": "Mojo"},
	{ "amount": 29, "value": "Moon"},
	{ "amount": 29, "value": "OpaIon"},
	{ "amount": 29, "value": "Ph.D Composer"},
	{ "amount": 29, "value": "Recon"},
	{ "amount": 29, "value": "Silas H. Tyler"},
	{ "amount": 29, "value": "Someguy Somewhere"},
	{ "amount": 29, "value": "Stoicus"},
	{ "amount": 29, "value": "TheSovietAggron"},
	{ "amount": 29, "value": "Tiji san"},
	{ "amount": 29, "value": "Valitrize"},
	{ "amount": 29, "value": "Wooffe"},
	{ "amount": 29, "value": "Xura"},
	{ "amount": 29, "value": "mixa444ok"},
	{ "amount": 29, "value": "w.w.b"},
	{ "amount": 29, "value": "|>Heroin Hero<|"},
	{ "amount": 28, "value": "Craig P"},
	{ "amount": 28, "value": "Drakedge"},
	{ "amount": 28, "value": "Lexington"},
	{ "amount": 28, "value": "Miiguelx_"},
	{ "amount": 28, "value": "Mr. Midori"},
	{ "amount": 28, "value": "Murat"},
	{ "amount": 28, "value": "Mystic Meow XIII"},
	{ "amount": 28, "value": "NaCl"},
	{ "amount": 28, "value": "Nightshifter"},
	{ "amount": 28, "value": "RT-Macr"},
	{ "amount": 28, "value": "Ramalis"},
	{ "amount": 28, "value": "Saiima"},
	{ "amount": 28, "value": "SaltyMereKat257"},
	{ "amount": 28, "value": "Sektan"},
	{ "amount": 28, "value": "Shrouded Soul"},
	{ "amount": 28, "value": "Skallabjorn"},
	{ "amount": 28, "value": "SpaaaaaaceMouse"},
	{ "amount": 28, "value": "SugarFett"},
	{ "amount": 28, "value": "Thanatoast"},
	{ "amount": 28, "value": "Umbreon777"},
	{ "amount": 28, "value": "Wreckeronezero"},
	{ "amount": 28, "value": "Xelathia"},
	{ "amount": 28, "value": "ZDuke"},
	{ "amount": 28, "value": "Zaƒlow"},
	{ "amount": 28, "value": "ZeichenZwerg"},
	{ "amount": 28, "value": "[REF]Saquesh"},
	{ "amount": 28, "value": "kitchen gun"},
	{ "amount": 28, "value": "lolmelon3"},
	{ "amount": 28, "value": "novard"},
	{ "amount": 28, "value": "zachy97"},
	{ "amount": 28, "value": "✌Husker54✌"},
	{ "amount": 27, "value": "AikawaKizuna"},
	{ "amount": 27, "value": "Archiviste"},
	{ "amount": 27, "value": "Candicen Procella"},
	{ "amount": 27, "value": "Captain Worth"},
	{ "amount": 27, "value": "Cool plays"},
	{ "amount": 27, "value": "DuffMan"},
	{ "amount": 27, "value": "Emperor Xi the Pooh"},
	{ "amount": 27, "value": "Evil_Doc (Retired)"},
	{ "amount": 27, "value": "Hewlett Craphard"},
	{ "amount": 27, "value": "High Templar of Allium Cepa"},
	{ "amount": 27, "value": "HФRSEPAIN"},
	{ "amount": 27, "value": "JAM8957"},
	{ "amount": 27, "value": "Jackal Blackal"},
	{ "amount": 27, "value": "K.W. [rus]"},
	{ "amount": 27, "value": "KDMN"},
	{ "amount": 27, "value": "KaldariaQ"},
	{ "amount": 27, "value": "Kasper"},
	{ "amount": 27, "value": "Kilroy"},
	{ "amount": 27, "value": "Kracker"},
	{ "amount": 27, "value": "Kuu Lightwing"},
	{ "amount": 27, "value": "LittleTimelord"},
	{ "amount": 27, "value": "LordZarmack"},
	{ "amount": 27, "value": "Norrin Radd"},
	{ "amount": 27, "value": "RedMar"},
	{ "amount": 27, "value": "Roy"},
	{ "amount": 27, "value": "Stratus"},
	{ "amount": 27, "value": "SultonMRP"},
	{ "amount": 27, "value": "Zalioris"},
	{ "amount": 27, "value": "Zinwarin"},
	{ "amount": 27, "value": "id3dteen"},
	{ "amount": 27, "value": "jarhead"},
	{ "amount": 27, "value": "mrcalzon02"},
	{ "amount": 27, "value": "rebellionmarch"},
	{ "amount": 27, "value": "spiritplumber[FUG]"},
	{ "amount": 26, "value": "Azzona"},
	{ "amount": 26, "value": "Bear87"},
	{ "amount": 26, "value": "Canofjuice"},
	{ "amount": 26, "value": "Commissar Cotchinsky"},
	{ "amount": 26, "value": "Crapaud"},
	{ "amount": 26, "value": "CyborgJenn"},
	{ "amount": 26, "value": "D1 Z3R0"},
	{ "amount": 26, "value": "EtanchMouMout"},
	{ "amount": 26, "value": "Faulkril000"},
	{ "amount": 26, "value": "FunkyBacon"},
	{ "amount": 26, "value": "Grimstock"},
	{ "amount": 26, "value": "HyperThrone"},
	{ "amount": 26, "value": "Isilme"},
	{ "amount": 26, "value": "Kaptain_Kai"},
	{ "amount": 26, "value": "Laurynas01"},
	{ "amount": 26, "value": "Lorbarsan"},
	{ "amount": 26, "value": "Maverick"},
	{ "amount": 26, "value": "MrKiel"},
	{ "amount": 26, "value": "Skuzzlebutt"},
	{ "amount": 26, "value": "Synchronex"},
	{ "amount": 26, "value": "TEGC Quantum"},
	{ "amount": 26, "value": "Thee Landmine Fairy"},
	{ "amount": 26, "value": "Vakot[UA]"},
	{ "amount": 26, "value": "Vii"},
	{ "amount": 26, "value": "Vollstrecker"},
	{ "amount": 26, "value": "Yomki"},
	{ "amount": 26, "value": "Zach"},
	{ "amount": 26, "value": "beanieaniki"},
	{ "amount": 26, "value": "blackwatch"},
	{ "amount": 26, "value": "carn1vore"},
	{ "amount": 26, "value": "satius"},
	{ "amount": 26, "value": "▲JosunLP©▲"},
	{ "amount": 25, "value": "Ace781"},
	{ "amount": 25, "value": "ArtistX"},
	{ "amount": 25, "value": "AssassineMaxli"},
	{ "amount": 25, "value": "BOlek"},
	{ "amount": 25, "value": "Barrio505"},
	{ "amount": 25, "value": "Bytestorm"},
	{ "amount": 25, "value": "Cat"},
	{ "amount": 25, "value": "Crozzo"},
	{ "amount": 25, "value": "Dirk"},
	{ "amount": 25, "value": "Dr.Craz"},
	{ "amount": 25, "value": "GreenNarwals"},
	{ "amount": 25, "value": "Headachypit80"},
	{ "amount": 25, "value": "JOHNFRANKPIGEON"},
	{ "amount": 25, "value": "Lunarjman89"},
	{ "amount": 25, "value": "Omega1102"},
	{ "amount": 25, "value": "OneOfUs"},
	{ "amount": 25, "value": "Pa Chu"},
	{ "amount": 25, "value": "Pennywise"},
	{ "amount": 25, "value": "RHS0"},
	{ "amount": 25, "value": "RaveN"},
	{ "amount": 25, "value": "SilverDude"},
	{ "amount": 25, "value": "Snipes"},
	{ "amount": 25, "value": "Stone Cold Jane Austen"},
	{ "amount": 25, "value": "_Nazarov7576_"},
	{ "amount": 25, "value": "clone.wars.hero5"},
	{ "amount": 25, "value": "doom"},
	{ "amount": 25, "value": "govrom"},
	{ "amount": 25, "value": "kclarke32"},
	{ "amount": 25, "value": "oODekerOo"},
	{ "amount": 25, "value": "yoshino"},
	{ "amount": 25, "value": "Димыч"},
	{ "amount": 25, "value": "亚空间之主"},
	{ "amount": 24, "value": "(Anime Tv Guy 44)"},
	{ "amount": 24, "value": "BL8NT"},
	{ "amount": 24, "value": "Baerful"},
	{ "amount": 24, "value": "Bumpkin_Actual"},
	{ "amount": 24, "value": "Carl"},
	{ "amount": 24, "value": "Drone185"},
	{ "amount": 24, "value": "EXPAND_DONG"},
	{ "amount": 24, "value": "Eoin"},
	{ "amount": 24, "value": "Executer Inside"},
	{ "amount": 24, "value": "FatDoBee"},
	{ "amount": 24, "value": "FigoPhoenix"},
	{ "amount": 24, "value": "Hank Jimbo"},
	{ "amount": 24, "value": "HellKat-76"},
	{ "amount": 24, "value": "Kaisert"},
	{ "amount": 24, "value": "Miggo"},
	{ "amount": 24, "value": "MikeFox88"},
	{ "amount": 24, "value": "Mityenka"},
	{ "amount": 24, "value": "Niel"},
	{ "amount": 24, "value": "Opcomanderz"},
	{ "amount": 24, "value": "PheoniX"},
	{ "amount": 24, "value": "PuschelSan"},
	{ "amount": 24, "value": "RUGGER"},
	{ "amount": 24, "value": "Random Guy"},
	{ "amount": 24, "value": "Riasrock"},
	{ "amount": 24, "value": "THOMY"},
	{ "amount": 24, "value": "ThiccBeard"},
	{ "amount": 24, "value": "Xocliw"},
	{ "amount": 24, "value": "ZeroDevil"},
	{ "amount": 24, "value": "danogrg"},
	{ "amount": 24, "value": "dragonqaz67"},
	{ "amount": 24, "value": "grox0642"},
	{ "amount": 24, "value": "impending_zombie_apocalypse"},
	{ "amount": 24, "value": "jebo14"},
	{ "amount": 24, "value": "makins_90"},
	{ "amount": 24, "value": "paralyzingNuke"},
	{ "amount": 24, "value": "spring jordy"},
	{ "amount": 23, "value": "ARKTrooper"},
	{ "amount": 23, "value": "AussieYT"},
	{ "amount": 23, "value": "B1GGEST"},
	{ "amount": 23, "value": "Bundi The Shifter"},
	{ "amount": 23, "value": "Chief"},
	{ "amount": 23, "value": "CyberShot288"},
	{ "amount": 23, "value": "DON"},
	{ "amount": 23, "value": "FireFighter_Jeffery"},
	{ "amount": 23, "value": "Gdsm. B. Pellet. [6th GA]"},
	{ "amount": 23, "value": "Grass"},
	{ "amount": 23, "value": "Herr-Doktor"},
	{ "amount": 23, "value": "Hombre"},
	{ "amount": 23, "value": "John F. Kennedy"},
	{ "amount": 23, "value": "Kowalski"},
	{ "amount": 23, "value": "Kushnir [UA]"},
	{ "amount": 23, "value": "Mantha"},
	{ "amount": 23, "value": "MikeTheAncient"},
	{ "amount": 23, "value": "Mr Happy Hammers"},
	{ "amount": 23, "value": "Okalar_Ulosh (valarkan)"},
	{ "amount": 23, "value": "Parabellum"},
	{ "amount": 23, "value": "Partykekz"},
	{ "amount": 23, "value": "RADAR"},
	{ "amount": 23, "value": "Rin ~ お疲れ"},
	{ "amount": 23, "value": "Rush877"},
	{ "amount": 23, "value": "SGT Sevyrs"},
	{ "amount": 23, "value": "SlobbishHalo"},
	{ "amount": 23, "value": "Spawn-of-Dark"},
	{ "amount": 23, "value": "TheChuggernaut"},
	{ "amount": 23, "value": "Thunder-Invader"},
	{ "amount": 23, "value": "Waipa"},
	{ "amount": 23, "value": "Wild Cards"},
	{ "amount": 23, "value": "ZambyDawg"},
	{ "amount": 23, "value": "artemyevrus"},
	{ "amount": 23, "value": "arturkandla"},
	{ "amount": 23, "value": "olen.a.gellein"},
	{ "amount": 23, "value": "wikedsirnate"},
	{ "amount": 23, "value": "xzosimusx"},
	{ "amount": 23, "value": "愤怒的大米沙"},
	{ "amount": 22, "value": "A_N1ne"},
	{ "amount": 22, "value": "ApathyGates"},
	{ "amount": 22, "value": "Bismuth"},
	{ "amount": 22, "value": "Brynnium"},
	{ "amount": 22, "value": "Captain Ed Mercer"},
	{ "amount": 22, "value": "CarbonCopy"},
	{ "amount": 22, "value": "Cr@zyMoose"},
	{ "amount": 22, "value": "DOOM GODS"},
	{ "amount": 22, "value": "DRAGONFIRE125"},
	{ "amount": 22, "value": "DoctorDiscord"},
	{ "amount": 22, "value": "Eisen"},
	{ "amount": 22, "value": "GECO"},
	{ "amount": 22, "value": "Greyze"},
	{ "amount": 22, "value": "Hindsight2020"},
	{ "amount": 22, "value": "Inigma"},
	{ "amount": 22, "value": "Jenmare"},
	{ "amount": 22, "value": "Johnathan Wack"},
	{ "amount": 22, "value": "KAMRAD"},
	{ "amount": 22, "value": "Kenty94"},
	{ "amount": 22, "value": "Meepermcmeep"},
	{ "amount": 22, "value": "MikeLevi316"},
	{ "amount": 22, "value": "Minus.1"},
	{ "amount": 22, "value": "NIXIFOX_JP"},
	{ "amount": 22, "value": "NightOwlModeler"},
	{ "amount": 22, "value": "PapaFreej"},
	{ "amount": 22, "value": "Phrixos28"},
	{ "amount": 22, "value": "Pounce"},
	{ "amount": 22, "value": "Reverend-Tooly"},
	{ "amount": 22, "value": "Rob320"},
	{ "amount": 22, "value": "SilentNinja724"},
	{ "amount": 22, "value": "Solifeaul"},
	{ "amount": 22, "value": "SpaceCadet02"},
	{ "amount": 22, "value": "Svinom"},
	{ "amount": 22, "value": "T.G.N.S."},
	{ "amount": 22, "value": "The Bush Wolf"},
	{ "amount": 22, "value": "ThisNthaT"},
	{ "amount": 22, "value": "Trozzo"},
	{ "amount": 22, "value": "Yuka"},
	{ "amount": 22, "value": "boosted animal"},
	{ "amount": 22, "value": "davidsupermantv"},
	{ "amount": 22, "value": "hauda.thomas"},
	{ "amount": 22, "value": "iamwright16"},
	{ "amount": 22, "value": "jtfroh"},
	{ "amount": 22, "value": "kerber"},
	{ "amount": 22, "value": "max tog"},
	{ "amount": 22, "value": "nukeguard"},
	{ "amount": 22, "value": "sirhollysworth"},
	{ "amount": 22, "value": "the-phil"},
	{ "amount": 22, "value": "vegecethepilot"},
	{ "amount": 22, "value": "xorace"},
	{ "amount": 21, "value": "Abyzmi"},
	{ "amount": 21, "value": "Bman"},
	{ "amount": 21, "value": "Carbonschmied"},
	{ "amount": 21, "value": "Commander Shepard"},
	{ "amount": 21, "value": "Corsin"},
	{ "amount": 21, "value": "DEATH AWAKENED"},
	{ "amount": 21, "value": "Daemn"},
	{ "amount": 21, "value": "Darth Vecthan"},
	{ "amount": 21, "value": "DigglerJr"},
	{ "amount": 21, "value": "EEE AI"},
	{ "amount": 21, "value": "Grinko"},
	{ "amount": 21, "value": "Hyperschnizel"},
	{ "amount": 21, "value": "IBen01"},
	{ "amount": 21, "value": "Lt.Starbound"},
	{ "amount": 21, "value": "MML"},
	{ "amount": 21, "value": "MasterUhu"},
	{ "amount": 21, "value": "MrTango"},
	{ "amount": 21, "value": "Neiz 桜"},
	{ "amount": 21, "value": "Scapegoat"},
	{ "amount": 21, "value": "Seric Abis"},
	{ "amount": 21, "value": "Shattucknick"},
	{ "amount": 21, "value": "SpaceGameManiac"},
	{ "amount": 21, "value": "Taishiryu"},
	{ "amount": 21, "value": "Tessa Volkanvir"},
	{ "amount": 21, "value": "The Warden"},
	{ "amount": 21, "value": "Thor117"},
	{ "amount": 21, "value": "Vechs"},
	{ "amount": 21, "value": "WolfoftheWest"},
	{ "amount": 21, "value": "XFE_studio"},
	{ "amount": 21, "value": "dan"},
	{ "amount": 21, "value": "gizmo-7738"},
	{ "amount": 21, "value": "glenn52"},
	{ "amount": 21, "value": "omega_kt4"},
	{ "amount": 21, "value": "pompom6x"},
	{ "amount": 21, "value": "sharptile"},
	{ "amount": 21, "value": "tOPIV"},
	{ "amount": 21, "value": "wu.will.china"},
	{ "amount": 21, "value": "zetkuba99"},
	{ "amount": 21, "value": "{ - Mr Fox - }"},
	{ "amount": 21, "value": "♠Troll-Kiuby♠"},
	{ "amount": 21, "value": "レイシア | Pitohui"},
	{ "amount": 20, "value": "AeQuArTz"},
	{ "amount": 20, "value": "Apollyon"},
	{ "amount": 20, "value": "Apone"},
	{ "amount": 20, "value": "Avendril"},
	{ "amount": 20, "value": "Cambox23"},
	{ "amount": 20, "value": "Chee"},
	{ "amount": 20, "value": "CosmicAggressor"},
	{ "amount": 20, "value": "Cynnia"},
	{ "amount": 20, "value": "DanteVento"},
	{ "amount": 20, "value": "DarkExcalibur42"},
	{ "amount": 20, "value": "Djelle"},
	{ "amount": 20, "value": "Ebonith"},
	{ "amount": 20, "value": "Epiktetus"},
	{ "amount": 20, "value": "Ferraz"},
	{ "amount": 20, "value": "Firebird_528"},
	{ "amount": 20, "value": "Fox"},
	{ "amount": 20, "value": "GooseWaddle"},
	{ "amount": 20, "value": "Huwinator"},
	{ "amount": 20, "value": "IronMan9904"},
	{ "amount": 20, "value": "JackSEC"},
	{ "amount": 20, "value": "Joachim_Berger"},
	{ "amount": 20, "value": "Kenshipl"},
	{ "amount": 20, "value": "Lazer"},
	{ "amount": 20, "value": "Meet the Emolga Sovietica"},
	{ "amount": 20, "value": "Methos"},
	{ "amount": 20, "value": "Noxy"},
	{ "amount": 20, "value": "PGI Xx HunterxX"},
	{ "amount": 20, "value": "PYROMAN"},
	{ "amount": 20, "value": "PitchBlack"},
	{ "amount": 20, "value": "QuikQuestion"},
	{ "amount": 20, "value": "Ric le Rouge"},
	{ "amount": 20, "value": "Sergio"},
	{ "amount": 20, "value": "Slaine"},
	{ "amount": 20, "value": "SpaceX24"},
	{ "amount": 20, "value": "Spacy"},
	{ "amount": 20, "value": "Sultor_Canerious"},
	{ "amount": 20, "value": "Texfire"},
	{ "amount": 20, "value": "Th232"},
	{ "amount": 20, "value": "Timotei~"},
	{ "amount": 20, "value": "Titan In The Mist"},
	{ "amount": 20, "value": "UNDERTAKER 67"},
	{ "amount": 20, "value": "Weebgod of Warplanes"},
	{ "amount": 20, "value": "bastelork"},
	{ "amount": 20, "value": "bobby vonsandwichface"},
	{ "amount": 20, "value": "buster5300"},
	{ "amount": 20, "value": "mou"},
	{ "amount": 20, "value": "ninjanuruku"},
	{ "amount": 20, "value": "qb4k"},
	{ "amount": 20, "value": "ronninmc3"},
	{ "amount": 20, "value": "wilhelmsfifthreich"},
	{ "amount": 20, "value": "{Oblivious}Artsentin"},
	{ "amount": 19, "value": "(V)AZDES (eng)"},
	{ "amount": 19, "value": "(}-:<[ BlackRedDead ]>:-{)"},
	{ "amount": 19, "value": "1251085184"},
	{ "amount": 19, "value": "4Steel"},
	{ "amount": 19, "value": "Ace "},
	{ "amount": 19, "value": "Arrow of Time"},
	{ "amount": 19, "value": "Aurumworks"},
	{ "amount": 19, "value": "CDR Aurora"},
	{ "amount": 19, "value": "Cassius Faux"},
	{ "amount": 19, "value": "Conrad Larson"},
	{ "amount": 19, "value": "Darranis the Kingslayer"},
	{ "amount": 19, "value": "Dr. Laurenz Geistert"},
	{ "amount": 19, "value": "DrF3lix"},
	{ "amount": 19, "value": "Droid"},
	{ "amount": 19, "value": "Felis Cactus"},
	{ "amount": 19, "value": "Garlik"},
	{ "amount": 19, "value": "Gman04"},
	{ "amount": 19, "value": "Grockle"},
	{ "amount": 19, "value": "Hihiguy"},
	{ "amount": 19, "value": "Huvi"},
	{ "amount": 19, "value": "Jim"},
	{ "amount": 19, "value": "Joseppe G"},
	{ "amount": 19, "value": "JustARaceThing"},
	{ "amount": 19, "value": "KRAVCHENKO"},
	{ "amount": 19, "value": "Kel_Thezuad"},
	{ "amount": 19, "value": "Kenobi"},
	{ "amount": 19, "value": "Khjin"},
	{ "amount": 19, "value": "Kuretake41"},
	{ "amount": 19, "value": "LV_Sweety"},
	{ "amount": 19, "value": "Lunar"},
	{ "amount": 19, "value": "Mister ПРОПЕР"},
	{ "amount": 19, "value": "Mooka"},
	{ "amount": 19, "value": "N1CK3R"},
	{ "amount": 19, "value": "NWD84"},
	{ "amount": 19, "value": "Patoo"},
	{ "amount": 19, "value": "PursueR"},
	{ "amount": 19, "value": "RAFNEC"},
	{ "amount": 19, "value": "Ragtag"},
	{ "amount": 19, "value": "Reaver"},
	{ "amount": 19, "value": "Renz"},
	{ "amount": 19, "value": "Rich"},
	{ "amount": 19, "value": "SHOPlanB"},
	{ "amount": 19, "value": "Salt Powered Robot"},
	{ "amount": 19, "value": "Sickno"},
	{ "amount": 19, "value": "Smokki"},
	{ "amount": 19, "value": "Son o'Petrified"},
	{ "amount": 19, "value": "SpaceC"},
	{ "amount": 19, "value": "The Toast of Cinder"},
	{ "amount": 19, "value": "TheAlaskan"},
	{ "amount": 19, "value": "Trebal"},
	{ "amount": 19, "value": "UnrealLiam"},
	{ "amount": 19, "value": "VasFox_"},
	{ "amount": 19, "value": "Walther_Weiß"},
	{ "amount": 19, "value": "WanderingEngineer"},
	{ "amount": 19, "value": "WashableChunk1"},
	{ "amount": 19, "value": "Water_Cat1"},
	{ "amount": 19, "value": "Webserfer22"},
	{ "amount": 19, "value": "Zerberus"},
	{ "amount": 19, "value": "Zerutzli♠ YYSF"},
	{ "amount": 19, "value": "Zevriun"},
	{ "amount": 19, "value": "[PRH] Ibubr"},
	{ "amount": 19, "value": "arsenich12"},
	{ "amount": 19, "value": "asun123com"},
	{ "amount": 19, "value": "garaip97"},
	{ "amount": 19, "value": "jmunzi"},
	{ "amount": 19, "value": "mojo blarp"},
	{ "amount": 19, "value": "mrdzarek"},
	{ "amount": 19, "value": "pineappleman"},
	{ "amount": 19, "value": "polaris80red"},
	{ "amount": 19, "value": "sentimiento de rechazo de Jack"},
	{ "amount": 19, "value": "shado3ofneo"},
	{ "amount": 19, "value": "thexypris"},
	{ "amount": 19, "value": "ＢяÎᴍρ |Desert Cat"},
	{ "amount": 19, "value": "𝓜𝓻𝓒𝓱𝓵𝓮𝓫"},
	{ "amount": 18, "value": "1Forge2RuleThemAll"},
	{ "amount": 18, "value": "Acaredia"},
	{ "amount": 18, "value": "Acheron Fox"},
	{ "amount": 18, "value": "AlloyCat"},
	{ "amount": 18, "value": "Alos"},
	{ "amount": 18, "value": "BLACKOUT_66"},
	{ "amount": 18, "value": "BT-Volodya"},
	{ "amount": 18, "value": "Candarian"},
	{ "amount": 18, "value": "CaptBigBang"},
	{ "amount": 18, "value": "CedGames"},
	{ "amount": 18, "value": "Corporal 50 call"},
	{ "amount": 18, "value": "Cruealix"},
	{ "amount": 18, "value": "DWD"},
	{ "amount": 18, "value": "Dak Smith"},
	{ "amount": 18, "value": "Daldriose"},
	{ "amount": 18, "value": "Demagogue"},
	{ "amount": 18, "value": "DesignerShark44"},
	{ "amount": 18, "value": "Dr. Darcy"},
	{ "amount": 18, "value": "Dr. Mike"},
	{ "amount": 18, "value": "EziahrSiX"},
	{ "amount": 18, "value": "FunkyMonkey"},
	{ "amount": 18, "value": "GeNurixRRus"},
	{ "amount": 18, "value": "Hohes_C4™"},
	{ "amount": 18, "value": "Insane Engineer"},
	{ "amount": 18, "value": "Jax"},
	{ "amount": 18, "value": "Junerocks"},
	{ "amount": 18, "value": "KMax Prime"},
	{ "amount": 18, "value": "Kanajashi"},
	{ "amount": 18, "value": "Karmaterrorᵁᴷ"},
	{ "amount": 18, "value": "Knez"},
	{ "amount": 18, "value": "Kyan"},
	{ "amount": 18, "value": "LukemNukem"},
	{ "amount": 18, "value": "Mad Laddicus"},
	{ "amount": 18, "value": "Merrick"},
	{ "amount": 18, "value": "Mito"},
	{ "amount": 18, "value": "NeroDrake"},
	{ "amount": 18, "value": "Not CavnFox"},
	{ "amount": 18, "value": "Ozzy"},
	{ "amount": 18, "value": "RA9"},
	{ "amount": 18, "value": "Rawr"},
	{ "amount": 18, "value": "Retro Frog"},
	{ "amount": 18, "value": "Rocketdog79"},
	{ "amount": 18, "value": "Saltand1"},
	{ "amount": 18, "value": "Seza"},
	{ "amount": 18, "value": "Si"},
	{ "amount": 18, "value": "Sky Tempest"},
	{ "amount": 18, "value": "Somethinglikemyfavourites"},
	{ "amount": 18, "value": "SteelX"},
	{ "amount": 18, "value": "SyntheticPanda"},
	{ "amount": 18, "value": "Tang"},
	{ "amount": 18, "value": "TheGreebleAdict"},
	{ "amount": 18, "value": "TheMessyGhost"},
	{ "amount": 18, "value": "Tristavius"},
	{ "amount": 18, "value": "Truman"},
	{ "amount": 18, "value": "TygrysT"},
	{ "amount": 18, "value": "Tyrenol"},
	{ "amount": 18, "value": "Viezenaar"},
	{ "amount": 18, "value": "WillPWR"},
	{ "amount": 18, "value": "Wtpbultman"},
	{ "amount": 18, "value": "X-wraith"},
	{ "amount": 18, "value": "Yeto"},
	{ "amount": 18, "value": "Zed"},
	{ "amount": 18, "value": "[FFC] Maxx"},
	{ "amount": 18, "value": "adriangraham1"},
	{ "amount": 18, "value": "autocyb227"},
	{ "amount": 18, "value": "bluestriker"},
	{ "amount": 18, "value": "captainbladej52"},
	{ "amount": 18, "value": "craftyscotsman4F"},
	{ "amount": 18, "value": "enhaxed"},
	{ "amount": 18, "value": "farrell1701"},
	{ "amount": 18, "value": "geekmonk"},
	{ "amount": 18, "value": "gumby"},
	{ "amount": 18, "value": "kacpergh6"},
	{ "amount": 18, "value": "nubeees"},
	{ "amount": 18, "value": "shaslaro"},
	{ "amount": 18, "value": "stedo"},
	{ "amount": 18, "value": "☢LilTraumatik☢"},
	{ "amount": 18, "value": "【JARO】►_◄  ☢"},
	{ "amount": 17, "value": "///A M G"},
	{ "amount": 17, "value": "4mGoverSquatters"},
	{ "amount": 17, "value": "<LFR> Rebel"},
	{ "amount": 17, "value": "Aitrops"},
	{ "amount": 17, "value": "Arrow"},
	{ "amount": 17, "value": "Arya Slark"},
	{ "amount": 17, "value": "Atro"},
	{ "amount": 17, "value": "BlackUmbrellas"},
	{ "amount": 17, "value": "Blu"},
	{ "amount": 17, "value": "Bswell"},
	{ "amount": 17, "value": "ClibStroker"},
	{ "amount": 17, "value": "Cougarbait"},
	{ "amount": 17, "value": "CryNox0910"},
	{ "amount": 17, "value": "DR.URLF"},
	{ "amount": 17, "value": "Deadpool"},
	{ "amount": 17, "value": "Dr.8lack"},
	{ "amount": 17, "value": "DriftedCougar84"},
	{ "amount": 17, "value": "Foxtrot Unit"},
	{ "amount": 17, "value": "Grae"},
	{ "amount": 17, "value": "Hansen"},
	{ "amount": 17, "value": "Happy_cow"},
	{ "amount": 17, "value": "Hollow Voices"},
	{ "amount": 17, "value": "Ignis"},
	{ "amount": 17, "value": "Ironduke42"},
	{ "amount": 17, "value": "Ironwatsas"},
	{ "amount": 17, "value": "K__H"},
	{ "amount": 17, "value": "L4Redbaron"},
	{ "amount": 17, "value": "LK"},
	{ "amount": 17, "value": "MagnusEffect"},
	{ "amount": 17, "value": "Micho Katana"},
	{ "amount": 17, "value": "Mike Dude"},
	{ "amount": 17, "value": "Mr Unicorn"},
	{ "amount": 17, "value": "Namacil"},
	{ "amount": 17, "value": "Nemo"},
	{ "amount": 17, "value": "NineSevenFive"},
	{ "amount": 17, "value": "Parrotmarauder327"},
	{ "amount": 17, "value": "PeteyPetePeteth"},
	{ "amount": 17, "value": "RICO-SYDog"},
	{ "amount": 17, "value": "Red Ace Fred"},
	{ "amount": 17, "value": "Rough Frenet"},
	{ "amount": 17, "value": "SCjake"},
	{ "amount": 17, "value": "SE-KI"},
	{ "amount": 17, "value": "Samloopy"},
	{ "amount": 17, "value": "ShockTNC"},
	{ "amount": 17, "value": "Sir McCannonarms"},
	{ "amount": 17, "value": "Skinface"},
	{ "amount": 17, "value": "Sneel1"},
	{ "amount": 17, "value": "Soda"},
	{ "amount": 17, "value": "SoliderDino17"},
	{ "amount": 17, "value": "Space Engie"},
	{ "amount": 17, "value": "StrixUralensis"},
	{ "amount": 17, "value": "Swifties"},
	{ "amount": 17, "value": "Synergy"},
	{ "amount": 17, "value": "TangentialThreat"},
	{ "amount": 17, "value": "TheEnderStorm"},
	{ "amount": 17, "value": "Toffyman *DEUS VULT*"},
	{ "amount": 17, "value": "Video28_allred"},
	{ "amount": 17, "value": "Wertyburger"},
	{ "amount": 17, "value": "Whoopity Longjohn"},
	{ "amount": 17, "value": "Woodroft"},
	{ "amount": 17, "value": "[OR.C]Nillemann"},
	{ "amount": 17, "value": "[W-G] Johnkennedy74"},
	{ "amount": 17, "value": "_susikohmelo_"},
	{ "amount": 17, "value": "aerghabaegeck"},
	{ "amount": 17, "value": "biolante9"},
	{ "amount": 17, "value": "ebanina"},
	{ "amount": 17, "value": "gergelypuskaval"},
	{ "amount": 17, "value": "guima3882889"},
	{ "amount": 17, "value": "jarbrack"},
	{ "amount": 17, "value": "jegan1"},
	{ "amount": 17, "value": "jhdominic4.js"},
	{ "amount": 17, "value": "krimwand"},
	{ "amount": 17, "value": "shadowpheonix787"},
	{ "amount": 17, "value": "shiftyshadow"},
	{ "amount": 17, "value": "xcal13"},
	{ "amount": 17, "value": "zooxanthellaeh2o"},
	{ "amount": 16, "value": "461353919"},
	{ "amount": 16, "value": "=FrankUnit="},
	{ "amount": 16, "value": "Achilles"},
	{ "amount": 16, "value": "Airborne Elmo"},
	{ "amount": 16, "value": "Alpha"},
	{ "amount": 16, "value": "Alphahex"},
	{ "amount": 16, "value": "AryxErin"},
	{ "amount": 16, "value": "Atterus"},
	{ "amount": 16, "value": "BeneBearded"},
	{ "amount": 16, "value": "Bert Berto"},
	{ "amount": 16, "value": "Bobisback"},
	{ "amount": 16, "value": "BrmP"},
	{ "amount": 16, "value": "Bullslayer"},
	{ "amount": 16, "value": "CMDR Nyxton"},
	{ "amount": 16, "value": "Carlos"},
	{ "amount": 16, "value": "Chris"},
	{ "amount": 16, "value": "CipherZR032"},
	{ "amount": 16, "value": "ColorMak3r"},
	{ "amount": 16, "value": "Contre Sens"},
	{ "amount": 16, "value": "Copper Wolf"},
	{ "amount": 16, "value": "DAX"},
	{ "amount": 16, "value": "DMOrigin"},
	{ "amount": 16, "value": "Dec Plays"},
	{ "amount": 16, "value": "DocRabbit"},
	{ "amount": 16, "value": "EgorKaskader"},
	{ "amount": 16, "value": "Emperor Palpatine (Darek)"},
	{ "amount": 16, "value": "Erling"},
	{ "amount": 16, "value": "Eto Hige"},
	{ "amount": 16, "value": "Fissiondivision"},
	{ "amount": 16, "value": "Foxen"},
	{ "amount": 16, "value": "Giacomo_Panizza"},
	{ "amount": 16, "value": "Grand Admiral Felix"},
	{ "amount": 16, "value": "HUBERT THE ROCK"},
	{ "amount": 16, "value": "HurricaneGirl"},
	{ "amount": 16, "value": "Jeck"},
	{ "amount": 16, "value": "KPECT"},
	{ "amount": 16, "value": "Konigerino"},
	{ "amount": 16, "value": "Konrak"},
	{ "amount": 16, "value": "Korvus"},
	{ "amount": 16, "value": "Kunu(The Ghost)"},
	{ "amount": 16, "value": "LT Commander Mattman"},
	{ "amount": 16, "value": "LordGil"},
	{ "amount": 16, "value": "LordTylus"},
	{ "amount": 16, "value": "Lordspaceship"},
	{ "amount": 16, "value": "LuMian300"},
	{ "amount": 16, "value": "Macross-frontier"},
	{ "amount": 16, "value": "ManInTheFoilMask"},
	{ "amount": 16, "value": "MegaloDangerous"},
	{ "amount": 16, "value": "Michaël"},
	{ "amount": 16, "value": "Mr. Green"},
	{ "amount": 16, "value": "Mrbungle"},
	{ "amount": 16, "value": "Nhoj1000"},
	{ "amount": 16, "value": "Pegas519"},
	{ "amount": 16, "value": "Projekt Pleasure"},
	{ "amount": 16, "value": "Puccilillo"},
	{ "amount": 16, "value": "ROB"},
	{ "amount": 16, "value": "Rikc34"},
	{ "amount": 16, "value": "STARSAR"},
	{ "amount": 16, "value": "Serg"},
	{ "amount": 16, "value": "Sich"},
	{ "amount": 16, "value": "SpaceJace5428"},
	{ "amount": 16, "value": "Telat Abiler"},
	{ "amount": 16, "value": "The PinkFair"},
	{ "amount": 16, "value": "TheOneTNT"},
	{ "amount": 16, "value": "TheSaltySeaMan."},
	{ "amount": 16, "value": "Thomas Shelby"},
	{ "amount": 16, "value": "TwitchENs [DSN]"},
	{ "amount": 16, "value": "UltimateCarnivore"},
	{ "amount": 16, "value": "Urn"},
	{ "amount": 16, "value": "Wholy Youtube"},
	{ "amount": 16, "value": "Wrathtide"},
	{ "amount": 16, "value": "ZEO CMF"},
	{ "amount": 16, "value": "[D34DVI0L3NT]"},
	{ "amount": 16, "value": "[FouS]Itharia"},
	{ "amount": 16, "value": "_Alex_[cadet]_"},
	{ "amount": 16, "value": "_Hedge_"},
	{ "amount": 16, "value": "balisticspace"},
	{ "amount": 16, "value": "daizin3200"},
	{ "amount": 16, "value": "dreadnought"},
	{ "amount": 16, "value": "drowy"},
	{ "amount": 16, "value": "ellis4149"},
	{ "amount": 16, "value": "hcor88"},
	{ "amount": 16, "value": "iZG|IridiuLugia"},
	{ "amount": 16, "value": "mistertreky2007"},
	{ "amount": 16, "value": "nico"},
	{ "amount": 16, "value": "pizdec.exe"},
	{ "amount": 16, "value": "proxy2501"},
	{ "amount": 16, "value": "rlb"},
	{ "amount": 16, "value": "uglydisease"},
	{ "amount": 16, "value": "zjklp"},
	{ "amount": 16, "value": "一夜回到解放前"},
	{ "amount": 16, "value": "二营长"},
	{ "amount": 15, "value": null},
	{ "amount": 15, "value": "--{ Herald of Death }--"},
	{ "amount": 15, "value": "-=TheDecisiveRaindrop=-"},
	{ "amount": 15, "value": "ANOREXIC DWARF"},
	{ "amount": 15, "value": "ARC17Alpha"},
	{ "amount": 15, "value": "AnoMorgan"},
	{ "amount": 15, "value": "BCP Labs(YT)"},
	{ "amount": 15, "value": "BigShogun"},
	{ "amount": 15, "value": "Bio Blaster"},
	{ "amount": 15, "value": "BlackTeco"},
	{ "amount": 15, "value": "BrainProtest"},
	{ "amount": 15, "value": "BuzZz Killer"},
	{ "amount": 15, "value": "CATMAN"},
	{ "amount": 15, "value": "CTH2004"},
	{ "amount": 15, "value": "Candle in the wind"},
	{ "amount": 15, "value": "Captain"},
	{ "amount": 15, "value": "Corock15th"},
	{ "amount": 15, "value": "Creative"},
	{ "amount": 15, "value": "Cup of  joe"},
	{ "amount": 15, "value": "DC-David"},
	{ "amount": 15, "value": "DarrenPD95"},
	{ "amount": 15, "value": "DerekTheGreat"},
	{ "amount": 15, "value": "Deviator"},
	{ "amount": 15, "value": "Elementary"},
	{ "amount": 15, "value": "Gelda"},
	{ "amount": 15, "value": "HEATHEN"},
	{ "amount": 15, "value": "Hawk Eye"},
	{ "amount": 15, "value": "Hotshot"},
	{ "amount": 15, "value": "IFOOL"},
	{ "amount": 15, "value": "INKY /ᐠ_ ꞈ _ᐟ\\"},
	{ "amount": 15, "value": "Indigo 9Tails"},
	{ "amount": 15, "value": "Jakaria"},
	{ "amount": 15, "value": "JakeL"},
	{ "amount": 15, "value": "JesusThatsMe"},
	{ "amount": 15, "value": "Jman_jd10"},
	{ "amount": 15, "value": "Jolly"},
	{ "amount": 15, "value": "JordanRiver"},
	{ "amount": 15, "value": "JulianGamezZz"},
	{ "amount": 15, "value": "King Arthur"},
	{ "amount": 15, "value": "KnightShade"},
	{ "amount": 15, "value": "Lady FaiiDarra"},
	{ "amount": 15, "value": "Mach-330"},
	{ "amount": 15, "value": "Merrickxx Gaming"},
	{ "amount": 15, "value": "Mogol"},
	{ "amount": 15, "value": "Morilibus"},
	{ "amount": 15, "value": "Morpheus"},
	{ "amount": 15, "value": "MrDataWolf"},
	{ "amount": 15, "value": "Nathan.Bean"},
	{ "amount": 15, "value": "NebuLord"},
	{ "amount": 15, "value": "Necrosexual"},
	{ "amount": 15, "value": "Onyx"},
	{ "amount": 15, "value": "Optimistically pessimistic"},
	{ "amount": 15, "value": "Perksimis (LRO)"},
	{ "amount": 15, "value": "Popeychops"},
	{ "amount": 15, "value": "Pvt. Kahrstrom [193rd GIR]"},
	{ "amount": 15, "value": "Rasmus"},
	{ "amount": 15, "value": "Ravric"},
	{ "amount": 15, "value": "RosE"},
	{ "amount": 15, "value": "Rosytooth360"},
	{ "amount": 15, "value": "SKYLINE"},
	{ "amount": 15, "value": "S_For_Sonic1235"},
	{ "amount": 15, "value": "Shadestuff"},
	{ "amount": 15, "value": "SkyCrafterLeague"},
	{ "amount": 15, "value": "SlOtHy"},
	{ "amount": 15, "value": "SlimSumo"},
	{ "amount": 15, "value": "Souzen Yurama"},
	{ "amount": 15, "value": "Sundae"},
	{ "amount": 15, "value": "Surtur"},
	{ "amount": 15, "value": "Tacet"},
	{ "amount": 15, "value": "Tanis"},
	{ "amount": 15, "value": "The MiningMan"},
	{ "amount": 15, "value": "TheMightyPilot"},
	{ "amount": 15, "value": "The_AzureDragon"},
	{ "amount": 15, "value": "Tsubasa"},
	{ "amount": 15, "value": "Tyrael"},
	{ "amount": 15, "value": "UnagiKing"},
	{ "amount": 15, "value": "Uncertain DOOM"},
	{ "amount": 15, "value": "VIK1NGTACT"},
	{ "amount": 15, "value": "Vaalyion"},
	{ "amount": 15, "value": "Vega"},
	{ "amount": 15, "value": "Vermilion"},
	{ "amount": 15, "value": "WannabeWallaby"},
	{ "amount": 15, "value": "Warlocc"},
	{ "amount": 15, "value": "Wicorel"},
	{ "amount": 15, "value": "Your Pal Deebs"},
	{ "amount": 15, "value": "Z'Kell Taldor"},
	{ "amount": 15, "value": "bobamorgan"},
	{ "amount": 15, "value": "clonk2u"},
	{ "amount": 15, "value": "costellokalani"},
	{ "amount": 15, "value": "damienmccain12"},
	{ "amount": 15, "value": "dfirerush"},
	{ "amount": 15, "value": "dgwgamer"},
	{ "amount": 15, "value": "goofy1864"},
	{ "amount": 15, "value": "jayteeree"},
	{ "amount": 15, "value": "joefreeman666"},
	{ "amount": 15, "value": "johnny33445566"},
	{ "amount": 15, "value": "kot_kysaka"},
	{ "amount": 15, "value": "le round smoke fishe"},
	{ "amount": 15, "value": "matt_daponte"},
	{ "amount": 15, "value": "mcbobbo"},
	{ "amount": 15, "value": "ominusthreat"},
	{ "amount": 15, "value": "plaYer2k"},
	{ "amount": 15, "value": "posthy"},
	{ "amount": 15, "value": "pro100tv"},
	{ "amount": 15, "value": "robossbomb"},
	{ "amount": 15, "value": "roisinge77"},
	{ "amount": 15, "value": "rommelfcc"},
	{ "amount": 15, "value": "shamw0w"},
	{ "amount": 15, "value": "sith233"},
	{ "amount": 15, "value": "thebeautyofwars"},
	{ "amount": 15, "value": "᠌ ᠌"},
	{ "amount": 15, "value": "𝔻𝔼ℕ𝕁𝔼𝕃"},
	{ "amount": 15, "value": "🅷er🆆on🆉iemniak"},
	{ "amount": 14, "value": "-XIAO-XIAO-"},
	{ "amount": 14, "value": "1llusionist"},
	{ "amount": 14, "value": "Abuu"},
	{ "amount": 14, "value": "Action Hank"},
	{ "amount": 14, "value": "Ahab"},
	{ "amount": 14, "value": "Alb"},
	{ "amount": 14, "value": "Alexander"},
	{ "amount": 14, "value": "Alyshan"},
	{ "amount": 14, "value": "Arbalest"},
	{ "amount": 14, "value": "Ariffet_Orlase013"},
	{ "amount": 14, "value": "Arkideit"},
	{ "amount": 14, "value": "Atomsk"},
	{ "amount": 14, "value": "Audacious Duke"},
	{ "amount": 14, "value": "B.Wookie"},
	{ "amount": 14, "value": "BIGOLBEAR"},
	{ "amount": 14, "value": "BKFighter"},
	{ "amount": 14, "value": "BanRuh"},
	{ "amount": 14, "value": "Bdeslaurs"},
	{ "amount": 14, "value": "Bison"},
	{ "amount": 14, "value": "Bovidius"},
	{ "amount": 14, "value": "Captain_REX"},
	{ "amount": 14, "value": "Centauri"},
	{ "amount": 14, "value": "Chefchik"},
	{ "amount": 14, "value": "Chicken_Duck_Foot_Thing"},
	{ "amount": 14, "value": "Cirshiss"},
	{ "amount": 14, "value": "Clockwork Gobber"},
	{ "amount": 14, "value": "Dachshund"},
	{ "amount": 14, "value": "Dankirish"},
	{ "amount": 14, "value": "Destroyah"},
	{ "amount": 14, "value": "Doctor Octoganapus"},
	{ "amount": 14, "value": "Doozer"},
	{ "amount": 14, "value": "Echo"},
	{ "amount": 14, "value": "Elbliep0"},
	{ "amount": 14, "value": "Elite tempest"},
	{ "amount": 14, "value": "F4TALG4MER"},
	{ "amount": 14, "value": "Fagotto"},
	{ "amount": 14, "value": "Grindy Gears"},
	{ "amount": 14, "value": "Gį̇̃ Shunshau"},
	{ "amount": 14, "value": "Ham"},
	{ "amount": 14, "value": "Hi.itsJonny"},
	{ "amount": 14, "value": "ImaDirtyBirdy"},
	{ "amount": 14, "value": "JANO"},
	{ "amount": 14, "value": "JDprimus_2199 FR"},
	{ "amount": 14, "value": "Jack Faltrow"},
	{ "amount": 14, "value": "Jamsey"},
	{ "amount": 14, "value": "Korgann"},
	{ "amount": 14, "value": "Lahne_HD"},
	{ "amount": 14, "value": "LandoBiggins"},
	{ "amount": 14, "value": "Lazlo"},
	{ "amount": 14, "value": "LurLemur"},
	{ "amount": 14, "value": "M4Wi"},
	{ "amount": 14, "value": "MagnaGazoo"},
	{ "amount": 14, "value": "ManicMonster44"},
	{ "amount": 14, "value": "Maybach"},
	{ "amount": 14, "value": "MechGingineer"},
	{ "amount": 14, "value": "Mert"},
	{ "amount": 14, "value": "Mr. Blobby"},
	{ "amount": 14, "value": "MrPietorian"},
	{ "amount": 14, "value": "Mrphoen1x"},
	{ "amount": 14, "value": "NYET RIFLE IS FINE!"},
	{ "amount": 14, "value": "Nergal"},
	{ "amount": 14, "value": "Nicgamer07"},
	{ "amount": 14, "value": "NinjaBreadroll"},
	{ "amount": 14, "value": "No"},
	{ "amount": 14, "value": "Paarl7"},
	{ "amount": 14, "value": "Phoenix"},
	{ "amount": 14, "value": "Postwar Vandal"},
	{ "amount": 14, "value": "Pred"},
	{ "amount": 14, "value": "Raon Lee"},
	{ "amount": 14, "value": "Ratio Tile"},
	{ "amount": 14, "value": "Riddell"},
	{ "amount": 14, "value": "Rufio"},
	{ "amount": 14, "value": "S1meX"},
	{ "amount": 14, "value": "SMEGG12"},
	{ "amount": 14, "value": "SavenSat YT"},
	{ "amount": 14, "value": "ScotsDragon"},
	{ "amount": 14, "value": "Scrubus"},
	{ "amount": 14, "value": "Shimaletik"},
	{ "amount": 14, "value": "Sir Luis"},
	{ "amount": 14, "value": "SkilledX"},
	{ "amount": 14, "value": "SkyeTea"},
	{ "amount": 14, "value": "SkywardSoul117"},
	{ "amount": 14, "value": "Slacker82"},
	{ "amount": 14, "value": "Solrob's Tetrohedron"},
	{ "amount": 14, "value": "Spacepotato9000"},
	{ "amount": 14, "value": "SumY"},
	{ "amount": 14, "value": "System_32"},
	{ "amount": 14, "value": "The Shippo T⍑ᒷ s⍑╎!¡!¡𝙹"},
	{ "amount": 14, "value": "TheLastDefence"},
	{ "amount": 14, "value": "TristanDolfin"},
	{ "amount": 14, "value": "Tuuvas"},
	{ "amount": 14, "value": "TwinChops"},
	{ "amount": 14, "value": "UMB694"},
	{ "amount": 14, "value": "Vandaan"},
	{ "amount": 14, "value": "Vigik the broken"},
	{ "amount": 14, "value": "Vyron [UA]"},
	{ "amount": 14, "value": "Welp"},
	{ "amount": 14, "value": "Whitefox3030"},
	{ "amount": 14, "value": "WolfFire1010"},
	{ "amount": 14, "value": "Yakobe"},
	{ "amount": 14, "value": "ZZZhua"},
	{ "amount": 14, "value": "ZenWalker"},
	{ "amount": 14, "value": "[ LeoVircen ]"},
	{ "amount": 14, "value": "[AI]666Savior"},
	{ "amount": 14, "value": "ace_334"},
	{ "amount": 14, "value": "amigo-robin"},
	{ "amount": 14, "value": "armored_saint"},
	{ "amount": 14, "value": "battery1979"},
	{ "amount": 14, "value": "bruce.dubois6"},
	{ "amount": 14, "value": "dgeodgeo"},
	{ "amount": 14, "value": "djfigs25"},
	{ "amount": 14, "value": "firsimp"},
	{ "amount": 14, "value": "gar_krol"},
	{ "amount": 14, "value": "jonnytaco"},
	{ "amount": 14, "value": "keiththefish"},
	{ "amount": 14, "value": "levink64"},
	{ "amount": 14, "value": "lord_vigo"},
	{ "amount": 14, "value": "redspirit69"},
	{ "amount": 14, "value": "stelladraco27"},
	{ "amount": 14, "value": "water lily"},
	{ "amount": 14, "value": "woostyboy"},
	{ "amount": 14, "value": "ÆGIS"},
	{ "amount": 14, "value": "Горячий Павел"},
	{ "amount": 14, "value": "一只腹黑的猫"},
	{ "amount": 13, "value": "Aeyos"},
	{ "amount": 13, "value": "Alexli14"},
	{ "amount": 13, "value": "Anzaic"},
	{ "amount": 13, "value": "Arron74"},
	{ "amount": 13, "value": "AssHunter"},
	{ "amount": 13, "value": "Auska"},
	{ "amount": 13, "value": "Azure Night Owl"},
	{ "amount": 13, "value": "BOB ROSS THE SAUCE BOSS"},
	{ "amount": 13, "value": "Badger✈"},
	{ "amount": 13, "value": "Bengemon825"},
	{ "amount": 13, "value": "BestMikeEver"},
	{ "amount": 13, "value": "Big Man Red"},
	{ "amount": 13, "value": "BigSmoke."},
	{ "amount": 13, "value": "Blackvertigo1"},
	{ "amount": 13, "value": "Br-35 Ba-56"},
	{ "amount": 13, "value": "Brent"},
	{ "amount": 13, "value": "Buttered Toast"},
	{ "amount": 13, "value": "Callidis"},
	{ "amount": 13, "value": "Callsign \"Ghost Rider\""},
	{ "amount": 13, "value": "Chad"},
	{ "amount": 13, "value": "Conscripted Alchemist"},
	{ "amount": 13, "value": "Copycat80"},
	{ "amount": 13, "value": "CrazyToast"},
	{ "amount": 13, "value": "Crunch"},
	{ "amount": 13, "value": "Cuica"},
	{ "amount": 13, "value": "Dalek_Sath"},
	{ "amount": 13, "value": "Der_Emo97"},
	{ "amount": 13, "value": "Downey"},
	{ "amount": 13, "value": "DragonTemplar4"},
	{ "amount": 13, "value": "DreamAssembly!"},
	{ "amount": 13, "value": "DurFea"},
	{ "amount": 13, "value": "E-Man720"},
	{ "amount": 13, "value": "Egliru The Best Mate of Okonkwo"},
	{ "amount": 13, "value": "El Orco De Denetorko"},
	{ "amount": 13, "value": "FOE*HAMMER"},
	{ "amount": 13, "value": "FPC"},
	{ "amount": 13, "value": "FasterHaJo"},
	{ "amount": 13, "value": "Felavendel"},
	{ "amount": 13, "value": "Fenrisulfr"},
	{ "amount": 13, "value": "Flashblaster"},
	{ "amount": 13, "value": "Fox"},
	{ "amount": 13, "value": "Game Time"},
	{ "amount": 13, "value": "Gatin' Jin"},
	{ "amount": 13, "value": "Gef509"},
	{ "amount": 13, "value": "Ghost"},
	{ "amount": 13, "value": "GinderMan"},
	{ "amount": 13, "value": "Glutbart"},
	{ "amount": 13, "value": "Gunnar"},
	{ "amount": 13, "value": "Harley Quinn"},
	{ "amount": 13, "value": "Holy Crusader"},
	{ "amount": 13, "value": "IraGfC"},
	{ "amount": 13, "value": "Jexsam"},
	{ "amount": 13, "value": "Koven"},
	{ "amount": 13, "value": "Kronk"},
	{ "amount": 13, "value": "Kонтроль"},
	{ "amount": 13, "value": "Lead Pill"},
	{ "amount": 13, "value": "Leroy"},
	{ "amount": 13, "value": "Liberty Bull"},
	{ "amount": 13, "value": "Lightning Lord"},
	{ "amount": 13, "value": "Lith83"},
	{ "amount": 13, "value": "Lord|Monkey"},
	{ "amount": 13, "value": "MFDreamless"},
	{ "amount": 13, "value": "MagnumOpus"},
	{ "amount": 13, "value": "Mannorot2015"},
	{ "amount": 13, "value": "Michael"},
	{ "amount": 13, "value": "Minecraft Kosticka"},
	{ "amount": 13, "value": "Mittons"},
	{ "amount": 13, "value": "Mr Nobody"},
	{ "amount": 13, "value": "NAMZYHD4"},
	{ "amount": 13, "value": "Neocade"},
	{ "amount": 13, "value": "Neravian"},
	{ "amount": 13, "value": "Nomida  (Sim)"},
	{ "amount": 13, "value": "Obi-vanvan7"},
	{ "amount": 13, "value": "Onikage-056, God of Animatronics"},
	{ "amount": 13, "value": "Papi62"},
	{ "amount": 13, "value": "Pen'nar Empire"},
	{ "amount": 13, "value": "Quantum Joe"},
	{ "amount": 13, "value": "RKS-GameTech"},
	{ "amount": 13, "value": "Recurve"},
	{ "amount": 13, "value": "Retro97Assault"},
	{ "amount": 13, "value": "RoutineTree3"},
	{ "amount": 13, "value": "Rowller"},
	{ "amount": 13, "value": "Roy2D2C"},
	{ "amount": 13, "value": "SOBERANO"},
	{ "amount": 13, "value": "Scar"},
	{ "amount": 13, "value": "Sck Superman"},
	{ "amount": 13, "value": "SeliG"},
	{ "amount": 13, "value": "SheriffYuri"},
	{ "amount": 13, "value": "SkyCaptainSleepy"},
	{ "amount": 13, "value": "Snake Eyes"},
	{ "amount": 13, "value": "SolidRockGaming"},
	{ "amount": 13, "value": "Space Marine"},
	{ "amount": 13, "value": "SpaceKeek"},
	{ "amount": 13, "value": "SpaceRak"},
	{ "amount": 13, "value": "T Man"},
	{ "amount": 13, "value": "Takaifa"},
	{ "amount": 13, "value": "Tekk"},
	{ "amount": 13, "value": "Temporary Banana"},
	{ "amount": 13, "value": "Terminal_6"},
	{ "amount": 13, "value": "Tuttomenui"},
	{ "amount": 13, "value": "UMAN"},
	{ "amount": 13, "value": "Ulrich_Von_Jungingen"},
	{ "amount": 13, "value": "UltraYT"},
	{ "amount": 13, "value": "Unreal"},
	{ "amount": 13, "value": "VanuBaguio"},
	{ "amount": 13, "value": "Wackyboy"},
	{ "amount": 13, "value": "WarBeast"},
	{ "amount": 13, "value": "Wemi"},
	{ "amount": 13, "value": "Xephrock"},
	{ "amount": 13, "value": "Xylophone"},
	{ "amount": 13, "value": "ZippedTrojan"},
	{ "amount": 13, "value": "['0] Handsome Jack"},
	{ "amount": 13, "value": "[102nd] TheEmperor"},
	{ "amount": 13, "value": "[D3RP] Meserion"},
	{ "amount": 13, "value": "anton.bikovsky"},
	{ "amount": 13, "value": "bruin_o9er"},
	{ "amount": 13, "value": "ckobler"},
	{ "amount": 13, "value": "cofish11"},
	{ "amount": 13, "value": "creothes"},
	{ "amount": 13, "value": "cvn!!@!238154"},
	{ "amount": 13, "value": "darkheyr"},
	{ "amount": 13, "value": "denismaster"},
	{ "amount": 13, "value": "editedcub"},
	{ "amount": 13, "value": "f2nt4sm6"},
	{ "amount": 13, "value": "jmferretmaster"},
	{ "amount": 13, "value": "karas"},
	{ "amount": 13, "value": "komodau"},
	{ "amount": 13, "value": "lolindirarfar"},
	{ "amount": 13, "value": "ranus_magnus"},
	{ "amount": 13, "value": "rockrove"},
	{ "amount": 13, "value": "s0ver"},
	{ "amount": 13, "value": "seawolf"},
	{ "amount": 13, "value": "shadow trace"},
	{ "amount": 13, "value": "skivel2"},
	{ "amount": 13, "value": "stretchtwo587"},
	{ "amount": 13, "value": "stuckyluke"},
	{ "amount": 13, "value": "warlord-inc"},
	{ "amount": 13, "value": "xxk0y0t3xx"},
	{ "amount": 13, "value": "☭Android☭"},
	{ "amount": 12, "value": "358205434"},
	{ "amount": 12, "value": "ARK"},
	{ "amount": 12, "value": "Abaj13"},
	{ "amount": 12, "value": "AppexDragon"},
	{ "amount": 12, "value": "Azazel"},
	{ "amount": 12, "value": "Azurite"},
	{ "amount": 12, "value": "Baconblitz"},
	{ "amount": 12, "value": "Boldtaar"},
	{ "amount": 12, "value": "Cerafim"},
	{ "amount": 12, "value": "Commander Joir"},
	{ "amount": 12, "value": "Commander_JCM"},
	{ "amount": 12, "value": "Cpt.P.Chvatal"},
	{ "amount": 12, "value": "CrescentWolf"},
	{ "amount": 12, "value": "CruelBacon"},
	{ "amount": 12, "value": "Cubbage"},
	{ "amount": 12, "value": "DERPY SMOOG"},
	{ "amount": 12, "value": "Daniel Lee Howell"},
	{ "amount": 12, "value": "Dax Nexus"},
	{ "amount": 12, "value": "DeC"},
	{ "amount": 12, "value": "DeathMagnet"},
	{ "amount": 12, "value": "Deja Vroom!"},
	{ "amount": 12, "value": "Deleted Toaster 5QU15HY"},
	{ "amount": 12, "value": "DirectedEnergy"},
	{ "amount": 12, "value": "Dradin"},
	{ "amount": 12, "value": "Dzheff"},
	{ "amount": 12, "value": "El Pako III"},
	{ "amount": 12, "value": "ElectronDev"},
	{ "amount": 12, "value": "Ender"},
	{ "amount": 12, "value": "Entersprite"},
	{ "amount": 12, "value": "EpicElric"},
	{ "amount": 12, "value": "Evangelion139"},
	{ "amount": 12, "value": "FakeFox"},
	{ "amount": 12, "value": "FlutterPoneShy"},
	{ "amount": 12, "value": "Fulcrum"},
	{ "amount": 12, "value": "FullMoonJoker"},
	{ "amount": 12, "value": "GOOENSKEW"},
	{ "amount": 12, "value": "Gekreth"},
	{ "amount": 12, "value": "GeneralWiggin"},
	{ "amount": 12, "value": "GetOutTheCab"},
	{ "amount": 12, "value": "Gimboid"},
	{ "amount": 12, "value": "Glados_Hamster"},
	{ "amount": 12, "value": "Gray"},
	{ "amount": 12, "value": "Grimard"},
	{ "amount": 12, "value": "Gyrexion"},
	{ "amount": 12, "value": "HAKATJI"},
	{ "amount": 12, "value": "HrvyWllbngr"},
	{ "amount": 12, "value": "HunterOfPinkBunnyWabbits"},
	{ "amount": 12, "value": "IamTheHavoc"},
	{ "amount": 12, "value": "Irkalla"},
	{ "amount": 12, "value": "IronOxide"},
	{ "amount": 12, "value": "Isen"},
	{ "amount": 12, "value": "JDM"},
	{ "amount": 12, "value": "JOSELUIS(SDT)"},
	{ "amount": 12, "value": "Jaggster (Dimension C-132)"},
	{ "amount": 12, "value": "JoshyBOB"},
	{ "amount": 12, "value": "Kashiwa"},
	{ "amount": 12, "value": "Krooga"},
	{ "amount": 12, "value": "Kyr"},
	{ "amount": 12, "value": "Lassie"},
	{ "amount": 12, "value": "LittleManWilliam"},
	{ "amount": 12, "value": "LordAlexkog"},
	{ "amount": 12, "value": "LordBUM"},
	{ "amount": 12, "value": "Loues.S.Cat"},
	{ "amount": 12, "value": "Lugubrious Orifice"},
	{ "amount": 12, "value": "MRfihka"},
	{ "amount": 12, "value": "MadThanos [EST] ™"},
	{ "amount": 12, "value": "Malhavoc"},
	{ "amount": 12, "value": "Marcus 🔰"},
	{ "amount": 12, "value": "Matya"},
	{ "amount": 12, "value": "McGargoyle"},
	{ "amount": 12, "value": "Midas"},
	{ "amount": 12, "value": "Misnn"},
	{ "amount": 12, "value": "Mr Creative"},
	{ "amount": 12, "value": "Nadia Gottlieb"},
	{ "amount": 12, "value": "Neon Photon"},
	{ "amount": 12, "value": "No Signal"},
	{ "amount": 12, "value": "Nooby"},
	{ "amount": 12, "value": "Noorthia"},
	{ "amount": 12, "value": "Nyx"},
	{ "amount": 12, "value": "OG Loc"},
	{ "amount": 12, "value": "OguzHAN ONBIR"},
	{ "amount": 12, "value": "Ostpol"},
	{ "amount": 12, "value": "PATS3Y"},
	{ "amount": 12, "value": "Phil"},
	{ "amount": 12, "value": "PsychoticSpud"},
	{ "amount": 12, "value": "QcGrumble"},
	{ "amount": 12, "value": "Raeffi"},
	{ "amount": 12, "value": "RedFly"},
	{ "amount": 12, "value": "Rikku"},
	{ "amount": 12, "value": "RogenLothena™"},
	{ "amount": 12, "value": "Rolins-Carter"},
	{ "amount": 12, "value": "Rowan"},
	{ "amount": 12, "value": "S1m0n3"},
	{ "amount": 12, "value": "SGT Wise"},
	{ "amount": 12, "value": "Sebforce116"},
	{ "amount": 12, "value": "Sekston Turretmaster"},
	{ "amount": 12, "value": "Seromas"},
	{ "amount": 12, "value": "Sgt_YorkA63"},
	{ "amount": 12, "value": "Shagakor"},
	{ "amount": 12, "value": "Sharbert Warbison"},
	{ "amount": 12, "value": "Shepard (KeGGeR)"},
	{ "amount": 12, "value": "Shyska Ronja"},
	{ "amount": 12, "value": "SirTragain"},
	{ "amount": 12, "value": "SiriusBlack"},
	{ "amount": 12, "value": "SkullmanAlpha"},
	{ "amount": 12, "value": "Sniforge"},
	{ "amount": 12, "value": "SoldierHN03"},
	{ "amount": 12, "value": "Soulebot"},
	{ "amount": 12, "value": "Spook-27"},
	{ "amount": 12, "value": "SurF HKAZ"},
	{ "amount": 12, "value": "TIM"},
	{ "amount": 12, "value": "Terradus"},
	{ "amount": 12, "value": "The Outcast"},
	{ "amount": 12, "value": "The Wolf"},
	{ "amount": 12, "value": "The_Prince_Of_Fails"},
	{ "amount": 12, "value": "Thentox"},
	{ "amount": 12, "value": "Tommy Lee"},
	{ "amount": 12, "value": "Tumble"},
	{ "amount": 12, "value": "TuntematonSika"},
	{ "amount": 12, "value": "Turkeybaster"},
	{ "amount": 12, "value": "Viper"},
	{ "amount": 12, "value": "Voxnic"},
	{ "amount": 12, "value": "WarDragon"},
	{ "amount": 12, "value": "Wild Wild Wez"},
	{ "amount": 12, "value": "Xsniper9898"},
	{ "amount": 12, "value": "Ya.anibus"},
	{ "amount": 12, "value": "Zefnoly"},
	{ "amount": 12, "value": "Zer0 Dark"},
	{ "amount": 12, "value": "[NSE]Blaster"},
	{ "amount": 12, "value": "[Psych] Chax"},
	{ "amount": 12, "value": "[SPITFYRE] kjs"},
	{ "amount": 12, "value": "anzellott"},
	{ "amount": 12, "value": "biker.bandit"},
	{ "amount": 12, "value": "chillinflute"},
	{ "amount": 12, "value": "commie._.tears"},
	{ "amount": 12, "value": "cszlak"},
	{ "amount": 12, "value": "cybersettler"},
	{ "amount": 12, "value": "danghul"},
	{ "amount": 12, "value": "eisenhammertech"},
	{ "amount": 12, "value": "fps_Al'Mexinugget"},
	{ "amount": 12, "value": "jack.burke98"},
	{ "amount": 12, "value": "jarge2"},
	{ "amount": 12, "value": "jemtzgr"},
	{ "amount": 12, "value": "jerryfanfan"},
	{ "amount": 12, "value": "juststephen"},
	{ "amount": 12, "value": "juusukun"},
	{ "amount": 12, "value": "kokimimi"},
	{ "amount": 12, "value": "mandavel"},
	{ "amount": 12, "value": "mmaaddnndd12"},
	{ "amount": 12, "value": "nemo187"},
	{ "amount": 12, "value": "nickglaza"},
	{ "amount": 12, "value": "pawelsake"},
	{ "amount": 12, "value": "pierreextraperry"},
	{ "amount": 12, "value": "ragnarcore"},
	{ "amount": 12, "value": "randeep74.singh"},
	{ "amount": 12, "value": "rawstyler"},
	{ "amount": 12, "value": "reload"},
	{ "amount": 12, "value": "revox79"},
	{ "amount": 12, "value": "someone"},
	{ "amount": 12, "value": "steve8888888816"},
	{ "amount": 12, "value": "unicoMEB"},
	{ "amount": 12, "value": "victor.e.mondragon@gmail.com"},
	{ "amount": 12, "value": "zipgunlarry"},
	{ "amount": 12, "value": "张碎蛋同学"},
	{ "amount": 12, "value": "王天"},
	{ "amount": 12, "value": "紫阳"},
	{ "amount": 12, "value": "TheSpawnyGit"},
	{ "amount": 11, "value": "(ᵔᴥᵔ)"},
	{ "amount": 11, "value": ".Maverick"},
	{ "amount": 11, "value": "1eyewilly"},
	{ "amount": 11, "value": "999"},
	{ "amount": 11, "value": "APOLLONFX"},
	{ "amount": 11, "value": "ASP Ian"},
	{ "amount": 11, "value": "A_Vodka"},
	{ "amount": 11, "value": "Abstract_Enigma"},
	{ "amount": 11, "value": "Admiral Rivvion"},
	{ "amount": 11, "value": "Aftermarket Player"},
	{ "amount": 11, "value": "Agaster"},
	{ "amount": 11, "value": "Amp-Hibious"},
	{ "amount": 11, "value": "Anoth"},
	{ "amount": 11, "value": "Antti"},
	{ "amount": 11, "value": "Aramagon_ZA"},
	{ "amount": 11, "value": "ArcBlue"},
	{ "amount": 11, "value": "Archan79"},
	{ "amount": 11, "value": "Aydo"},
	{ "amount": 11, "value": "Ayotrex"},
	{ "amount": 11, "value": "B.A_54"},
	{ "amount": 11, "value": "BCORNO"},
	{ "amount": 11, "value": "BEEESSS"},
	{ "amount": 11, "value": "Baleur"},
	{ "amount": 11, "value": "Banshee_Metal"},
	{ "amount": 11, "value": "Baratheon79"},
	{ "amount": 11, "value": "BlackReaper"},
	{ "amount": 11, "value": "Boldro"},
	{ "amount": 11, "value": "Bruxel"},
	{ "amount": 11, "value": "Bvol"},
	{ "amount": 11, "value": "CAPTAIN SIRSOG"},
	{ "amount": 11, "value": "CajernSpice"},
	{ "amount": 11, "value": "Calmos"},
	{ "amount": 11, "value": "Candor"},
	{ "amount": 11, "value": "CaptMike"},
	{ "amount": 11, "value": "Captain Arcan"},
	{ "amount": 11, "value": "Carbondatez"},
	{ "amount": 11, "value": "Celtix"},
	{ "amount": 11, "value": "ChaosInertia"},
	{ "amount": 11, "value": "Cheetah"},
	{ "amount": 11, "value": "ChronoSt0rm"},
	{ "amount": 11, "value": "Chucky Dickens"},
	{ "amount": 11, "value": "Citra Joe"},
	{ "amount": 11, "value": "Clang-O-Naut"},
	{ "amount": 11, "value": "Clipboard"},
	{ "amount": 11, "value": "Conservative,Christian,GunOwner"},
	{ "amount": 11, "value": "Coopster"},
	{ "amount": 11, "value": "Cpt. Wolf"},
	{ "amount": 11, "value": "Crimson Revenant"},
	{ "amount": 11, "value": "CrossXx"},
	{ "amount": 11, "value": "Dan"},
	{ "amount": 11, "value": "DanTheDutchMan"},
	{ "amount": 11, "value": "DarkPhoenix422"},
	{ "amount": 11, "value": "Daroneyn"},
	{ "amount": 11, "value": "Darp"},
	{ "amount": 11, "value": "DarthVaper"},
	{ "amount": 11, "value": "Deukmans"},
	{ "amount": 11, "value": "Dextroghost"},
	{ "amount": 11, "value": "Digi"},
	{ "amount": 11, "value": "Dr Crow"},
	{ "amount": 11, "value": "Dr. Amethyst Spell"},
	{ "amount": 11, "value": "Dragon Crisis Core"},
	{ "amount": 11, "value": "Dravidian"},
	{ "amount": 11, "value": "Energy"},
	{ "amount": 11, "value": "Errix"},
	{ "amount": 11, "value": "Exo Vanders"},
	{ "amount": 11, "value": "FelixWS"},
	{ "amount": 11, "value": "FeuerGolem®"},
	{ "amount": 11, "value": "FireGuy1996"},
	{ "amount": 11, "value": "FiveSecondsIsAYoke"},
	{ "amount": 11, "value": "FlabMush"},
	{ "amount": 11, "value": "FoxVelox"},
	{ "amount": 11, "value": "Garviel Stoker"},
	{ "amount": 11, "value": "Gentle George"},
	{ "amount": 11, "value": "Ghost ReconYT"},
	{ "amount": 11, "value": "Gravediger"},
	{ "amount": 11, "value": "Gridinad"},
	{ "amount": 11, "value": "Gufo10"},
	{ "amount": 11, "value": "HDLiggett"},
	{ "amount": 11, "value": "Hacker3k"},
	{ "amount": 11, "value": "Hellothere"},
	{ "amount": 11, "value": "Hitman (GER)"},
	{ "amount": 11, "value": "Holyschytt"},
	{ "amount": 11, "value": "Hujambo-2"},
	{ "amount": 11, "value": "IRONNOX"},
	{ "amount": 11, "value": "Infantry56"},
	{ "amount": 11, "value": "IvAn..BANDIT"},
	{ "amount": 11, "value": "JEWDAY"},
	{ "amount": 11, "value": "Jay-ar | Tradeit.gg"},
	{ "amount": 11, "value": "Joe3020"},
	{ "amount": 11, "value": "KT_pg_Fordring"},
	{ "amount": 11, "value": "Karnivool"},
	{ "amount": 11, "value": "KentiTiger"},
	{ "amount": 11, "value": "Kivister"},
	{ "amount": 11, "value": "KlausVonBlunderSchmuck"},
	{ "amount": 11, "value": "Kuro6"},
	{ "amount": 11, "value": "LHammonds"},
	{ "amount": 11, "value": "Legion40k"},
	{ "amount": 11, "value": "Ligon"},
	{ "amount": 11, "value": "Lone-Raven-Knight"},
	{ "amount": 11, "value": "LuckingY·Bitle六百萬🌟"},
	{ "amount": 11, "value": "MONO"},
	{ "amount": 11, "value": "Marc Cassin"},
	{ "amount": 11, "value": "Marre91"},
	{ "amount": 11, "value": "Morfin"},
	{ "amount": 11, "value": "Mr Hazard"},
	{ "amount": 11, "value": "Neoaptic"},
	{ "amount": 11, "value": "Nick P. Wilde"},
	{ "amount": 11, "value": "Night.Watchman"},
	{ "amount": 11, "value": "Noir"},
	{ "amount": 11, "value": "OUR Colin"},
	{ "amount": 11, "value": "PainfulCh33se"},
	{ "amount": 11, "value": "Paomf"},
	{ "amount": 11, "value": "Professor Holtex [GER]"},
	{ "amount": 11, "value": "Raphokon"},
	{ "amount": 11, "value": "Rayleonardo"},
	{ "amount": 11, "value": "Remote-A-Troll"},
	{ "amount": 11, "value": "Riley Reid"},
	{ "amount": 11, "value": "Robka"},
	{ "amount": 11, "value": "Roboneer99"},
	{ "amount": 11, "value": "Rv2pc3d"},
	{ "amount": 11, "value": "S. Vasquez"},
	{ "amount": 11, "value": "SadNac"},
	{ "amount": 11, "value": "Sarah"},
	{ "amount": 11, "value": "Schwejk"},
	{ "amount": 11, "value": "ShadowSabre1"},
	{ "amount": 11, "value": "Sinxar"},
	{ "amount": 11, "value": "Slagger"},
	{ "amount": 11, "value": "Sop1130"},
	{ "amount": 11, "value": "Space Man"},
	{ "amount": 11, "value": "Spaghetti Boi"},
	{ "amount": 11, "value": "Specter02"},
	{ "amount": 11, "value": "SpiritSVK"},
	{ "amount": 11, "value": "Sqirt"},
	{ "amount": 11, "value": "Starbuckminsterfullerton"},
	{ "amount": 11, "value": "Starsunder"},
	{ "amount": 11, "value": "Stay Cool"},
	{ "amount": 11, "value": "Still Unnamed"},
	{ "amount": 11, "value": "Stragerd"},
	{ "amount": 11, "value": "SubZero"},
	{ "amount": 11, "value": "SuperScarab120"},
	{ "amount": 11, "value": "SuspiciousCheese"},
	{ "amount": 11, "value": "TEEN"},
	{ "amount": 11, "value": "Takeshi"},
	{ "amount": 11, "value": "Tarby"},
	{ "amount": 11, "value": "TechnicallyShattered"},
	{ "amount": 11, "value": "ThatOneDisco"},
	{ "amount": 11, "value": "The God of LP"},
	{ "amount": 11, "value": "The Mjrlun"},
	{ "amount": 11, "value": "The_Epic_Beard"},
	{ "amount": 11, "value": "Thorgallsen"},
	{ "amount": 11, "value": "TiggilerZ"},
	{ "amount": 11, "value": "Tnx_Bayres"},
	{ "amount": 11, "value": "Topher"},
	{ "amount": 11, "value": "Torchwood"},
	{ "amount": 11, "value": "Trekker"},
	{ "amount": 11, "value": "Unknown Playe72"},
	{ "amount": 11, "value": "Vreenak"},
	{ "amount": 11, "value": "WallOfScience"},
	{ "amount": 11, "value": "WallofBriggs"},
	{ "amount": 11, "value": "WelshTurtle"},
	{ "amount": 11, "value": "WickeD"},
	{ "amount": 11, "value": "Wilk,u"},
	{ "amount": 11, "value": "Willy Gmod"},
	{ "amount": 11, "value": "Xo"},
	{ "amount": 11, "value": "ZAULON5⓪5Relax"},
	{ "amount": 11, "value": "Zintlede"},
	{ "amount": 11, "value": "Zon"},
	{ "amount": 11, "value": "[W4EV] Shiro Kitsune"},
	{ "amount": 11, "value": "aishen27"},
	{ "amount": 11, "value": "akaAlex"},
	{ "amount": 11, "value": "andreyas.1982"},
	{ "amount": 11, "value": "anime212001"},
	{ "amount": 11, "value": "avrocf105"},
	{ "amount": 11, "value": "bc007"},
	{ "amount": 11, "value": "bigplay985"},
	{ "amount": 11, "value": "blackmancer"},
	{ "amount": 11, "value": "body1986"},
	{ "amount": 11, "value": "carlosewilfong"},
	{ "amount": 11, "value": "cmagnoramalho"},
	{ "amount": 11, "value": "coyote"},
	{ "amount": 11, "value": "epflederer"},
	{ "amount": 11, "value": "gn33101"},
	{ "amount": 11, "value": "grimczz"},
	{ "amount": 11, "value": "hubbletowne"},
	{ "amount": 11, "value": "jabtiger0322reborn"},
	{ "amount": 11, "value": "jojaca3"},
	{ "amount": 11, "value": "jtreiman"},
	{ "amount": 11, "value": "jumpingdoghead"},
	{ "amount": 11, "value": "kick_butz"},
	{ "amount": 11, "value": "laci4321 (HUN)"},
	{ "amount": 11, "value": "marcelkas83"},
	{ "amount": 11, "value": "mipam"},
	{ "amount": 11, "value": "mr morsquito"},
	{ "amount": 11, "value": "mrkaho"},
	{ "amount": 11, "value": "neophyteg4mer"},
	{ "amount": 11, "value": "plopyorange8100"},
	{ "amount": 11, "value": "ravadja"},
	{ "amount": 11, "value": "rjavier441"},
	{ "amount": 11, "value": "roadieshow"},
	{ "amount": 11, "value": "rolle63"},
	{ "amount": 11, "value": "roman.bezsmertniy"},
	{ "amount": 11, "value": "runedian"},
	{ "amount": 11, "value": "sabertooth512"},
	{ "amount": 11, "value": "sacul2345"},
	{ "amount": 11, "value": "scramps"},
	{ "amount": 11, "value": "shadowdargonRU"},
	{ "amount": 11, "value": "shamsi"},
	{ "amount": 11, "value": "shard"},
	{ "amount": 11, "value": "taeles"},
	{ "amount": 11, "value": "termen8or"},
	{ "amount": 11, "value": "tesunie"},
	{ "amount": 11, "value": "turist14"},
	{ "amount": 11, "value": "vince.t"},
	{ "amount": 11, "value": "xXAmaroqXx"},
	{ "amount": 11, "value": "yacabo"},
	{ "amount": 11, "value": "yggdra222"},
	{ "amount": 11, "value": "Лис"},
	{ "amount": 11, "value": "ж  ﻿ｔｅｒｚａｅｒｉａｎ  ✌"},
	{ "amount": 11, "value": "☢ SHIT SPLASH ☢"},
	{ "amount": 11, "value": "泡泡鱼"},
	{ "amount": 10, "value": "*FS*"},
	{ "amount": 10, "value": "-Caranteeni-"},
	{ "amount": 10, "value": "-YURIA-"},
	{ "amount": 10, "value": "-[FF]-Ace_ofChaos"},
	{ "amount": 10, "value": "0310njs"},
	{ "amount": 10, "value": "1122"},
	{ "amount": 10, "value": "3071277307"},
	{ "amount": 10, "value": "420loaded"},
	{ "amount": 10, "value": "420ninja222"},
	{ "amount": 10, "value": "8_"},
	{ "amount": 10, "value": "APKAXEH"},
	{ "amount": 10, "value": "AcuvaDisto"},
	{ "amount": 10, "value": "AdeKvatt"},
	{ "amount": 10, "value": "Aediway"},
	{ "amount": 10, "value": "Alazar"},
	{ "amount": 10, "value": "Almirante Orlock"},
	{ "amount": 10, "value": "Alyxandra Stargrace"},
	{ "amount": 10, "value": "Asgard_10"},
	{ "amount": 10, "value": "Asmoww"},
	{ "amount": 10, "value": "Aunderis"},
	{ "amount": 10, "value": "Auto noob"},
	{ "amount": 10, "value": "Azr"},
	{ "amount": 10, "value": "BeeSkee"},
	{ "amount": 10, "value": "Bibs Kartouch"},
	{ "amount": 10, "value": "Biomechannibal"},
	{ "amount": 10, "value": "Black Mews"},
	{ "amount": 10, "value": "Blake Alexander Terida"},
	{ "amount": 10, "value": "Bob-san"},
	{ "amount": 10, "value": "Bolsa de pinzas"},
	{ "amount": 10, "value": "Borkborks"},
	{ "amount": 10, "value": "Bronko Kulicka"},
	{ "amount": 10, "value": "Burkey"},
	{ "amount": 10, "value": "CannonFodderMK4"},
	{ "amount": 10, "value": "CaptainShack"},
	{ "amount": 10, "value": "Carolus Rex"},
	{ "amount": 10, "value": "Chabin"},
	{ "amount": 10, "value": "Charles Montgomery Burns"},
	{ "amount": 10, "value": "Commander Llewellyn"},
	{ "amount": 10, "value": "ComradeWinston"},
	{ "amount": 10, "value": "CornishGamer"},
	{ "amount": 10, "value": "Coronivus"},
	{ "amount": 10, "value": "Cpt. T. Solar"},
	{ "amount": 10, "value": "Crazeyfrog001"},
	{ "amount": 10, "value": "Cryptic Zoroark"},
	{ "amount": 10, "value": "Danny C 301"},
	{ "amount": 10, "value": "Dark Lord"},
	{ "amount": 10, "value": "DarthWormee"},
	{ "amount": 10, "value": "Dawny"},
	{ "amount": 10, "value": "Deadstatic"},
	{ "amount": 10, "value": "Devin"},
	{ "amount": 10, "value": "Diman Patrusheff"},
	{ "amount": 10, "value": "Dittle"},
	{ "amount": 10, "value": "DiveBomber"},
	{ "amount": 10, "value": "DoUKnowTheWay"},
	{ "amount": 10, "value": "Dog God"},
	{ "amount": 10, "value": "Dolpenguin"},
	{ "amount": 10, "value": "Dr.Damage"},
	{ "amount": 10, "value": "DrREDST0NE"},
	{ "amount": 10, "value": "DragonGod"},
	{ "amount": 10, "value": "EVE-Yhong"},
	{ "amount": 10, "value": "Eingeborene"},
	{ "amount": 10, "value": "Elliott"},
	{ "amount": 10, "value": "Everdro1d"},
	{ "amount": 10, "value": "FRANCK"},
	{ "amount": 10, "value": "FireManDan"},
	{ "amount": 10, "value": "Fixguard"},
	{ "amount": 10, "value": "FlamE"},
	{ "amount": 10, "value": "Flamenaruto86"},
	{ "amount": 10, "value": "FlamingNinja"},
	{ "amount": 10, "value": "FoeHammer_E419"},
	{ "amount": 10, "value": "GRIN E"},
	{ "amount": 10, "value": "Gameomaster1012"},
	{ "amount": 10, "value": "Garrett"},
	{ "amount": 10, "value": "Gepizi Rader"},
	{ "amount": 10, "value": "Gravitywell420"},
	{ "amount": 10, "value": "GrayETC"},
	{ "amount": 10, "value": "Gummi"},
	{ "amount": 10, "value": "HAMMERFALL314"},
	{ "amount": 10, "value": "Hampfrey"},
	{ "amount": 10, "value": "HawkeyePC"},
	{ "amount": 10, "value": "Heartless Zealot"},
	{ "amount": 10, "value": "Hotshot"},
	{ "amount": 10, "value": "Hunter"},
	{ "amount": 10, "value": "Huntszy"},
	{ "amount": 10, "value": "IRON & WOOD"},
	{ "amount": 10, "value": "Ivan"},
	{ "amount": 10, "value": "Ivral Do "},
	{ "amount": 10, "value": "J-Limited"},
	{ "amount": 10, "value": "JAMESTHEKILLER!"},
	{ "amount": 10, "value": "Jalisurr"},
	{ "amount": 10, "value": "Jentek"},
	{ "amount": 10, "value": "Jesper-Nybo"},
	{ "amount": 10, "value": "Jim"},
	{ "amount": 10, "value": "JonShard"},
	{ "amount": 10, "value": "JoshPiper"},
	{ "amount": 10, "value": "Juan Perez de la Rosa"},
	{ "amount": 10, "value": "Junior Patrick"},
	{ "amount": 10, "value": "Just Sam"},
	{ "amount": 10, "value": "KMax"},
	{ "amount": 10, "value": "Kastenessen"},
	{ "amount": 10, "value": "Keenatron"},
	{ "amount": 10, "value": "Keroro Gunstar"},
	{ "amount": 10, "value": "Khrono McLurvin"},
	{ "amount": 10, "value": "Kibus Letus"},
	{ "amount": 10, "value": "Killer InStink"},
	{ "amount": 10, "value": "Knightrider"},
	{ "amount": 10, "value": "Knowbotty"},
	{ "amount": 10, "value": "Koinzell || Souza"},
	{ "amount": 10, "value": "Kropek"},
	{ "amount": 10, "value": "La Chaise"},
	{ "amount": 10, "value": "Lak´ech"},
	{ "amount": 10, "value": "Leaving Destiny"},
	{ "amount": 10, "value": "Leto"},
	{ "amount": 10, "value": "Lin"},
	{ "amount": 10, "value": "LittleNekoTerra"},
	{ "amount": 10, "value": "Lockleed"},
	{ "amount": 10, "value": "Lordchilljack"},
	{ "amount": 10, "value": "Lucifer Morningstar"},
	{ "amount": 10, "value": "LДZУCФLLIИДΓФЯ"},
	{ "amount": 10, "value": "MACMAN2003"},
	{ "amount": 10, "value": "Ma.reyachi"},
	{ "amount": 10, "value": "Mackinaw"},
	{ "amount": 10, "value": "Magic Space Pupper"},
	{ "amount": 10, "value": "Makabre"},
	{ "amount": 10, "value": "Morphologis"},
	{ "amount": 10, "value": "Mr. Nick R."},
	{ "amount": 10, "value": "Mustard Chuck"},
	{ "amount": 10, "value": "NYVS"},
	{ "amount": 10, "value": "NebelFir"},
	{ "amount": 10, "value": "NeoValkyrion"},
	{ "amount": 10, "value": "Neonin"},
	{ "amount": 10, "value": "NeverSayDie"},
	{ "amount": 10, "value": "Nikatoor"},
	{ "amount": 10, "value": "Niner"},
	{ "amount": 10, "value": "Norbert"},
	{ "amount": 10, "value": "Notspeedy"},
	{ "amount": 10, "value": "Papa Jefe"},
	{ "amount": 10, "value": "Pasta_power"},
	{ "amount": 10, "value": "Peacemoon"},
	{ "amount": 10, "value": "PhonierDeluxe"},
	{ "amount": 10, "value": "Porcode"},
	{ "amount": 10, "value": "Praefectus-D | Ibra"},
	{ "amount": 10, "value": "Provo"},
	{ "amount": 10, "value": "Puck"},
	{ "amount": 10, "value": "QC | Phantom"},
	{ "amount": 10, "value": "Quizitor"},
	{ "amount": 10, "value": "RUMGaminglive.ttv"},
	{ "amount": 10, "value": "Rage insanity"},
	{ "amount": 10, "value": "Ragnos"},
	{ "amount": 10, "value": "Rhoke"},
	{ "amount": 10, "value": "RoastToast777"},
	{ "amount": 10, "value": "Roasty my Toasty"},
	{ "amount": 10, "value": "Robertson"},
	{ "amount": 10, "value": "SKX-Mo"},
	{ "amount": 10, "value": "SYMPA TA ROBE!!!!"},
	{ "amount": 10, "value": "ShadowZero"},
	{ "amount": 10, "value": "Shallows"},
	{ "amount": 10, "value": "Shawn1563"},
	{ "amount": 10, "value": "ShiKmon"},
	{ "amount": 10, "value": "ShuDrix"},
	{ "amount": 10, "value": "Sigma"},
	{ "amount": 10, "value": "Sir Humphrey Appleby"},
	{ "amount": 10, "value": "Skippy"},
	{ "amount": 10, "value": "Smildger"},
	{ "amount": 10, "value": "Snaegon"},
	{ "amount": 10, "value": "Snakey"},
	{ "amount": 10, "value": "Snugglez"},
	{ "amount": 10, "value": "Softinnn"},
	{ "amount": 10, "value": "Spanker"},
	{ "amount": 10, "value": "SpartacusV"},
	{ "amount": 10, "value": "Spartiate"},
	{ "amount": 10, "value": "Splattercaster"},
	{ "amount": 10, "value": "Sprinkles"},
	{ "amount": 10, "value": "Stevee"},
	{ "amount": 10, "value": "Steven Multi-verse"},
	{ "amount": 10, "value": "StevieWundaBred"},
	{ "amount": 10, "value": "Sumyjkl"},
	{ "amount": 10, "value": "Swol Shaggy"},
	{ "amount": 10, "value": "T7"},
	{ "amount": 10, "value": "TESLA"},
	{ "amount": 10, "value": "THE kilroy"},
	{ "amount": 10, "value": "TOG | SaintGrey"},
	{ "amount": 10, "value": "Talon_65"},
	{ "amount": 10, "value": "Tbagnsnobalz"},
	{ "amount": 10, "value": "Templar"},
	{ "amount": 10, "value": "Thales"},
	{ "amount": 10, "value": "The Darkness"},
	{ "amount": 10, "value": "TheBlueGamer(DK)"},
	{ "amount": 10, "value": "TheBlueMarauder"},
	{ "amount": 10, "value": "Therow"},
	{ "amount": 10, "value": "Timely"},
	{ "amount": 10, "value": "Tokyo Jones"},
	{ "amount": 10, "value": "True Quark"},
	{ "amount": 10, "value": "TumorSVT"},
	{ "amount": 10, "value": "Tycho"},
	{ "amount": 10, "value": "Ubikjam"},
	{ "amount": 10, "value": "VDG"},
	{ "amount": 10, "value": "VOYAKA"},
	{ "amount": 10, "value": "VapeTrainGaming"},
	{ "amount": 10, "value": "Vew"},
	{ "amount": 10, "value": "Victory .CO"},
	{ "amount": 10, "value": "Viper"},
	{ "amount": 10, "value": "Vipero"},
	{ "amount": 10, "value": "Viruz"},
	{ "amount": 10, "value": "Vulkan"},
	{ "amount": 10, "value": "Vulpes"},
	{ "amount": 10, "value": "Whitehawk"},
	{ "amount": 10, "value": "Wildcard"},
	{ "amount": 10, "value": "Woftam"},
	{ "amount": 10, "value": "Woofski"},
	{ "amount": 10, "value": "Woopsious"},
	{ "amount": 10, "value": "WordBurglar"},
	{ "amount": 10, "value": "Xenolurker"},
	{ "amount": 10, "value": "Xphonias"},
	{ "amount": 10, "value": "YINKY"},
	{ "amount": 10, "value": "Ye olde Dutch boi"},
	{ "amount": 10, "value": "Zero_Sen"},
	{ "amount": 10, "value": "ZwERG"},
	{ "amount": 10, "value": "[1stGA B3]Rct.Robert E.Lee"},
	{ "amount": 10, "value": "[H] MeisterKeen"},
	{ "amount": 10, "value": "[Omega]"},
	{ "amount": 10, "value": "[TLOD] Bush Yowie"},
	{ "amount": 10, "value": "[TSS]Pegasus47"},
	{ "amount": 10, "value": "[USGB]-FishHead"},
	{ "amount": 10, "value": "[℘] Sarven"},
	{ "amount": 10, "value": "babeyblueyez04"},
	{ "amount": 10, "value": "battlecattle"},
	{ "amount": 10, "value": "big smelly willy"},
	{ "amount": 10, "value": "bub1881"},
	{ "amount": 10, "value": "cherpychicken"},
	{ "amount": 10, "value": "chrissyno"},
	{ "amount": 10, "value": "coltcoyote"},
	{ "amount": 10, "value": "csokiturmix96"},
	{ "amount": 10, "value": "cypher"},
	{ "amount": 10, "value": "danhayes3008"},
	{ "amount": 10, "value": "dark"},
	{ "amount": 10, "value": "ddDeath_666"},
	{ "amount": 10, "value": "domburrows.95"},
	{ "amount": 10, "value": "goldfiction"},
	{ "amount": 10, "value": "heartofachampion2006"},
	{ "amount": 10, "value": "hundreds dead"},
	{ "amount": 10, "value": "iksmo"},
	{ "amount": 10, "value": "jetblade545"},
	{ "amount": 10, "value": "kit.sakhalin"},
	{ "amount": 10, "value": "levi1659"},
	{ "amount": 10, "value": "loloedok911"},
	{ "amount": 10, "value": "longbow69"},
	{ "amount": 10, "value": "maxwilliam2003"},
	{ "amount": 10, "value": "migviola"},
	{ "amount": 10, "value": "mikasashafan"},
	{ "amount": 10, "value": "minoes"},
	{ "amount": 10, "value": "oOFirstyOo"},
	{ "amount": 10, "value": "p3st|cIdE"},
	{ "amount": 10, "value": "piddlefoot"},
	{ "amount": 10, "value": "romstef"},
	{ "amount": 10, "value": "rui.rosenthal"},
	{ "amount": 10, "value": "saintxlive"},
	{ "amount": 10, "value": "sebastianhampel1"},
	{ "amount": 10, "value": "sithtrooper"},
	{ "amount": 10, "value": "sphere.d.by"},
	{ "amount": 10, "value": "sqwark"},
	{ "amount": 10, "value": "stormtigers"},
	{ "amount": 10, "value": "toys5342"},
	{ "amount": 10, "value": "trollinator5729"},
	{ "amount": 10, "value": "vikinglier"},
	{ "amount": 10, "value": "wonderoveryonder04"},
	{ "amount": 10, "value": "wotan111"},
	{ "amount": 10, "value": "xiraxis9"},
	{ "amount": 10, "value": "xlodx"},
	{ "amount": 10, "value": "yeetabix"},
	{ "amount": 10, "value": "yourface"},
	{ "amount": 10, "value": "~~Lars~~"},
	{ "amount": 10, "value": "Добрый Пират"},
	{ "amount": 10, "value": "Сгущёнка ГОСТ 31688"},
	{ "amount": 10, "value": "差点没死成"},
	{ "amount": 10, "value": "聆听疯狂的耳语"}
]
