[
	{ "amount": 182, "value": "Confederacy of Sovereign Ships (CSS) collection."},
	{ "amount": 158, "value": "Interplanetary Enforcement Corps"},
	{ "amount": 141, "value": "Station Assets/Modules Pack"},
	{ "amount": 129, "value": "ISL Shipyard"},
	{ "amount": 127, "value": "BOBIAB - Module Collection"},
	{ "amount": 121, "value": "Space Engineers Prefab Collection"},
	{ "amount": 120, "value": "PSG - PSP - Purple Star Production"},
	{ "amount": 119, "value": "Dar Kovalord's Fleet (No Mods)"},
	{ "amount": 106, "value": "Spite's Small Grid Printable Ships (with Printer)"},
	{ "amount": 98, "value": "PSG - PSG - Purple Star Government"},
	{ "amount": 96, "value": "Light Space Frames"},
	{ "amount": 92, "value": "Star Wars"},
	{ "amount": 86, "value": "The Grey Pioneering Cooperation™"},
	{ "amount": 80, "value": "Star Wars"},
	{ "amount": 78, "value": "SPRT.Space Pirates (ships , stations and backup ships) & Random Encounters"},
	{ "amount": 76, "value": "Modular Stations. The ultimate Package"},
	{ "amount": 73, "value": "Halo"},
	{ "amount": 71, "value": "Complete Fleet"},
	{ "amount": 71, "value": "Other creations by Oisin"},
	{ "amount": 68, "value": "PSG - Tool-Ships & Sub-Tools || Tool-Grids & Wracks"},
	{ "amount": 64, "value": "Mars War 2170"},
	{ "amount": 63, "value": "all my se stuff"},
	{ "amount": 62, "value": "Dan2D3D's Blueprints Ships and Module"},
	{ "amount": 61, "value": "[SMI] Scorpio Military Industries"},
	{ "amount": 60, "value": "station Modules"},
	{ "amount": 59, "value": "Great Empire"},
	{ "amount": 58, "value": "MNI 4G Mainline"},
	{ "amount": 55, "value": "Workshop stuff I Use/made"},
	{ "amount": 53, "value": "DMI - Dark Matter Industries"},
	{ "amount": 53, "value": "KSH Ships and Stations"},
	{ "amount": 53, "value": "Project Exodus: The complete Collection"},
	{ "amount": 52, "value": "Ares Combat Industries (ACI)"},
	{ "amount": 52, "value": "BSE fleet"},
	{ "amount": 51, "value": "Halo UNSC"},
	{ "amount": 51, "value": "Mythospace Assembly"},
	{ "amount": 51, "value": "PSG - Default-Stations"},
	{ "amount": 51, "value": "siren's star trek ships + stations"},
	{ "amount": 49, "value": "[HS] Hyperion Systems"},
	{ "amount": 48, "value": "Consolidation ships"},
	{ "amount": 47, "value": "Grabacr Industries"},
	{ "amount": 47, "value": "The official IE collection (Vanilla)"},
	{ "amount": 46, "value": "Realistic Aircraft & Vehicles & Stations"},
	{ "amount": 45, "value": "Dar Kovalord's Retired Ships"},
	{ "amount": 45, "value": "Middle of Nowhere Industries (Outdated)"},
	{ "amount": 44, "value": "NSSMC - Northern Surface and Space Military Corporation"},
	{ "amount": 44, "value": "One Year of Malvious Phlare"},
	{ "amount": 44, "value": "Platform Modules"},
	{ "amount": 44, "value": "Sedna Systems and Industries"},
	{ "amount": 44, "value": "eXtraterrestrial Mining Corporation (XMC)"},
	{ "amount": 43, "value": "BSE - Series NoMod's ( no longer building for this game )"},
	{ "amount": 43, "value": "Volgraza's Modular ship Bluepritns"},
	{ "amount": 42, "value": "YOYO  no heya"},
	{ "amount": 41, "value": "Atmospheric Fleet"},
	{ "amount": 41, "value": "Orbital Industrial Services, O.I.S."},
	{ "amount": 41, "value": "Wolfen Modular Station Modules"},
	{ "amount": 40, "value": "Flottes GRSN Blueprint"},
	{ "amount": 40, "value": "Phantom's Ground Fleet"},
	{ "amount": 39, "value": "[UPDATED 11/08/2017] Gold and Darkness Corporation"},
	{ "amount": 38, "value": "(EXTREMIS SHIPYARDS)"},
	{ "amount": 38, "value": "CDI Modular Stations"},
	{ "amount": 38, "value": "The Trans-Neptunian Fleet"},
	{ "amount": 38, "value": "Waagh Engineering"},
	{ "amount": 37, "value": "Bilgeworth's Goodbye Collection"},
	{ "amount": 37, "value": "Cepheus Aerospace Consolidated"},
	{ "amount": 37, "value": "Dan2D3D's Creations"},
	{ "amount": 37, "value": "ISL - Small Grid Miners"},
	{ "amount": 37, "value": "Star Wars TGE Tie Fighters"},
	{ "amount": 36, "value": "Free Citizens' Republic Fleet"},
	{ "amount": 36, "value": "Military Yard"},
	{ "amount": 36, "value": "Nuri Industries Product Line"},
	{ "amount": 36, "value": "Parallax Concept"},
	{ "amount": 36, "value": "Space Engineer"},
	{ "amount": 36, "value": "Stalingrad Asset Pack"},
	{ "amount": 35, "value": "1992-2112 21st century"},
	{ "amount": 35, "value": "Consty & Carlos Design Bureau"},
	{ "amount": 35, "value": "FSTC - First Colony Ships, Stations"},
	{ "amount": 35, "value": "Modular Station Pieces"},
	{ "amount": 35, "value": "Space Engineers Valkyrie series"},
	{ "amount": 35, "value": "SuicideNeil's HomeWorld2 Ships"},
	{ "amount": 35, "value": "United Mars Navy"},
	{ "amount": 35, "value": "Void Corp"},
	{ "amount": 34, "value": "Cars pak"},
	{ "amount": 34, "value": "Code_Alpha ships Collection"},
	{ "amount": 34, "value": "Lengueni's Collection"},
	{ "amount": 34, "value": "[FMF] - Federation Modular Fleet Series"},
	{ "amount": 34, "value": "fabricator77's worlds and blueprints"},
	{ "amount": 33, "value": "(AOE) Station Modules"},
	{ "amount": 33, "value": "Arclight Drive Yards"},
	{ "amount": 33, "value": "Deployment and Retrieval Technology Corporation Fleet (Dart Corp)"},
	{ "amount": 33, "value": "Gek collection S.E."},
	{ "amount": 33, "value": "Mahriane Industries"},
	{ "amount": 33, "value": "O.I.S. Ship Main Computer Mk2"},
	{ "amount": 33, "value": "The old IMDC scrapyard"},
	{ "amount": 33, "value": "Victor AeroAstronautical Systems"},
	{ "amount": 32, "value": "Cypress City Buildings"},
	{ "amount": 32, "value": "DERMAKRAT INTERSPACE"},
	{ "amount": 32, "value": "Mining Ships and Vehicles"},
	{ "amount": 32, "value": "STM Star Trek Miniatures"},
	{ "amount": 31, "value": "LSF (Last Standing Faction)"},
	{ "amount": 31, "value": "Orbital Industrial Services (O.I.S) Planetary Division"},
	{ "amount": 31, "value": "ZJE Motor Vehicle Corporation"},
	{ "amount": 31, "value": "[Iconic Rides] from movies and TV by Kelevra"},
	{ "amount": 30, "value": "=Space Pirates= ALL SHIPS, BASE AND DRONE"},
	{ "amount": 30, "value": "Average Joe's Magnificent Mechs"},
	{ "amount": 30, "value": "IMP Navy Shipyards"},
	{ "amount": 30, "value": "Yuna Drive Yards"},
	{ "amount": 29, "value": "(ITI) Eden Modular Station Collection"},
	{ "amount": 29, "value": "Defenders of Earth"},
	{ "amount": 29, "value": "DesertStorms Blueprint Collection"},
	{ "amount": 29, "value": "Planetbase"},
	{ "amount": 29, "value": "Second generation"},
	{ "amount": 29, "value": "Star Wars Galaxies Structures"},
	{ "amount": 29, "value": "Universal Terran Coalition Ships"},
	{ "amount": 28, "value": "A collection of ships n' stuff"},
	{ "amount": 28, "value": "Ace Combat"},
	{ "amount": 28, "value": "Citrus Shipyards"},
	{ "amount": 28, "value": "J-FC-Reihe"},
	{ "amount": 28, "value": "One of the first complete Oxygen compatible Factions (Dart Corp)"},
	{ "amount": 28, "value": "SHC Fleet"},
	{ "amount": 28, "value": "SSE Modular Land Base"},
	{ "amount": 28, "value": "Walkers and Mechs"},
	{ "amount": 28, "value": "Warhammer no mods by AG"},
	{ "amount": 27, "value": "40k Replicas"},
	{ "amount": 27, "value": "ASDC Graveyard"},
	{ "amount": 27, "value": "Advanced Aerospace Systems"},
	{ "amount": 27, "value": "Aegis Systems Military"},
	{ "amount": 27, "value": "American Exploration Systems [AES]"},
	{ "amount": 27, "value": "Cerillian Alliance Fleet (retired)"},
	{ "amount": 27, "value": "Planetary Vehicles, Ships and Buildings"},
	{ "amount": 27, "value": "Slavic Kosmos Industries (SKI)"},
	{ "amount": 27, "value": "Star Core's Rocket Replicas"},
	{ "amount": 27, "value": "United Federation of Planets"},
	{ "amount": 27, "value": "X SHIPS"},
	{ "amount": 26, "value": "AVC [Disbanded, Discontinued]"},
	{ "amount": 26, "value": "Akivian Industries Coorporate Fleet Line"},
	{ "amount": 26, "value": "Atomic City Pack"},
	{ "amount": 26, "value": "Commander Rotal's Star Trek Builds"},
	{ "amount": 26, "value": "EAW Ships"},
	{ "amount": 26, "value": "IMP Commercial Shipyards"},
	{ "amount": 26, "value": "KMI Modular Ships"},
	{ "amount": 26, "value": "Phobos-Alpha Directive Ground Vehicles"},
	{ "amount": 26, "value": "Planes and stuff"},
	{ "amount": 26, "value": "Shivan Exploration Ships/Stations/Wrecks/Things"},
	{ "amount": 26, "value": "Space Ships"},
	{ "amount": 25, "value": "Blue Mining Inc"},
	{ "amount": 25, "value": "EEM List of used assets (optional)"},
	{ "amount": 25, "value": "Helios Defence Systems (Plug&Play Guns/Turrets/Clang Drives etc.)"},
	{ "amount": 25, "value": "J-FC-Fleet \"Exploration\""},
	{ "amount": 25, "value": "LSGMadMax RespawnRover Submissions"},
	{ "amount": 25, "value": "My builds"},
	{ "amount": 25, "value": "RCSP - Royal Coalition of Spatial Protection"},
	{ "amount": 25, "value": "Warhammer 40K low pcu Battlefleet Gothic ships and stations"},
	{ "amount": 25, "value": "[FP] Fleetworks Planetary"},
	{ "amount": 24, "value": "\"Galaxy On Fire\" Inspired Ships"},
	{ "amount": 24, "value": "GMC Modular Station Parts"},
	{ "amount": 24, "value": "InfernoGuard Active Service"},
	{ "amount": 24, "value": "Phoenix Vintage Craft"},
	{ "amount": 24, "value": "Star Wars Grand Army of the Republic"},
	{ "amount": 24, "value": "Starfleet 907 Starships and Mods"},
	{ "amount": 24, "value": "Stargate SG1 Ships - Tau'ri - Asgard - Goa'uld - Ori"},
	{ "amount": 24, "value": "W.A.S.P. Modular Ships"},
	{ "amount": 23, "value": "AKI Modular Starship Project BP(Vanilla Starshiptroopers Style)"},
	{ "amount": 23, "value": "CHIMERA Planetary Weapons"},
	{ "amount": 23, "value": "Pirate (formerly R.U.S.T.) Fleet"},
	{ "amount": 23, "value": "Schwarzengel"},
	{ "amount": 23, "value": "Space Defence Systems Shipyards"},
	{ "amount": 23, "value": "Space Engineers Cool Collection"},
	{ "amount": 23, "value": "Star Wars / Reborn 7th Fleet"},
	{ "amount": 23, "value": "Star Wars Confederacy of Independent Systems"},
	{ "amount": 23, "value": "Star Wars Vanilla Builds"},
	{ "amount": 23, "value": "TDY and TFI Ships"},
	{ "amount": 23, "value": "Titan Warfare Industry"},
	{ "amount": 23, "value": "[MOW] - Modular Outpost Wall Series"},
	{ "amount": 23, "value": "ship originale (trading station)"},
	{ "amount": 22, "value": "Adaline Industries"},
	{ "amount": 22, "value": "Airtight Docking Ports"},
	{ "amount": 22, "value": "Astron"},
	{ "amount": 22, "value": "Colección Serie-Survival Time! (Temporada 01)"},
	{ "amount": 22, "value": "HSI Modular System (Vanilla)"},
	{ "amount": 22, "value": "KDY Official Collection"},
	{ "amount": 22, "value": "LEOSAURE's  -UNSC-  Pack"},
	{ "amount": 22, "value": "Mod Pods - Modular Base Construction"},
	{ "amount": 22, "value": "NXO Civillian Vessels"},
	{ "amount": 22, "value": "OFFICIAL: Creations Used In Release Trailers"},
	{ "amount": 22, "value": "PSG - PlanetVehicles (Air/Ground)"},
	{ "amount": 22, "value": "Phoenix Fleet Systems Atmospherics Division"},
	{ "amount": 22, "value": "RMC Fleet (No Mods)"},
	{ "amount": 22, "value": "Robots"},
	{ "amount": 22, "value": "SE Star Wars"},
	{ "amount": 22, "value": "Star Trek Ships"},
	{ "amount": 22, "value": "Star Wars ...ish - Independent/Civilian/Pirate Vessels"},
	{ "amount": 22, "value": "Synchronex Spaceworks"},
	{ "amount": 22, "value": "Valkyrja - Maintenance & Engineering"},
	{ "amount": 21, "value": "All of Em"},
	{ "amount": 21, "value": "Battlestar Galactica | Fleet"},
	{ "amount": 21, "value": "Gaulbio"},
	{ "amount": 21, "value": "Hades Driveyards"},
	{ "amount": 21, "value": "Heavy Space Frames"},
	{ "amount": 21, "value": "IMDC Station Modules"},
	{ "amount": 21, "value": "IsEstredundant tanks"},
	{ "amount": 21, "value": "MCO Fleet"},
	{ "amount": 21, "value": "Rapid Fleet Prototyping Project"},
	{ "amount": 21, "value": "Star Wars [Purrfect] The Dark Side"},
	{ "amount": 21, "value": "Terran Military Collection"},
	{ "amount": 21, "value": "UNIC Fleet"},
	{ "amount": 21, "value": "[HS][A] Hyperion Systems: Atmospherics Division"},
	{ "amount": 20, "value": "Anaheim Electronics"},
	{ "amount": 20, "value": "Anarchy"},
	{ "amount": 20, "value": "BOBBIAB Modules"},
	{ "amount": 20, "value": "CDI Planetoid Base (Modular)"},
	{ "amount": 20, "value": "Crooked Modular Station"},
	{ "amount": 20, "value": "Hull's Buildings & Stations"},
	{ "amount": 20, "value": "MLAS Modern Fleet"},
	{ "amount": 20, "value": "Nebula Race 60"},
	{ "amount": 20, "value": "PZK ground vehicles"},
	{ "amount": 20, "value": "Ruby's Military"},
	{ "amount": 20, "value": "Spearhead Industries \"Dawnbreaker\""},
	{ "amount": 20, "value": "Star Trek"},
	{ "amount": 20, "value": "UEE Blueprints"},
	{ "amount": 20, "value": "Union of Soviet Socialist Planets"},
	{ "amount": 20, "value": "Warhammer 40K Builds"},
	{ "amount": 20, "value": "White Dwarf Manufacturing Armed Forces Division"},
	{ "amount": 20, "value": "[HullTec] Monorail System"},
	{ "amount": 19, "value": "- THI - Terran Heavy Industries"},
	{ "amount": 19, "value": "Exinity Technologies"},
	{ "amount": 19, "value": "Gamme NZ"},
	{ "amount": 19, "value": "Grippen SE Mod Collection"},
	{ "amount": 19, "value": "H.G. Industries Collection"},
	{ "amount": 19, "value": "HAV0K Industries Military Branch"},
	{ "amount": 19, "value": "Hades Driveyards Decomissioned Collection"},
	{ "amount": 19, "value": "Highwind Small Ship Collection"},
	{ "amount": 19, "value": "Highwind Warfleet Collection - 2019"},
	{ "amount": 19, "value": "Interstellar Mining and Defense Corp."},
	{ "amount": 19, "value": "JURASSIC WORLD EARTHLIKE"},
	{ "amount": 19, "value": "Leaf ships"},
	{ "amount": 19, "value": "MDT-MO 'MDT's Modular Ship Design Solution'"},
	{ "amount": 19, "value": "MEA-Missile Engineering Agency"},
	{ "amount": 19, "value": "Mods collection for MInd \"M - Industries\""},
	{ "amount": 19, "value": "My base parts"},
	{ "amount": 19, "value": "PZK Large ships"},
	{ "amount": 19, "value": "Planet Base (Jarhead Edition)"},
	{ "amount": 19, "value": "Quantum Industries Mega Collection"},
	{ "amount": 19, "value": "Royal Galactic Empire"},
	{ "amount": 19, "value": "SGT_MAJOR_FISH's train pack for Dh railway system"},
	{ "amount": 19, "value": "Space 1999"},
	{ "amount": 19, "value": "Star Wars - Galactic Empire"},
	{ "amount": 19, "value": "UHC Fleet"},
	{ "amount": 19, "value": "Video Game Builds"},
	{ "amount": 19, "value": "[SMI] Auxilla Branch"},
	{ "amount": 18, "value": "@mos Industries - Planetary Ship Collection"},
	{ "amount": 18, "value": "AstroTraffic: Vanilla Space Cars"},
	{ "amount": 18, "value": "C.A. Green Fleet"},
	{ "amount": 18, "value": "Command & Conquer Builds"},
	{ "amount": 18, "value": "DH Train Engineers Track Construction Kit"},
	{ "amount": 18, "value": "Drake - Vanilla Survival Ships Collection"},
	{ "amount": 18, "value": "Exploration Ships"},
	{ "amount": 18, "value": "Gravidrom Full Pack"},
	{ "amount": 18, "value": "Hull's Cargo Ships and Containers"},
	{ "amount": 18, "value": "Hull's Military Ships - Large Grid"},
	{ "amount": 18, "value": "ISL - Callisto Cargo Drones"},
	{ "amount": 18, "value": "Mass effect"},
	{ "amount": 18, "value": "Midori Construction & Fleetworks"},
	{ "amount": 18, "value": "Modular Space Station"},
	{ "amount": 18, "value": "N4 Machinery"},
	{ "amount": 18, "value": "PRH Space Program"},
	{ "amount": 18, "value": "PZK small ships"},
	{ "amount": 18, "value": "Results Oriented Sciences"},
	{ "amount": 18, "value": "SMTX Realistic Shipping Containers V.2"},
	{ "amount": 18, "value": "Samerrie´s Buildings"},
	{ "amount": 18, "value": "Ships for PVP survival"},
	{ "amount": 18, "value": "Skitto's Mechs"},
	{ "amount": 18, "value": "Space Boats"},
	{ "amount": 18, "value": "The official OTU collection (Vanilla)"},
	{ "amount": 18, "value": "[A.S.G] ArmStarGalaxi Corp."},
	{ "amount": 18, "value": "[HRR] Modular Station System"},
	{ "amount": 17, "value": "BOBIAB- Base Collection"},
	{ "amount": 17, "value": "Buildings (Vanilla)"},
	{ "amount": 17, "value": "Capital Ships and Support Craft"},
	{ "amount": 17, "value": "Community Build: Planet Base"},
	{ "amount": 17, "value": "Cypress City Signs and Accessories"},
	{ "amount": 17, "value": "Darkspot Industries"},
	{ "amount": 17, "value": "Dr.K Industries Moduler Base BOBIAB"},
	{ "amount": 17, "value": "Exon Space and Aeronautics Shipyards"},
	{ "amount": 17, "value": "FNS-Fleet"},
	{ "amount": 17, "value": "Frostbite Vehicles"},
	{ "amount": 17, "value": "Halo: UNSC Capital Ships (Scaled down)"},
	{ "amount": 17, "value": "ICE Modular Base - WIP"},
	{ "amount": 17, "value": "Kagami Systems Intergalactic (modded) [old]"},
	{ "amount": 17, "value": "Modular Space Program Parts"},
	{ "amount": 17, "value": "Pre-DMI Builds"},
	{ "amount": 17, "value": "SAVTec EMGC Advanced Cargo Ships"},
	{ "amount": 17, "value": "SAVTec Industries Truckworks"},
	{ "amount": 17, "value": "SE Cow Industries"},
	{ "amount": 17, "value": "STAR TREK DISCOVERY BY FLYGTUR"},
	{ "amount": 17, "value": "Star Wars - Confederacy of Independent Systems"},
	{ "amount": 17, "value": "Star Wars [Prfct] Now this is Podracing!"},
	{ "amount": 17, "value": "Star Wars [Purrfect] The Light Side"},
	{ "amount": 17, "value": "Stargate Atlantis / Universe Ships - Ancients - Asuran - Wraith"},
	{ "amount": 17, "value": "Station Modules"},
	{ "amount": 17, "value": "T.N.N.S.F. - TIR NA NOG Science Foundation"},
	{ "amount": 17, "value": "The ATC Public Server Collection"},
	{ "amount": 17, "value": "The Galactic Command"},
	{ "amount": 17, "value": "Vanilla Campaign Ships/Vehicles (In progress)"},
	{ "amount": 17, "value": "Whip's LCD Logo Collection"},
	{ "amount": 17, "value": "Whip's Ships"},
	{ "amount": 17, "value": "World at War"},
	{ "amount": 17, "value": "cars/hovercraft and track"},
	{ "amount": 16, "value": "-GSI- Planetary-Defense"},
	{ "amount": 16, "value": "-SAI- Saint Arsenal Impérial"},
	{ "amount": 16, "value": "ARMCO Star Wars Encounter Mod"},
	{ "amount": 16, "value": "Advanced Defense Legion"},
	{ "amount": 16, "value": "Albion Conglomerate"},
	{ "amount": 16, "value": "Angreen & Tabernackle Company"},
	{ "amount": 16, "value": "Bob-Alliance Inc Ships"},
	{ "amount": 16, "value": "Buildings, Bases and Stations"},
	{ "amount": 16, "value": "Citrus Boneyards"},
	{ "amount": 16, "value": "Construction Yard"},
	{ "amount": 16, "value": "Crusader shipyard"},
	{ "amount": 16, "value": "DH Train Engineers Vehicles"},
	{ "amount": 16, "value": "Dragon Armada"},
	{ "amount": 16, "value": "Drakedge Server Mod Collection"},
	{ "amount": 16, "value": "Epitome Heavy Industries Catalogue"},
	{ "amount": 16, "value": "Faster Than Light Ships"},
	{ "amount": 16, "value": "Grey's Mobile suit gundam pack"},
	{ "amount": 16, "value": "Highwind Warfleet Collection - 2020"},
	{ "amount": 16, "value": "ISL - Vanilla Homing Missile Interceptors"},
	{ "amount": 16, "value": "Kasper's Apocalypse Collection"},
	{ "amount": 16, "value": "Mars Territorial Fleet"},
	{ "amount": 16, "value": "Mudular Station mk I"},
	{ "amount": 16, "value": "NOSTECH Fighters and Ground Vehicles"},
	{ "amount": 16, "value": "Outer Solar Confederacy Fleet"},
	{ "amount": 16, "value": "Planetary Station"},
	{ "amount": 16, "value": "Planetary engineering"},
	{ "amount": 16, "value": "SE Adventures"},
	{ "amount": 16, "value": "SKEETER`S SURVIVAL READY BUILDS"},
	{ "amount": 16, "value": "SamTec Cars"},
	{ "amount": 16, "value": "SamTec T1 Cargo Modul´s"},
	{ "amount": 16, "value": "Self-building large ships and stations"},
	{ "amount": 16, "value": "Sergzone Blueprints Collection"},
	{ "amount": 16, "value": "Star Wars - Galactic Republic"},
	{ "amount": 16, "value": "Star Wars Galactic Empire"},
	{ "amount": 16, "value": "The Incarri Collection"},
	{ "amount": 16, "value": "VISIT - Void Inter Stellar Industrial Technology"},
	{ "amount": 16, "value": "Warfleet Ships and extras"},
	{ "amount": 15, "value": "Blueprints for Grey factories and holo satellites"},
	{ "amount": 15, "value": "CDF: Coalition Defense Force"},
	{ "amount": 15, "value": "Fleet Standard"},
	{ "amount": 15, "value": "FreeSpace 2 - Blue Planet"},
	{ "amount": 15, "value": "Galactic Cartel Foundation Shipyards [GCF]"},
	{ "amount": 15, "value": "Ground Forces"},
	{ "amount": 15, "value": "Halo: UNSC Frigates, Destroyers, Misc. Small Craft (Small Grid)"},
	{ "amount": 15, "value": "Hull's Military Ships - Small Grid"},
	{ "amount": 15, "value": "ISL - Utility Ships"},
	{ "amount": 15, "value": "KMI - Knightmare Industries' Ships - Generation Two"},
	{ "amount": 15, "value": "Mars Heavy Engineering Corporation Civilian Vehicles"},
	{ "amount": 15, "value": "Neutral Faction (green ships)"},
	{ "amount": 15, "value": "Non-Related Builds (NRBs)"},
	{ "amount": 15, "value": "Orbital Industrial Services, (O.I.S.) Orbital Division"},
	{ "amount": 15, "value": "PSG - Mods Collection"},
	{ "amount": 15, "value": "QST Planetary Expansion Division"},
	{ "amount": 15, "value": "Quantum Industries Ground Forces"},
	{ "amount": 15, "value": "Recreations from games and movies"},
	{ "amount": 15, "value": "Ruby's Logistics Company"},
	{ "amount": 15, "value": "Star Wars ...ish - Galactic Empire"},
	{ "amount": 15, "value": "Star Wars Ships"},
	{ "amount": 15, "value": "Starlancer"},
	{ "amount": 15, "value": "Status Defense Systems:  Fleet 7.0"},
	{ "amount": 15, "value": "The Manufactorum - Automated ship manufacturing."},
	{ "amount": 15, "value": "Trinity Combat Dynamics"},
	{ "amount": 15, "value": "[GEN 2] G-Space Production Ships"},
	{ "amount": 15, "value": "unauthorised's Halo Ships"},
	{ "amount": 14, "value": "A-P,A,T"},
	{ "amount": 14, "value": "A.I. Small ships"},
	{ "amount": 14, "value": "Ares Combat Industries (ACI) *Decommissioned*"},
	{ "amount": 14, "value": "Atmospheric Ships"},
	{ "amount": 14, "value": "Boo Multi"},
	{ "amount": 14, "value": "Colección Tutoriales"},
	{ "amount": 14, "value": "D3C Ships"},
	{ "amount": 14, "value": "DMC Shipyard"},
	{ "amount": 14, "value": "Drone Empire Special Projects Division Blueprints [Classified - Core Worlds Encryption]"},
	{ "amount": 14, "value": "Eridani Union"},
	{ "amount": 14, "value": "Genesis Industries Gen.1 Fleet [GSI]"},
	{ "amount": 14, "value": "Highwind Warfleet Utility Collection"},
	{ "amount": 14, "value": "LTV Ships and Fighters (Not updated)"},
	{ "amount": 14, "value": "MTF Ground Branch"},
	{ "amount": 14, "value": "MTF Mission Packages and Modules"},
	{ "amount": 14, "value": "Mars Heavy Engineering Corporation Naval Works"},
	{ "amount": 14, "value": "Modular ship and station parts"},
	{ "amount": 14, "value": "NSSMC - Centaur Hangars"},
	{ "amount": 14, "value": "REC Fleet"},
	{ "amount": 14, "value": "RWI Ships DGWGamer and (more recently) Charizard have made."},
	{ "amount": 14, "value": "SMC SX-50 Series Modular Station"},
	{ "amount": 14, "value": "SamTec Modular Station Parts"},
	{ "amount": 14, "value": "Space Engineers Federation Ships"},
	{ "amount": 14, "value": "Space Engineers gfU"},
	{ "amount": 14, "value": "Star Citizen Purrfect Space Industries"},
	{ "amount": 14, "value": "Star Wars Alliance to Restore the Republic/New Republic"},
	{ "amount": 14, "value": "T.N.F. Ordnance Factory"},
	{ "amount": 14, "value": "The Duke's Tanks"},
	{ "amount": 14, "value": "The Fall Of The High Castle"},
	{ "amount": 14, "value": "Tiger's old fleet"},
	{ "amount": 14, "value": "UNDF - CSG 5"},
	{ "amount": 14, "value": "Wolf Corp."},
	{ "amount": 14, "value": "[AES] Planetary Detail"},
	{ "amount": 14, "value": "[HS] Hyperion Systems: Archive"},
	{ "amount": 14, "value": "[I.W.P] (Iron Winter Pheonix) [Planet & Orbit]"},
	{ "amount": 13, "value": "AGF - Avalon Galactic Federation"},
	{ "amount": 13, "value": "AWG Heavy Industry"},
	{ "amount": 13, "value": "Akhinnae Imperial Fleet"},
	{ "amount": 13, "value": "Colección Serie-Survival Time! (Temporada 02)"},
	{ "amount": 13, "value": "D.I.C. Atmospheric Collection"},
	{ "amount": 13, "value": "EHI Modular Freight System"},
	{ "amount": 13, "value": "ESC - Endarian Space Command"},
	{ "amount": 13, "value": "Explorer Collection"},
	{ "amount": 13, "value": "Frostbite Items"},
	{ "amount": 13, "value": "GDF Fleet (original)"},
	{ "amount": 13, "value": "GDF Fleet 2.0"},
	{ "amount": 13, "value": "Galactic Defense Alliance Universe"},
	{ "amount": 13, "value": "Halo Covenant"},
	{ "amount": 13, "value": "Halo: Covenant Warships (Scaled down, Shielded)"},
	{ "amount": 13, "value": "Helios Station Dotty"},
	{ "amount": 13, "value": "I ROBERT AI and MECH"},
	{ "amount": 13, "value": "Jet Fighters and other Military Vehicles"},
	{ "amount": 13, "value": "Modular Lunar Base"},
	{ "amount": 13, "value": "Movie/TV Ships"},
	{ "amount": 13, "value": "OASIS"},
	{ "amount": 13, "value": "Original Ship Designs"},
	{ "amount": 13, "value": "Orion Planetary Fleet Systems"},
	{ "amount": 13, "value": "PSG - MMO - Mrs. Moving"},
	{ "amount": 13, "value": "R.C. Models"},
	{ "amount": 13, "value": "Race track parts"},
	{ "amount": 13, "value": "Remote Stations"},
	{ "amount": 13, "value": "Space Engineer Water stuff"},
	{ "amount": 13, "value": "Space Pirate Stations and Ships"},
	{ "amount": 13, "value": "Star Wars"},
	{ "amount": 13, "value": "Stardust Space Ships"},
	{ "amount": 13, "value": "TSC Ships"},
	{ "amount": 13, "value": "The 2nd Generation AON Fleet"},
	{ "amount": 13, "value": "World War II"},
	{ "amount": 13, "value": "Xenvakian Starships and Starfighters"},
	{ "amount": 13, "value": "[FI] Fleetworks Interplanetary"},
	{ "amount": 13, "value": "[I.W.P] (Iron Winter Pheonix) [Millitary Ships]"},
	{ "amount": 13, "value": "[IGW] Vyron Industries (Season-1)"},
	{ "amount": 13, "value": "[Starcom] Collection"},
	{ "amount": 13, "value": "unauthorised's Warhammer 40k Ships and Vehicles"},
	{ "amount": 13, "value": "yeetus"},
	{ "amount": 12, "value": "(BTI) Burner Tech Industries Collection"},
	{ "amount": 12, "value": "Arkin Modular Ship"},
	{ "amount": 12, "value": "Arrival of the alien artifact"},
	{ "amount": 12, "value": "BGC Old fleet"},
	{ "amount": 12, "value": "Blue Rocket Traders Alliance"},
	{ "amount": 12, "value": "Boney Rovers"},
	{ "amount": 12, "value": "Brass Guild (Survival-Ready Builds)"},
	{ "amount": 12, "value": "CGT-Creative"},
	{ "amount": 12, "value": "CHTech"},
	{ "amount": 12, "value": "CNL Fleet"},
	{ "amount": 12, "value": "Children of the stars 2059"},
	{ "amount": 12, "value": "CnC Engineers Tiberium Collection"},
	{ "amount": 12, "value": "Dragon MPUV & PODS"},
	{ "amount": 12, "value": "ENDARIA Universe Collection"},
	{ "amount": 12, "value": "Europan Isles Protectorate"},
	{ "amount": 12, "value": "FNG Flotte CoopStat construction kit"},
	{ "amount": 12, "value": "Fulcrum's Space Engineers Collection"},
	{ "amount": 12, "value": "GDF FLEET 3.0"},
	{ "amount": 12, "value": "Gef509's Star wars ships"},
	{ "amount": 12, "value": "GreenCorp"},
	{ "amount": 12, "value": "HDFS Fleet"},
	{ "amount": 12, "value": "Halo Wars UNSC Firebase Collection"},
	{ "amount": 12, "value": "Halo: UNSC Ground based/Ground Support Units"},
	{ "amount": 12, "value": "Hull's WW2 Planes"},
	{ "amount": 12, "value": "Hull's ground vehicles"},
	{ "amount": 12, "value": "IDI Shipcollection"},
	{ "amount": 12, "value": "JCM Shipyards"},
	{ "amount": 12, "value": "Legion Corp. Military Forces"},
	{ "amount": 12, "value": "MCRN Fleet small grid no mods"},
	{ "amount": 12, "value": "Mars Heavy Engineering Corporation Planetary Forces"},
	{ "amount": 12, "value": "Modular Cargo Transport System (MCTS-1)"},
	{ "amount": 12, "value": "Modular Ship"},
	{ "amount": 12, "value": "Nerevede Agency of Space"},
	{ "amount": 12, "value": "OctoMoose's \"realistic\" industrial builds"},
	{ "amount": 12, "value": "Off roadsters"},
	{ "amount": 12, "value": "Old Galactic Innovators Hangars"},
	{ "amount": 12, "value": "PSG - MOR - M ining ORE Company"},
	{ "amount": 12, "value": "Ramblers Frontier"},
	{ "amount": 12, "value": "Republic of Mars"},
	{ "amount": 12, "value": "Rolls-Rolls Industries"},
	{ "amount": 12, "value": "SE BluePrints for Exploration Mode"},
	{ "amount": 12, "value": "Sam´s Cargo System"},
	{ "amount": 12, "value": "Space Engineers"},
	{ "amount": 12, "value": "Star Core's Cars"},
	{ "amount": 12, "value": "Star Wars Rebellion in Space Engineers"},
	{ "amount": 12, "value": "Survival Ready Fleet - no mods required"},
	{ "amount": 12, "value": "TANKS! and more"},
	{ "amount": 12, "value": "The Drifter Fleet"},
	{ "amount": 12, "value": "The [G.L.I] fleet"},
	{ "amount": 12, "value": "United Human Systems - Fleet"},
	{ "amount": 12, "value": "Universal Terran Coalition - Exploration/Mod Free"},
	{ "amount": 12, "value": "Voxnic's Heavy Industries Collection"},
	{ "amount": 12, "value": "Xenon Corporation Shipyards"},
	{ "amount": 12, "value": "faction 625"},
	{ "amount": 12, "value": "high quality survival"},
	{ "amount": 11, "value": "3SP - Faction Catalogue"},
	{ "amount": 11, "value": "5-7 Ship Line"},
	{ "amount": 11, "value": "Atheris Shipyards - Member Collection"},
	{ "amount": 11, "value": "Border System Alliance [B.S.A.]"},
	{ "amount": 11, "value": "Bulk Trade Fleet Faction Lineup"},
	{ "amount": 11, "value": "Carbon Squadron (Unofficial ARMCO Star Wars Ugly collection)"},
	{ "amount": 11, "value": "Cityscape Collection"},
	{ "amount": 11, "value": "Conscripted Alliance Spacefleet"},
	{ "amount": 11, "value": "Cy-Pirates MKII"},
	{ "amount": 11, "value": "Fox Engineering - Small Grid"},
	{ "amount": 11, "value": "GSG Let's Build A Battlefleet"},
	{ "amount": 11, "value": "HEPHAESTUS INDUSTRIES"},
	{ "amount": 11, "value": "Halcyon Enterprises"},
	{ "amount": 11, "value": "Halo: Forerunner Ships and Constructs (Scaled Down, Shielded)"},
	{ "amount": 11, "value": "Halo: UNSC Space Stations and Utility Craft (Scaled down)"},
	{ "amount": 11, "value": "Holtex  Industries"},
	{ "amount": 11, "value": "Hull's Civil & Industrial Ships (except cargo)"},
	{ "amount": 11, "value": "ISS Icarus"},
	{ "amount": 11, "value": "Industrial Mining Platform Collection"},
	{ "amount": 11, "value": "JLAM's Scrapyard"},
	{ "amount": 11, "value": "Jax's versitile ships"},
	{ "amount": 11, "value": "KSY - Kakapo Ship Yards"},
	{ "amount": 11, "value": "KekzCorp 2019"},
	{ "amount": 11, "value": "Large Craft"},
	{ "amount": 11, "value": "Lego Ships!"},
	{ "amount": 11, "value": "MLAS Old Fleet"},
	{ "amount": 11, "value": "Mars exploration pack"},
	{ "amount": 11, "value": "Mass Effect Collection"},
	{ "amount": 11, "value": "McTec planetary combat pack"},
	{ "amount": 11, "value": "Mini Ships"},
	{ "amount": 11, "value": "Moon Project"},
	{ "amount": 11, "value": "Nordax Industries (Most content might be remade later)"},
	{ "amount": 11, "value": "Nubeees' Modular Megastructures"},
	{ "amount": 11, "value": "Oasis Heavy Industries"},
	{ "amount": 11, "value": "PSG - AFC - Air-Ore & Food Sharing Company"},
	{ "amount": 11, "value": "Phoenix Fleet Systems"},
	{ "amount": 11, "value": "Phoenix Fleet Systems Planetary Division"},
	{ "amount": 11, "value": "RADAR SKUNK WORKS R&D"},
	{ "amount": 11, "value": "Ragnarok Vehicle Collection"},
	{ "amount": 11, "value": "Republic Fleet"},
	{ "amount": 11, "value": "SAVTec Industries Fleetyards"},
	{ "amount": 11, "value": "SSC Navy"},
	{ "amount": 11, "value": "Ships for PVP server"},
	{ "amount": 11, "value": "Sport Crafts by Skeeter"},
	{ "amount": 11, "value": "Stellar Wind Industries"},
	{ "amount": 11, "value": "TFF Fleet Ships"},
	{ "amount": 11, "value": "The Red Dragon Industries Fleet"},
	{ "amount": 11, "value": "Thorium Industries"},
	{ "amount": 11, "value": "TiggilerZ's Collection Of Items"},
	{ "amount": 11, "value": "ViridiaTech interplantary engineering"},
	{ "amount": 11, "value": "[ OES ] Osiris Exploration Ship Collection"},
	{ "amount": 11, "value": "[HRR] Hegemonic Republic of Rizland"},
	{ "amount": 11, "value": "[MEG]  Ship collection"},
	{ "amount": 11, "value": "[SIM] Standard Interplanetary Mining"},
	{ "amount": 11, "value": "inovaiton and defence corporation"},
	{ "amount": 10, "value": "-GSI- Civilian-Buildings"},
	{ "amount": 10, "value": "15th MEU Auxiliary Blueprints"},
	{ "amount": 10, "value": "A.S.U. / U.S.S Blue Fleet"},
	{ "amount": 10, "value": "ARK Industries Planetary Division"},
	{ "amount": 10, "value": "Aerospace"},
	{ "amount": 10, "value": "Akhinnae Civilian Structures and Ships"},
	{ "amount": 10, "value": "Antti\"s creations"},
	{ "amount": 10, "value": "Architecture and Buildings Collection"},
	{ "amount": 10, "value": "Barthos Fleet"},
	{ "amount": 10, "value": "Bitonek Industrial Department"},
	{ "amount": 10, "value": "Brechrom corporation exploration ships"},
	{ "amount": 10, "value": "Calypso Mk III"},
	{ "amount": 10, "value": "Creating - Total Moded SE (over 150 mods 2.92GB)"},
	{ "amount": 10, "value": "Creeper industries"},
	{ "amount": 10, "value": "DMC item warehouse"},
	{ "amount": 10, "value": "Dark Lord's Ships"},
	{ "amount": 10, "value": "Earth Republic Navy"},
	{ "amount": 10, "value": "Et Exercitus Atlas Industries"},
	{ "amount": 10, "value": "Fleet 8.0 - The Lost Fleet"},
	{ "amount": 10, "value": "Floating Ship Series"},
	{ "amount": 10, "value": "Ground Vehicles by GSI [Modless]"},
	{ "amount": 10, "value": "Halo UNSC Builds"},
	{ "amount": 10, "value": "Helghan Empire"},
	{ "amount": 10, "value": "IEC Modular Base Parts"},
	{ "amount": 10, "value": "IMDC Planetary Division"},
	{ "amount": 10, "value": "IMDC Station Aftermarket Catalog"},
	{ "amount": 10, "value": "JT War Ships"},
	{ "amount": 10, "value": "Kalec84's Babilon MK1 Parts"},
	{ "amount": 10, "value": "Krakorana Military Engineering"},
	{ "amount": 10, "value": "Leviathan Mini Fleet"},
	{ "amount": 10, "value": "Light Space Frames Small Grid"},
	{ "amount": 10, "value": "MNI 4G Premium line"},
	{ "amount": 10, "value": "Mars Corp"},
	{ "amount": 10, "value": "Modern Ship Fleet"},
	{ "amount": 10, "value": "Modular Base Pack"},
	{ "amount": 10, "value": "Modular Bases!"},
	{ "amount": 10, "value": "Modular Space Station"},
	{ "amount": 10, "value": "My Blueprints"},
	{ "amount": 10, "value": "My survival focused fleet"},
	{ "amount": 10, "value": "Phantom Elite Squadron"},
	{ "amount": 10, "value": "Project B - Modular Platforms"},
	{ "amount": 10, "value": "Rovers"},
	{ "amount": 10, "value": "STAR WARS"},
	{ "amount": 10, "value": "Sabiroid Collection"},
	{ "amount": 10, "value": "SamTec Shuttles"},
	{ "amount": 10, "value": "Sammy Builds"},
	{ "amount": 10, "value": "Settlement Construction Kit"},
	{ "amount": 10, "value": "Solo Survival Lets Play"},
	{ "amount": 10, "value": "Space engineers"},
	{ "amount": 10, "value": "Star Wars - Outer Rim"},
	{ "amount": 10, "value": "Synchronex Spaceworks - Rocket League Range"},
	{ "amount": 10, "value": "Tempest Series"},
	{ "amount": 10, "value": "The 1-st Sagittarius heavy fleet"},
	{ "amount": 10, "value": "The Good Keen Ships"},
	{ "amount": 10, "value": "The Mining & Engineering Coalition"},
	{ "amount": 10, "value": "The Royal Roice Ship Package"},
	{ "amount": 10, "value": "The TIE Collection"},
	{ "amount": 10, "value": "The United States Seventh Fleet (C7F)"},
	{ "amount": 10, "value": "UTC Armed Forces"},
	{ "amount": 10, "value": "Vooperian Space Fleet (V.S.F.)"},
	{ "amount": 10, "value": "WW2 Ultimate Biased Collection"},
	{ "amount": 10, "value": "Warhammer 40k Space Marine Vehicles [ZZZhua's Vanilla ForgeWorld]"},
	{ "amount": 10, "value": "Wasabi Waters Collection"},
	{ "amount": 10, "value": "[Exploration] Convictus Faction (WIP)"},
	{ "amount": 10, "value": "[PHI] Pravda Heavy Industries"},
	{ "amount": 10, "value": "[RWI] Red Wood Industries"},
	{ "amount": 10, "value": "[Vanilla] Star Wars Ships (Original Trilogy)"},
	{ "amount": 10, "value": "unconventional weapons and ships"},
	{ "amount": 9, "value": "(D.E.S) Dynamic Engineering Syndicate Space Engineers Collection"},
	{ "amount": 9, "value": "ADV. Destroyer Series"},
	{ "amount": 9, "value": "AI Drones Scenario Pack"},
	{ "amount": 9, "value": "ARK Systems \"Clean Space Travel\""},
	{ "amount": 9, "value": "AkA`s Space Engineers Constructions"},
	{ "amount": 9, "value": "All Cargo Ships"},
	{ "amount": 9, "value": "Alpha Orionis Engineering (AOE)"},
	{ "amount": 9, "value": "Alpha Ship Defence Corps (ASDC)"},
	{ "amount": 9, "value": "Artic Whale industries fleet"},
	{ "amount": 9, "value": "Atheris Shipyards - Lore Collection"},
	{ "amount": 9, "value": "Avalon"},
	{ "amount": 9, "value": "BRO-Tec Industries Ships and Stations"},
	{ "amount": 9, "value": "Battlestar Pacifica: Designs by TanisDLJ"},
	{ "amount": 9, "value": "Big Scale Small Grid Ships / Small Ship Gone Wild"},
	{ "amount": 9, "value": "Black Team - W4stedspace's \"Team builds\""},
	{ "amount": 9, "value": "CDI Drones"},
	{ "amount": 9, "value": "CHTech Space Division"},
	{ "amount": 9, "value": "Carbon Industries"},
	{ "amount": 9, "value": "Cargo Ships (As spawned but no owner)"},
	{ "amount": 9, "value": "Carthas City Modules"},
	{ "amount": 9, "value": "Cassin's ships"},
	{ "amount": 9, "value": "Crimson Skies - Planes"},
	{ "amount": 9, "value": "Desert Fox Multi-Role Truck"},
	{ "amount": 9, "value": "Drohnen der temporalen verteidigung"},
	{ "amount": 9, "value": "E.D.F. Orange Fleet"},
	{ "amount": 9, "value": "Fallen Empire"},
	{ "amount": 9, "value": "GI Retired"},
	{ "amount": 9, "value": "Great Ball Contraption Moduls"},
	{ "amount": 9, "value": "Halcyon Industries - Planetary Faction"},
	{ "amount": 9, "value": "Halo ships"},
	{ "amount": 9, "value": "Highwind-Extremis Collab Collection"},
	{ "amount": 9, "value": "Horizonline Industries Ships"},
	{ "amount": 9, "value": "IWSC Reserve Fleet (Heavily Modded Ships)"},
	{ "amount": 9, "value": "Iron Labyrinth Systems. (Survival ready.)"},
	{ "amount": 9, "value": "LEOSAURE's -Star Wars- Pack"},
	{ "amount": 9, "value": "Large and small ship combinations"},
	{ "amount": 9, "value": "MNI Base Structures"},
	{ "amount": 9, "value": "Magical Shipyards"},
	{ "amount": 9, "value": "Modular Space Station Pack"},
	{ "amount": 9, "value": "My Blueprints and Worlds: Military"},
	{ "amount": 9, "value": "N.O.V.A. Fleet"},
	{ "amount": 9, "value": "Nimbus Corp [Space Engineers]"},
	{ "amount": 9, "value": "NovaGate"},
	{ "amount": 9, "value": "Ocean Pack"},
	{ "amount": 9, "value": "Octo's 1:1 replica spacecraft"},
	{ "amount": 9, "value": "Orbital Industrial Services (O.I.S.) Discontinued items"},
	{ "amount": 9, "value": "Orbital Industrial Services, (O.I.S.) Lidar Division"},
	{ "amount": 9, "value": "Other Projects/Creations"},
	{ "amount": 9, "value": "PRV8 Ground Vehicles"},
	{ "amount": 9, "value": "Pegasus Industries, Shipyard"},
	{ "amount": 9, "value": "Phobos Armoury Group- Civil Engineering"},
	{ "amount": 9, "value": "Primo Industries"},
	{ "amount": 9, "value": "Quark`s Modular Base"},
	{ "amount": 9, "value": "RT Fleet Pack"},
	{ "amount": 9, "value": "RVZ IKEA"},
	{ "amount": 9, "value": "S1meX re-creation of Star Wars Ships"},
	{ "amount": 9, "value": "SE COLLECTION OF SHIPS"},
	{ "amount": 9, "value": "SE: Unguided Bomb Mk1 Plug N Play Collection"},
	{ "amount": 9, "value": "SME Starfleet"},
	{ "amount": 9, "value": "SirSleepy's Star Wars Collective"},
	{ "amount": 9, "value": "Space Engineers [YouTube'owa Seria]"},
	{ "amount": 9, "value": "Star Wars - Civilians, Pirates & Others"},
	{ "amount": 9, "value": "Star Wars - Legends Content"},
	{ "amount": 9, "value": "Star Wars 1:1 Vanilla Replicas."},
	{ "amount": 9, "value": "Stargate Inspired Designs"},
	{ "amount": 9, "value": "System in Turmoil"},
	{ "amount": 9, "value": "Terran Expeditionary Force"},
	{ "amount": 9, "value": "The Black Fleet"},
	{ "amount": 9, "value": "The Iron Trashcan"},
	{ "amount": 9, "value": "The Rebel Alliance"},
	{ "amount": 9, "value": "Theft of the alien artifact"},
	{ "amount": 9, "value": "Titan Combat Industries"},
	{ "amount": 9, "value": "Titan Defense Forces"},
	{ "amount": 9, "value": "U.S.M Ships / Bases"},
	{ "amount": 9, "value": "UFC/Galactic Federation Stuff"},
	{ "amount": 9, "value": "Valiant Aerospace Logistics"},
	{ "amount": 9, "value": "Whistle Ships"},
	{ "amount": 9, "value": "World Space Agency [WSA]"},
	{ "amount": 9, "value": "[Vetron] Blueprints"},
	{ "amount": 8, "value": "(HI) Halcyon Industries"},
	{ "amount": 8, "value": "-- INTERNATIONAL SPACE COLONY --"},
	{ "amount": 8, "value": "40k Inspired builds"},
	{ "amount": 8, "value": "AC01 Vessels"},
	{ "amount": 8, "value": "AI Drones as Enemy NPCs"},
	{ "amount": 8, "value": "ASDC Planetary Division"},
	{ "amount": 8, "value": "Air Superiority"},
	{ "amount": 8, "value": "Altamaha Drive Yards (ADY)"},
	{ "amount": 8, "value": "Atmospheric Cargoship"},
	{ "amount": 8, "value": "AutoMcD Astronautical - Performance Research"},
	{ "amount": 8, "value": "BSG Ghost fleet models"},
	{ "amount": 8, "value": "Blue's Star Trek Shuttles"},
	{ "amount": 8, "value": "CFS Fleet"},
	{ "amount": 8, "value": "Coalition of Independent Colonies"},
	{ "amount": 8, "value": "Colección Serie-Escape From Mars"},
	{ "amount": 8, "value": "Consty & Carlos Trucks and Trailers"},
	{ "amount": 8, "value": "DA WAAAGH Fleet"},
	{ "amount": 8, "value": "DMI Miner"},
	{ "amount": 8, "value": "ESF Decommissioned Ships"},
	{ "amount": 8, "value": "Fox Engineering - Large Grid"},
	{ "amount": 8, "value": "GCF Ground Corps"},
	{ "amount": 8, "value": "GUP Division [Neutral]"},
	{ "amount": 8, "value": "Genesis Securities- 7S Line"},
	{ "amount": 8, "value": "Grav Race Track Parts Collection"},
	{ "amount": 8, "value": "Green Team Fleet"},
	{ "amount": 8, "value": "Halo Builds"},
	{ "amount": 8, "value": "Heracles Class Heavy Tub and modules (Retired)"},
	{ "amount": 8, "value": "Iron Wolves ShipYard"},
	{ "amount": 8, "value": "JT Cargo Vessels"},
	{ "amount": 8, "value": "LSG Plane Server - [RTR] Grevsnes creations"},
	{ "amount": 8, "value": "Les vaisseaux de Willy !"},
	{ "amount": 8, "value": "MNI's WMD arsenal"},
	{ "amount": 8, "value": "MNST ships"},
	{ "amount": 8, "value": "MTF Anvil Class LPD and Drop Platforms"},
	{ "amount": 8, "value": "Machinery"},
	{ "amount": 8, "value": "Mad Max Modular Gunship and other inspired builds"},
	{ "amount": 8, "value": "Missile Collection"},
	{ "amount": 8, "value": "Modular Colonization System"},
	{ "amount": 8, "value": "RED vs BLU: Faction Warfare"},
	{ "amount": 8, "value": "Ragnarok Weapons Depot"},
	{ "amount": 8, "value": "Re-install"},
	{ "amount": 8, "value": "Remodeled Cargo ships"},
	{ "amount": 8, "value": "Remote Minitonks"},
	{ "amount": 8, "value": "S - Road / Car"},
	{ "amount": 8, "value": "SF Fleet"},
	{ "amount": 8, "value": "STAR WARS"},
	{ "amount": 8, "value": "Space Engineers - Colony Wars"},
	{ "amount": 8, "value": "Space Engineers Creations"},
	{ "amount": 8, "value": "Space Fleet"},
	{ "amount": 8, "value": "Space engenhers"},
	{ "amount": 8, "value": "Star Wars Builds- Glory To The Empire"},
	{ "amount": 8, "value": "Star Wars Rebel Fighters"},
	{ "amount": 8, "value": "Supergidon's Fleet"},
	{ "amount": 8, "value": "T.N.F. Decommissioned Ships"},
	{ "amount": 8, "value": "TNG Ship Collection!"},
	{ "amount": 8, "value": "TSM Space Division"},
	{ "amount": 8, "value": "Tangent Heavy Industries"},
	{ "amount": 8, "value": "Terran Resource Corporation (1st Gen)"},
	{ "amount": 8, "value": "The Black Hand"},
	{ "amount": 8, "value": "The Fleet of Fear and Terror"},
	{ "amount": 8, "value": "The G.P.K. fleet"},
	{ "amount": 8, "value": "The Machine Creations Vol.1"},
	{ "amount": 8, "value": "Tristavian Shipyards Inc: Blueprints"},
	{ "amount": 8, "value": "Trucks for SE"},
	{ "amount": 8, "value": "UAF Fleet(United Altenarian Forces)"},
	{ "amount": 8, "value": "UNSC"},
	{ "amount": 8, "value": "United Earth Imperium Builds"},
	{ "amount": 8, "value": "United Martian Engineering"},
	{ "amount": 8, "value": "Universal Tool Loader (UniTool)"},
	{ "amount": 8, "value": "Unknown Dockyard Industries Collection"},
	{ "amount": 8, "value": "V's Earth-Excavation-Vehicle-Series"},
	{ "amount": 8, "value": "V.M.E - BASICS"},
	{ "amount": 8, "value": "[Reich] German Reich"},
	{ "amount": 8, "value": "my ships"},
	{ "amount": 8, "value": "repülőim"},
	{ "amount": 8, "value": "terrible battlestar galactica designs"},
	{ "amount": 8, "value": "winston`s"},
	{ "amount": 8, "value": "星际迷航"},
	{ "amount": 7, "value": "(ETC's Star Wars) Clone Wars"},
	{ "amount": 7, "value": "4th Generation Ships"},
	{ "amount": 7, "value": "ALR industry"},
	{ "amount": 7, "value": "ARM Industries"},
	{ "amount": 7, "value": "AX-Series Fleet"},
	{ "amount": 7, "value": "Asphalt vacuums"},
	{ "amount": 7, "value": "AstroTruck Roverworks Limited"},
	{ "amount": 7, "value": "Atlas corporation"},
	{ "amount": 7, "value": "Automatic & Modular Base Platforms"},
	{ "amount": 7, "value": "BIT: Bart's Interstellar Trading"},
	{ "amount": 7, "value": "Barcella Alpha Shipyards"},
	{ "amount": 7, "value": "Bectrek's Scrapland Submissions"},
	{ "amount": 7, "value": "Big Black Ship Collection"},
	{ "amount": 7, "value": "Blackspace Corporation"},
	{ "amount": 7, "value": "BoneShark"},
	{ "amount": 7, "value": "Cars And Ground vehicles I made"},
	{ "amount": 7, "value": "Citadel Outpost: Resource Plant (Modular Upgrades)"},
	{ "amount": 7, "value": "Clawcroft Construction and Shipwrights"},
	{ "amount": 7, "value": "Collection of Excellent Works"},
	{ "amount": 7, "value": "Cougar Arms Industries"},
	{ "amount": 7, "value": "DarkHawk Series"},
	{ "amount": 7, "value": "Deeweechaz's ships"},
	{ "amount": 7, "value": "Destiny Fleetyards Corporate"},
	{ "amount": 7, "value": "Drake Research Industries Shipyards"},
	{ "amount": 7, "value": "Earth Sphere Federation Fleet"},
	{ "amount": 7, "value": "Eiselburg Industries Catalogue"},
	{ "amount": 7, "value": "Endeavour Industries Ltd."},
	{ "amount": 7, "value": "Exploration & Conflict Industries"},
	{ "amount": 7, "value": "FUCKING EVERYTHING"},
	{ "amount": 7, "value": "FearNixx Flotte (by Josun)"},
	{ "amount": 7, "value": "FireGuy's UNSC Navy Collection"},
	{ "amount": 7, "value": "Flotte d'Artistic"},
	{ "amount": 7, "value": "Fox Engineering - Utility Ships"},
	{ "amount": 7, "value": "Frozen Pandora Collection"},
	{ "amount": 7, "value": "G.S.O. Dept. of Engineering"},
	{ "amount": 7, "value": "GAN Fleet"},
	{ "amount": 7, "value": "Galactic Soverign M-8 Ds Lineup - Small Arid Vehicles"},
	{ "amount": 7, "value": "HDFS Dreadnought"},
	{ "amount": 7, "value": "Highwind Warship Collection"},
	{ "amount": 7, "value": "I.S.N. (Italian Space Navy)"},
	{ "amount": 7, "value": "ICD Fleet"},
	{ "amount": 7, "value": "InfernoGuard Special Operations"},
	{ "amount": 7, "value": "Jentek International: Ground Forces"},
	{ "amount": 7, "value": "Jnick24's Temp. Collection"},
	{ "amount": 7, "value": "KSR - Keen's red team fleet"},
	{ "amount": 7, "value": "Kapparch MilTech Collection"},
	{ "amount": 7, "value": "Karmana Sector Varaint Purchaseable Ships"},
	{ "amount": 7, "value": "Keen's lost ships"},
	{ "amount": 7, "value": "Klingon ships"},
	{ "amount": 7, "value": "Knife-class Mothership and Associated Content"},
	{ "amount": 7, "value": "Knights of Highwind Warfleet Series"},
	{ "amount": 7, "value": "Köfte Ships"},
	{ "amount": 7, "value": "LT-2 Light Tank Variants"},
	{ "amount": 7, "value": "Landungsschiff MSS Rusa"},
	{ "amount": 7, "value": "Lunis Collective"},
	{ "amount": 7, "value": "MArmOS V3.0 Examples"},
	{ "amount": 7, "value": "MNI Miscellaneous"},
	{ "amount": 7, "value": "Mahtrok's Kushan Fleet remakes"},
	{ "amount": 7, "value": "Mechanical parts made of rotor and piston (no mod)"},
	{ "amount": 7, "value": "Mining, and survival"},
	{ "amount": 7, "value": "Mod empfehlungen für Val und zwerg"},
	{ "amount": 7, "value": "Moonlight Space Program"},
	{ "amount": 7, "value": "Mothballed vehicles"},
	{ "amount": 7, "value": "My Creations"},
	{ "amount": 7, "value": "My Space Engineers Blueprints"},
	{ "amount": 7, "value": "My Space Engineers Content"},
	{ "amount": 7, "value": "NSSMC - Northern Shipyards"},
	{ "amount": 7, "value": "Neravian Industries Ships"},
	{ "amount": 7, "value": "Nevarrin Remnant Fleet"},
	{ "amount": 7, "value": "New Frontier Defense Force (NFDF)"},
	{ "amount": 7, "value": "Nexus Modular Base"},
	{ "amount": 7, "value": "Nova Industries"},
	{ "amount": 7, "value": "O.I.S. Modular station/ship components"},
	{ "amount": 7, "value": "OSPREY Collection : All Ships and Printed Items"},
	{ "amount": 7, "value": "OctoMoose's defense industry"},
	{ "amount": 7, "value": "Owl of Minervas SE blueprints!"},
	{ "amount": 7, "value": "PSG - DUS - Toxic DUST"},
	{ "amount": 7, "value": "Phobos-Alpha Directive Fleet"},
	{ "amount": 7, "value": "Project Exodus: Beginner Ships"},
	{ "amount": 7, "value": "Quasar Collection"},
	{ "amount": 7, "value": "Rail track Collection"},
	{ "amount": 7, "value": "Rangatiratanga Industries"},
	{ "amount": 7, "value": "Red Faction Ships"},
	{ "amount": 7, "value": "RedAceFred's ground vehicles serie"},
	{ "amount": 7, "value": "Reward Blocks Toolbox"},
	{ "amount": 7, "value": "Rock Raiders replicas."},
	{ "amount": 7, "value": "Royal Shipbuilding Company / Sabine IDS"},
	{ "amount": 7, "value": "SMU"},
	{ "amount": 7, "value": "Satellite Series 3D Ship Printers"},
	{ "amount": 7, "value": "Small Craft"},
	{ "amount": 7, "value": "Snipes Basics"},
	{ "amount": 7, "value": "Space Engineers - Some Blueprints"},
	{ "amount": 7, "value": "Space Engineers Racing bikes"},
	{ "amount": 7, "value": "Space Engineers W.M.D dept. [obsolete since update]"},
	{ "amount": 7, "value": "Space engineers mods"},
	{ "amount": 7, "value": "Star Wars - First Order"},
	{ "amount": 7, "value": "Star Wars - Rebel Alliance"},
	{ "amount": 7, "value": "StarGate Ships"},
	{ "amount": 7, "value": "Start Up Ships"},
	{ "amount": 7, "value": "Storm-series (currently mothballed)"},
	{ "amount": 7, "value": "Sycamore Defense Systems"},
	{ "amount": 7, "value": "TSFR"},
	{ "amount": 7, "value": "The Duke's Old Planes"},
	{ "amount": 7, "value": "The GDC fleet"},
	{ "amount": 7, "value": "The New Erisian Republic Exploration Fleet"},
	{ "amount": 7, "value": "The Space Engineers"},
	{ "amount": 7, "value": "The main fleet"},
	{ "amount": 7, "value": "Thorium Energy Industries"},
	{ "amount": 7, "value": "Tim's"},
	{ "amount": 7, "value": "Trader's Union"},
	{ "amount": 7, "value": "United Earth Coalition"},
	{ "amount": 7, "value": "Unknown / Rogue AI"},
	{ "amount": 7, "value": "VOYAKA's Horizon collection"},
	{ "amount": 7, "value": "Valdian Motor System [Vanilla Models]"},
	{ "amount": 7, "value": "Vessels - Colonial Industies Concern"},
	{ "amount": 7, "value": "Vulpodrac's BOBIAB modules"},
	{ "amount": 7, "value": "Weapons of Mass-Trolling Destruction"},
	{ "amount": 7, "value": "Welkinsoul Series"},
	{ "amount": 7, "value": "What I've made so far"},
	{ "amount": 7, "value": "X-Series Atmospheric Combat Aircraft"},
	{ "amount": 7, "value": "Y-Z-WX 重载舰队"},
	{ "amount": 7, "value": "Yellow Team Fleet"},
	{ "amount": 7, "value": "[Magtek] Utopian Planetary Base Series"},
	{ "amount": 7, "value": "[NER] New Earth Republic - Space division"},
	{ "amount": 7, "value": "[OSE] Star Wars"},
	{ "amount": 7, "value": "[TIN] Terran Imperial Navy"},
	{ "amount": 7, "value": "[Valarkan] Modded Ships and Prototypes"},
	{ "amount": 7, "value": "meine eigenen und liblings bp´s"},
	{ "amount": 7, "value": "seMods02/15/2020"},
	{ "amount": 7, "value": "space elevator"},
	{ "amount": 7, "value": "space engineers aircraft"},
	{ "amount": 7, "value": "w4s Extraction Group"},
	{ "amount": 6, "value": "'Shackologispace' Group Survival Collection (mods, vehicles, and worlds)"},
	{ "amount": 6, "value": "3SP - Simple Survival (small ships)"},
	{ "amount": 6, "value": "= Chan's Specialty Vehicles ="},
	{ "amount": 6, "value": "AMERICAN TRUCKS"},
	{ "amount": 6, "value": "Addible Attachments / Weaponry"},
	{ "amount": 6, "value": "Aex Exploration Experimental Vehicles"},
	{ "amount": 6, "value": "Andrew's Green Faction Ships"},
	{ "amount": 6, "value": "Badpupuce's Vanilla Warfare"},
	{ "amount": 6, "value": "Battlestar Group 75 Colonial Fleet"},
	{ "amount": 6, "value": "Blasters Space Engineers Builds"},
	{ "amount": 6, "value": "Blue Fleet (Ships repainted)"},
	{ "amount": 6, "value": "Blue Team Fleet"},
	{ "amount": 6, "value": "BrG - Planetary Division"},
	{ "amount": 6, "value": "BrG - Space Division"},
	{ "amount": 6, "value": "Bundes Verteidigungs Dienst (BVD)"},
	{ "amount": 6, "value": "Bursh Heavy Vehicles"},
	{ "amount": 6, "value": "C.A.I. Black Fleet"},
	{ "amount": 6, "value": "CIAIC"},
	{ "amount": 6, "value": "CT Fleet Pack"},
	{ "amount": 6, "value": "Cascade and Columbia"},
	{ "amount": 6, "value": "Cerillian Colonial Alliance"},
	{ "amount": 6, "value": "Civilian Ships Collection"},
	{ "amount": 6, "value": "Coalition Expedition First Fleet"},
	{ "amount": 6, "value": "Colony ship bundle"},
	{ "amount": 6, "value": "Combat Drones"},
	{ "amount": 6, "value": "Commander Rotal's Danube-E Class Runabout Builds"},
	{ "amount": 6, "value": "DSI ship Collection"},
	{ "amount": 6, "value": "DTA Battlegroup"},
	{ "amount": 6, "value": "Dauntless Ships"},
	{ "amount": 6, "value": "Deep Space Freighter 'VALIANT'"},
	{ "amount": 6, "value": "E.O.L.C's fleet"},
	{ "amount": 6, "value": "EXO Suits"},
	{ "amount": 6, "value": "Escape from Mars series craft blueprints"},
	{ "amount": 6, "value": "Exploration"},
	{ "amount": 6, "value": "Fleet Standard Transport Line"},
	{ "amount": 6, "value": "Flota iKs"},
	{ "amount": 6, "value": "FountainCore PVP Salvaged Designs"},
	{ "amount": 6, "value": "Fox Engineering - Military Ships"},
	{ "amount": 6, "value": "G.M.C. Fleet"},
	{ "amount": 6, "value": "Galactic Mining Corporation"},
	{ "amount": 6, "value": "Gallactus Empire Fleet"},
	{ "amount": 6, "value": "Gdansk Interstellar Shipbuilding"},
	{ "amount": 6, "value": "Genesis Technologies Archer-Class Railgun Cruiser (All Pieces)"},
	{ "amount": 6, "value": "Golden Dragon Industries Mod Pack"},
	{ "amount": 6, "value": "Great fleet"},
	{ "amount": 6, "value": "Gundam Fleet"},
	{ "amount": 6, "value": "Hansochi 600 Series Trucks"},
	{ "amount": 6, "value": "Heavy Hulls"},
	{ "amount": 6, "value": "Horx Heavy Industries"},
	{ "amount": 6, "value": "IPHY Orbital Drop Lander and easy start ships"},
	{ "amount": 6, "value": "ISL - Hercules Miner Carrier Series"},
	{ "amount": 6, "value": "ISL - Pegasus Corvette Series"},
	{ "amount": 6, "value": "InfernoGuard Retired Units"},
	{ "amount": 6, "value": "InfernoTech Industries Catalog"},
	{ "amount": 6, "value": "JustyFied Navy"},
	{ "amount": 6, "value": "Larson Engineering"},
	{ "amount": 6, "value": "MArmOS turnkey collection"},
	{ "amount": 6, "value": "MECHS OF MEKTEK"},
	{ "amount": 6, "value": "MNI Missile Tech"},
	{ "amount": 6, "value": "Mars Territorial Fleet (Modded)"},
	{ "amount": 6, "value": "Mehnix's Space Stuff"},
	{ "amount": 6, "value": "Mobile suit Gundam UC_0096"},
	{ "amount": 6, "value": "Modul-Schiff"},
	{ "amount": 6, "value": "Modular Bits"},
	{ "amount": 6, "value": "Modular Ships"},
	{ "amount": 6, "value": "Module ship and modules"},
	{ "amount": 6, "value": "Mountable Turrets"},
	{ "amount": 6, "value": "My Creations"},
	{ "amount": 6, "value": "My Ship blueprints"},
	{ "amount": 6, "value": "My workshop items"},
	{ "amount": 6, "value": "Nexus Aerospace Corporation Fighter Showcase"},
	{ "amount": 6, "value": "Nick's Replicas"},
	{ "amount": 6, "value": "Oz Galactic Manufacture"},
	{ "amount": 6, "value": "PP - Guided Missile MK2"},
	{ "amount": 6, "value": "PP - Guided and Self Guided Missile Mod Pack"},
	{ "amount": 6, "value": "Phantom's Utility Drones"},
	{ "amount": 6, "value": "Phlare Modular Fleet"},
	{ "amount": 6, "value": "Plaid Corporation"},
	{ "amount": 6, "value": "Purple Team Fleet"},
	{ "amount": 6, "value": "RSB Vehicles (Frostpunk World)"},
	{ "amount": 6, "value": "RVZ Exploration"},
	{ "amount": 6, "value": "Real Life Replicas"},
	{ "amount": 6, "value": "Red Team Ship Archive - PvPvP"},
	{ "amount": 6, "value": "Resource Development Administration (RDA)"},
	{ "amount": 6, "value": "RockyShip-101 Ship And Drones Bundle Pack"},
	{ "amount": 6, "value": "SCC - Space Colonization Company"},
	{ "amount": 6, "value": "SE Beta Spawn Ships"},
	{ "amount": 6, "value": "SHADOW RAIDER - Blueprints"},
	{ "amount": 6, "value": "SPE Navy"},
	{ "amount": 6, "value": "Ships from The Expanse"},
	{ "amount": 6, "value": "SirS Star Wars Blueprints"},
	{ "amount": 6, "value": "Soval Arms"},
	{ "amount": 6, "value": "Space Engineer's Collection"},
	{ "amount": 6, "value": "Space Engineers - My Fleet"},
	{ "amount": 6, "value": "Space Engineers Avatar World Blueprints"},
	{ "amount": 6, "value": "Special Operations Command"},
	{ "amount": 6, "value": "Star Wars ...ish - Royal Naboo N-1 Series"},
	{ "amount": 6, "value": "Star Wars Ships"},
	{ "amount": 6, "value": "StarCraft Terran D.A.F"},
	{ "amount": 6, "value": "StarDev Systems - Building Blueprints"},
	{ "amount": 6, "value": "Stargazer Foundation"},
	{ "amount": 6, "value": "Steampunk Hardwear"},
	{ "amount": 6, "value": "Survival Blueprints"},
	{ "amount": 6, "value": "TTC Industries"},
	{ "amount": 6, "value": "Tanks"},
	{ "amount": 6, "value": "The Elite Dangerous Series"},
	{ "amount": 6, "value": "The Exception Roster"},
	{ "amount": 6, "value": "The Gremlin Varients Pack"},
	{ "amount": 6, "value": "The Havelock Fighter Collection"},
	{ "amount": 6, "value": "The Hawk Fleet"},
	{ "amount": 6, "value": "The Heroic Alliance"},
	{ "amount": 6, "value": "The Rebel Collaborations League Collection"},
	{ "amount": 6, "value": "Transcend Techs Vehicles"},
	{ "amount": 6, "value": "Tristavian Shipyards Inc: Legacy Blueprints"},
	{ "amount": 6, "value": "USC - Union Space Command"},
	{ "amount": 6, "value": "Ultramarines/Space marines"},
	{ "amount": 6, "value": "Unstengravian Armement Company"},
	{ "amount": 6, "value": "Vanguad IND"},
	{ "amount": 6, "value": "Wandering's Armco Ships"},
	{ "amount": 6, "value": "WufTek Shipyards"},
	{ "amount": 6, "value": "X-Device Weapons Program"},
	{ "amount": 6, "value": "Yukiria's Blueprint Designs, all Organic!"},
	{ "amount": 6, "value": "Zarya Design Bureau"},
	{ "amount": 6, "value": "Zoids"},
	{ "amount": 6, "value": "[AAi] Astra Systems Division"},
	{ "amount": 6, "value": "[OSS] Omega System Security"},
	{ "amount": 6, "value": "[Ri] Centurion S-Class Rovers"},
	{ "amount": 6, "value": "[VA] Valhalla Army"},
	{ "amount": 6, "value": "[Valarkan] Okalar Ulosh's Ship Collection"},
	{ "amount": 6, "value": "tcoylebrea14's Blueprints"},
	{ "amount": 6, "value": "ww2"},
	{ "amount": 6, "value": "Коллекция кораблей"},
	{ "amount": 5, "value": "\"Legion\" Modular Turret System"},
	{ "amount": 5, "value": "1-1-1 Survival interplanetary PvP fleet"},
	{ "amount": 5, "value": "3 Fingered Hands"},
	{ "amount": 5, "value": "AAA fleet"},
	{ "amount": 5, "value": "AAM Viper Interceptor Series (Vanilla)"},
	{ "amount": 5, "value": "AEON Space Industries"},
	{ "amount": 5, "value": "AM (Armed/Auto Miner) Collection"},
	{ "amount": 5, "value": "AMI Exploration Division Fleet"},
	{ "amount": 5, "value": "ARES PIRATE BLUEPRINTS"},
	{ "amount": 5, "value": "Aarius Aerospace Division"},
	{ "amount": 5, "value": "Arcturus Truck + Trailers and other relevant builds"},
	{ "amount": 5, "value": "Ares Commonwealth"},
	{ "amount": 5, "value": "Ariel Aerospace Manufacturing - Third Generation Series"},
	{ "amount": 5, "value": "Asking Industries' Fleet for the MCRN"},
	{ "amount": 5, "value": "Atmospheric Fighters"},
	{ "amount": 5, "value": "Atmospheric Fighters - Purple Faction"},
	{ "amount": 5, "value": "Automated Fleet"},
	{ "amount": 5, "value": "Aviation Series"},
	{ "amount": 5, "value": "Bad Humour's Supported Workshop Items"},
	{ "amount": 5, "value": "Banned & illegal projects"},
	{ "amount": 5, "value": "Battlefleet Gothic"},
	{ "amount": 5, "value": "Best of:"},
	{ "amount": 5, "value": "Bison LAV - All Configurations"},
	{ "amount": 5, "value": "Blue Ship Collection"},
	{ "amount": 5, "value": "C.A.I. Fleet"},
	{ "amount": 5, "value": "CDI ship Fleet"},
	{ "amount": 5, "value": "CSI Industrial"},
	{ "amount": 5, "value": "Caemel Modular Shipyard"},
	{ "amount": 5, "value": "Commander Rotal's Assorted Shuttlecraft Builds"},
	{ "amount": 5, "value": "Corporate Colonial Military"},
	{ "amount": 5, "value": "DFC Infrastructure"},
	{ "amount": 5, "value": "DGM Series 1"},
	{ "amount": 5, "value": "Decorations (and more?) Vanilla"},
	{ "amount": 5, "value": "Default Pirate Bases"},
	{ "amount": 5, "value": "Doctor Who Blueprints"},
	{ "amount": 5, "value": "EAW Frigates"},
	{ "amount": 5, "value": "EAW Light Cruisers"},
	{ "amount": 5, "value": "EAW MODS"},
	{ "amount": 5, "value": "Earth Defense Force Exiles Vessels"},
	{ "amount": 5, "value": "Elecor Design Inc."},
	{ "amount": 5, "value": "Enzhagi Triumvirate"},
	{ "amount": 5, "value": "Escape Vehicles"},
	{ "amount": 5, "value": "Expand Survival"},
	{ "amount": 5, "value": "Exploration"},
	{ "amount": 5, "value": "Fenrir Fighter Garage, G- and H-Series"},
	{ "amount": 5, "value": "Fiber Generation"},
	{ "amount": 5, "value": "Fighter and Armament V2.0 [discontinued]"},
	{ "amount": 5, "value": "Fleet Selection: Industrials - Welder/Grinder"},
	{ "amount": 5, "value": "Fleet Standard Surplus"},
	{ "amount": 5, "value": "Genesis Industries Gen.2 Fleet [GSI]"},
	{ "amount": 5, "value": "GeoBuild : Colony Industries"},
	{ "amount": 5, "value": "Gryphon Industries Shipyard"},
	{ "amount": 5, "value": "Halo Stuff"},
	{ "amount": 5, "value": "Halo UNSC Ships"},
	{ "amount": 5, "value": "Heavy Gear Industry"},
	{ "amount": 5, "value": "Heavy Metal Queenie Space Truck and Trailers"},
	{ "amount": 5, "value": "Helratz's Vanilla Ship Parts"},
	{ "amount": 5, "value": "INTRUDER Escort Carriers"},
	{ "amount": 5, "value": "ISE's Fleet"},
	{ "amount": 5, "value": "ISL - Cargo Ships"},
	{ "amount": 5, "value": "ISL Cargo Ships (No Script Version)"},
	{ "amount": 5, "value": "Ice Cream Fleet"},
	{ "amount": 5, "value": "Ilonus Industries Collection"},
	{ "amount": 5, "value": "Imperial Lansk Navy"},
	{ "amount": 5, "value": "Imperial Large-Ships"},
	{ "amount": 5, "value": "Improved IMDC Scrapyard"},
	{ "amount": 5, "value": "Intergalactic Private Sector Of Defence"},
	{ "amount": 5, "value": "Ironthunder Incorporated"},
	{ "amount": 5, "value": "Ju-35L and his weapon"},
	{ "amount": 5, "value": "KDY TIE Series Collection"},
	{ "amount": 5, "value": "KEG Industry Corp."},
	{ "amount": 5, "value": "KMI - Knightmare Industries' Ships - Generation One"},
	{ "amount": 5, "value": "KRT Creative Visual Pack"},
	{ "amount": 5, "value": "KSB - Keen's blue team fleet"},
	{ "amount": 5, "value": "L.U.I.S Utility Space Ships"},
	{ "amount": 5, "value": "LEGO"},
	{ "amount": 5, "value": "Lightwing Exploration Ships"},
	{ "amount": 5, "value": "Lunar Kolony Fleet"},
	{ "amount": 5, "value": "MBGV Projector Blueprints"},
	{ "amount": 5, "value": "MCRN Fleet no mods"},
	{ "amount": 5, "value": "MCRN navy"},
	{ "amount": 5, "value": "MLAS Rustbucket Bin"},
	{ "amount": 5, "value": "Metavamp Space Engineers"},
	{ "amount": 5, "value": "Miscellaneous parts and pieces."},
	{ "amount": 5, "value": "Mobile Factory/Ship printing Collection"},
	{ "amount": 5, "value": "Modified Ships by Adaline"},
	{ "amount": 5, "value": "Modless 'XL size' - small ships"},
	{ "amount": 5, "value": "Modular Small Craft"},
	{ "amount": 5, "value": "Monoc Securities"},
	{ "amount": 5, "value": "Mothership (MS)"},
	{ "amount": 5, "value": "My Space Ships and things"},
	{ "amount": 5, "value": "My Workshop Items and collections"},
	{ "amount": 5, "value": "My best BUILDS!"},
	{ "amount": 5, "value": "NeoSevvanian Frontier Defense Corps"},
	{ "amount": 5, "value": "No Signal: Mass effect"},
	{ "amount": 5, "value": "OSV Olympus Space Vessels (& Systems)"},
	{ "amount": 5, "value": "Old nostalgic stuff"},
	{ "amount": 5, "value": "PSG - SDG - Scrap Dealer Group"},
	{ "amount": 5, "value": "PSI - Fleet Systems Division"},
	{ "amount": 5, "value": "Penz Industry"},
	{ "amount": 5, "value": "Phoenix Fleet Systems Automated Factory Blueprints"},
	{ "amount": 5, "value": "Phoenix Project"},
	{ "amount": 5, "value": "Pods"},
	{ "amount": 5, "value": "Recovery of the alien artifact"},
	{ "amount": 5, "value": "Reliant (Space Cruiser)"},
	{ "amount": 5, "value": "Rhentin's Modpack V2"},
	{ "amount": 5, "value": "SE - Cargo ships - Fan Rework"},
	{ "amount": 5, "value": "SE.st"},
	{ "amount": 5, "value": "SMC B-7 Work Ship"},
	{ "amount": 5, "value": "SSA Fleet (Old)"},
	{ "amount": 5, "value": "SSC full blueprint line up"},
	{ "amount": 5, "value": "Safe Escape Co"},
	{ "amount": 5, "value": "Sektion 31 Schiffswerften"},
	{ "amount": 5, "value": "Ships and bases by:BotT28"},
	{ "amount": 5, "value": "Solar Communication Satelite v1.1 in 5 parts"},
	{ "amount": 5, "value": "Space Engineer Mod List Hunting-Ferret"},
	{ "amount": 5, "value": "Space Engineers"},
	{ "amount": 5, "value": "Space Engineers Collection"},
	{ "amount": 5, "value": "Space Engineers MOC vehicles"},
	{ "amount": 5, "value": "Star Federation Fleet"},
	{ "amount": 5, "value": "Star Wars (No mods)"},
	{ "amount": 5, "value": "Star Wars ...ish - Alliance to Restore the Republic"},
	{ "amount": 5, "value": "Star Wars ...ish - The Old Republic"},
	{ "amount": 5, "value": "Star Wars Complete Collection"},
	{ "amount": 5, "value": "Star Wars: Republic Navy"},
	{ "amount": 5, "value": "Star wars - Survival Ready"},
	{ "amount": 5, "value": "Stargate SGC Raumstation Alpha"},
	{ "amount": 5, "value": "Storm Heavy Industries"},
	{ "amount": 5, "value": "Submarines"},
	{ "amount": 5, "value": "Supply Drops"},
	{ "amount": 5, "value": "Swedish Expedition Force"},
	{ "amount": 5, "value": "Tharenau"},
	{ "amount": 5, "value": "The Duke's Sport Cars"},
	{ "amount": 5, "value": "The Fast-Travel Gateway Pack"},
	{ "amount": 5, "value": "The Martian - World and Vehicle Collection"},
	{ "amount": 5, "value": "The butterfly effect"},
	{ "amount": 5, "value": "Titan Systems"},
	{ "amount": 5, "value": "Typhon Initiative"},
	{ "amount": 5, "value": "UFI - United Federation Industries"},
	{ "amount": 5, "value": "UOD - Union Of Defence"},
	{ "amount": 5, "value": "USC"},
	{ "amount": 5, "value": "Ulfsark's Vanilla Ships"},
	{ "amount": 5, "value": "Unit 666 Collection"},
	{ "amount": 5, "value": "V's Prototypes"},
	{ "amount": 5, "value": "Vanilla NPC ships"},
	{ "amount": 5, "value": "Void Corp Technologies"},
	{ "amount": 5, "value": "WIP"},
	{ "amount": 5, "value": "Weird Unicorn Industries"},
	{ "amount": 5, "value": "Workshop"},
	{ "amount": 5, "value": "World of Warships/Azur Lane"},
	{ "amount": 5, "value": "Zero-G: NASA-inspired Modular Ships and Stations"},
	{ "amount": 5, "value": "[AAi] Hybrid Division"},
	{ "amount": 5, "value": "[AAi] Planet Systems division"},
	{ "amount": 5, "value": "[EEC] Blueprints - Vanilla"},
	{ "amount": 5, "value": "[I.W.P] [CIV] [And Other Branches]"},
	{ "amount": 5, "value": "[NGI] Neutral gear industrie"},
	{ "amount": 5, "value": "[SMI] Civillian Branch"},
	{ "amount": 5, "value": "[Ultimate BSG] Colonial Vipers"},
	{ "amount": 5, "value": "[ZS] Ground Vehicles"},
	{ "amount": 5, "value": "w4stedspace Atmospheric Fighters"},
	{ "amount": 5, "value": "粒坊科技 Lf science and technology"}
]
